%!PS-Adobe-3.0 EPSF-3.0
%%Creator: (MATLAB, The Mathworks, Inc. Version 9.10.0.1739362 \(R2021a\) Update 5. Operating System: Windows 10)
%%Title: (C:/Users/rkurnia/Documents/2. publication/202211 NEMOH MANUAL/figures/Ver_NonSymmetrical_excitationforce.eps)
%%CreationDate: 2022-11-24T06:51:55
%%Pages: (atend)
%%BoundingBox:     0     0   922   576
%%LanguageLevel: 3
%%EndComments
%%BeginProlog
%%BeginResource: procset (Apache XML Graphics Std ProcSet) 1.2 0
%%Version: 1.2 0
%%Copyright: (Copyright 2001-2003,2010 The Apache Software Foundation. License terms: http://www.apache.org/licenses/LICENSE-2.0)
/bd{bind def}bind def
/ld{load def}bd
/GR/grestore ld
/GS/gsave ld
/RM/rmoveto ld
/C/curveto ld
/t/show ld
/L/lineto ld
/ML/setmiterlimit ld
/CT/concat ld
/f/fill ld
/N/newpath ld
/S/stroke ld
/CC/setcmykcolor ld
/A/ashow ld
/cp/closepath ld
/RC/setrgbcolor ld
/LJ/setlinejoin ld
/GC/setgray ld
/LW/setlinewidth ld
/M/moveto ld
/re {4 2 roll M
1 index 0 rlineto
0 exch rlineto
neg 0 rlineto
cp } bd
/_ctm matrix def
/_tm matrix def
/BT { _ctm currentmatrix pop matrix _tm copy pop 0 0 moveto } bd
/ET { _ctm setmatrix } bd
/iTm { _ctm setmatrix _tm concat } bd
/Tm { _tm astore pop iTm 0 0 moveto } bd
/ux 0.0 def
/uy 0.0 def
/F {
  /Tp exch def
  /Tf exch def
  Tf findfont Tp scalefont setfont
  /cf Tf def  /cs Tp def
} bd
/ULS {currentpoint /uy exch def /ux exch def} bd
/ULE {
  /Tcx currentpoint pop def
  gsave
  newpath
  cf findfont cs scalefont dup
  /FontMatrix get 0 get /Ts exch def /FontInfo get dup
  /UnderlinePosition get Ts mul /To exch def
  /UnderlineThickness get Ts mul /Tt exch def
  ux uy To add moveto  Tcx uy To add lineto
  Tt setlinewidth stroke
  grestore
} bd
/OLE {
  /Tcx currentpoint pop def
  gsave
  newpath
  cf findfont cs scalefont dup
  /FontMatrix get 0 get /Ts exch def /FontInfo get dup
  /UnderlinePosition get Ts mul /To exch def
  /UnderlineThickness get Ts mul /Tt exch def
  ux uy To add cs add moveto Tcx uy To add cs add lineto
  Tt setlinewidth stroke
  grestore
} bd
/SOE {
  /Tcx currentpoint pop def
  gsave
  newpath
  cf findfont cs scalefont dup
  /FontMatrix get 0 get /Ts exch def /FontInfo get dup
  /UnderlinePosition get Ts mul /To exch def
  /UnderlineThickness get Ts mul /Tt exch def
  ux uy To add cs 10 mul 26 idiv add moveto Tcx uy To add cs 10 mul 26 idiv add lineto
  Tt setlinewidth stroke
  grestore
} bd
/QT {
/Y22 exch store
/X22 exch store
/Y21 exch store
/X21 exch store
currentpoint
/Y21 load 2 mul add 3 div exch
/X21 load 2 mul add 3 div exch
/X21 load 2 mul /X22 load add 3 div
/Y21 load 2 mul /Y22 load add 3 div
/X22 load /Y22 load curveto
} bd
/SSPD {
dup length /d exch dict def
{
/v exch def
/k exch def
currentpagedevice k known {
/cpdv currentpagedevice k get def
v cpdv ne {
/upd false def
/nullv v type /nulltype eq def
/nullcpdv cpdv type /nulltype eq def
nullv nullcpdv or
{
/upd true def
} {
/sametype v type cpdv type eq def
sametype {
v type /arraytype eq {
/vlen v length def
/cpdvlen cpdv length def
vlen cpdvlen eq {
0 1 vlen 1 sub {
/i exch def
/obj v i get def
/cpdobj cpdv i get def
obj cpdobj ne {
/upd true def
exit
} if
} for
} {
/upd true def
} ifelse
} {
v type /dicttype eq {
v {
/dv exch def
/dk exch def
/cpddv cpdv dk get def
dv cpddv ne {
/upd true def
exit
} if
} forall
} {
/upd true def
} ifelse
} ifelse
} if
} ifelse
upd true eq {
d k v put
} if
} if
} if
} forall
d length 0 gt {
d setpagedevice
} if
} bd
/RE { % /NewFontName [NewEncodingArray] /FontName RE -
  findfont dup length dict begin
  {
    1 index /FID ne
    {def} {pop pop} ifelse
  } forall
  /Encoding exch def
  /FontName 1 index def
  currentdict definefont pop
  end
} bind def
%%EndResource
%%BeginResource: procset (Apache XML Graphics EPS ProcSet) 1.0 0
%%Version: 1.0 0
%%Copyright: (Copyright 2002-2003 The Apache Software Foundation. License terms: http://www.apache.org/licenses/LICENSE-2.0)
/BeginEPSF { %def
/b4_Inc_state save def         % Save state for cleanup
/dict_count countdictstack def % Count objects on dict stack
/op_count count 1 sub def      % Count objects on operand stack
userdict begin                 % Push userdict on dict stack
/showpage { } def              % Redefine showpage, { } = null proc
0 setgray 0 setlinecap         % Prepare graphics state
1 setlinewidth 0 setlinejoin
10 setmiterlimit [ ] 0 setdash newpath
/languagelevel where           % If level not equal to 1 then
{pop languagelevel             % set strokeadjust and
1 ne                           % overprint to their defaults.
{false setstrokeadjust false setoverprint
} if
} if
} bd
/EndEPSF { %def
count op_count sub {pop} repeat            % Clean up stacks
countdictstack dict_count sub {end} repeat
b4_Inc_state restore
} bd
%%EndResource
%FOPBeginFontDict
%%IncludeResource: font Courier-Oblique
%%IncludeResource: font Courier-BoldOblique
%%IncludeResource: font Courier-Bold
%%IncludeResource: font ZapfDingbats
%%IncludeResource: font Symbol
%%IncludeResource: font Helvetica
%%IncludeResource: font Helvetica-Oblique
%%IncludeResource: font Helvetica-Bold
%%IncludeResource: font Helvetica-BoldOblique
%%IncludeResource: font Times-Roman
%%IncludeResource: font Times-Italic
%%IncludeResource: font Times-Bold
%%IncludeResource: font Times-BoldItalic
%%IncludeResource: font Courier
%FOPEndFontDict
%%BeginResource: encoding WinAnsiEncoding
/WinAnsiEncoding [
/.notdef /.notdef /.notdef /.notdef /.notdef
/.notdef /.notdef /.notdef /.notdef /.notdef
/.notdef /.notdef /.notdef /.notdef /.notdef
/.notdef /.notdef /.notdef /.notdef /.notdef
/.notdef /.notdef /.notdef /.notdef /.notdef
/.notdef /.notdef /.notdef /.notdef /.notdef
/.notdef /.notdef /space /exclam /quotedbl
/numbersign /dollar /percent /ampersand /quotesingle
/parenleft /parenright /asterisk /plus /comma
/hyphen /period /slash /zero /one
/two /three /four /five /six
/seven /eight /nine /colon /semicolon
/less /equal /greater /question /at
/A /B /C /D /E
/F /G /H /I /J
/K /L /M /N /O
/P /Q /R /S /T
/U /V /W /X /Y
/Z /bracketleft /backslash /bracketright /asciicircum
/underscore /quoteleft /a /b /c
/d /e /f /g /h
/i /j /k /l /m
/n /o /p /q /r
/s /t /u /v /w
/x /y /z /braceleft /bar
/braceright /asciitilde /bullet /Euro /bullet
/quotesinglbase /florin /quotedblbase /ellipsis /dagger
/daggerdbl /circumflex /perthousand /Scaron /guilsinglleft
/OE /bullet /Zcaron /bullet /bullet
/quoteleft /quoteright /quotedblleft /quotedblright /bullet
/endash /emdash /asciitilde /trademark /scaron
/guilsinglright /oe /bullet /zcaron /Ydieresis
/space /exclamdown /cent /sterling /currency
/yen /brokenbar /section /dieresis /copyright
/ordfeminine /guillemotleft /logicalnot /sfthyphen /registered
/macron /degree /plusminus /twosuperior /threesuperior
/acute /mu /paragraph /middot /cedilla
/onesuperior /ordmasculine /guillemotright /onequarter /onehalf
/threequarters /questiondown /Agrave /Aacute /Acircumflex
/Atilde /Adieresis /Aring /AE /Ccedilla
/Egrave /Eacute /Ecircumflex /Edieresis /Igrave
/Iacute /Icircumflex /Idieresis /Eth /Ntilde
/Ograve /Oacute /Ocircumflex /Otilde /Odieresis
/multiply /Oslash /Ugrave /Uacute /Ucircumflex
/Udieresis /Yacute /Thorn /germandbls /agrave
/aacute /acircumflex /atilde /adieresis /aring
/ae /ccedilla /egrave /eacute /ecircumflex
/edieresis /igrave /iacute /icircumflex /idieresis
/eth /ntilde /ograve /oacute /ocircumflex
/otilde /odieresis /divide /oslash /ugrave
/uacute /ucircumflex /udieresis /yacute /thorn
/ydieresis
] def
%%EndResource
%FOPBeginFontReencode
/Courier-Oblique findfont
dup length dict begin
  {1 index /FID ne {def} {pop pop} ifelse} forall
  /Encoding WinAnsiEncoding def
  currentdict
end
/Courier-Oblique exch definefont pop
/Courier-BoldOblique findfont
dup length dict begin
  {1 index /FID ne {def} {pop pop} ifelse} forall
  /Encoding WinAnsiEncoding def
  currentdict
end
/Courier-BoldOblique exch definefont pop
/Courier-Bold findfont
dup length dict begin
  {1 index /FID ne {def} {pop pop} ifelse} forall
  /Encoding WinAnsiEncoding def
  currentdict
end
/Courier-Bold exch definefont pop
/Helvetica findfont
dup length dict begin
  {1 index /FID ne {def} {pop pop} ifelse} forall
  /Encoding WinAnsiEncoding def
  currentdict
end
/Helvetica exch definefont pop
/Helvetica-Oblique findfont
dup length dict begin
  {1 index /FID ne {def} {pop pop} ifelse} forall
  /Encoding WinAnsiEncoding def
  currentdict
end
/Helvetica-Oblique exch definefont pop
/Helvetica-Bold findfont
dup length dict begin
  {1 index /FID ne {def} {pop pop} ifelse} forall
  /Encoding WinAnsiEncoding def
  currentdict
end
/Helvetica-Bold exch definefont pop
/Helvetica-BoldOblique findfont
dup length dict begin
  {1 index /FID ne {def} {pop pop} ifelse} forall
  /Encoding WinAnsiEncoding def
  currentdict
end
/Helvetica-BoldOblique exch definefont pop
/Times-Roman findfont
dup length dict begin
  {1 index /FID ne {def} {pop pop} ifelse} forall
  /Encoding WinAnsiEncoding def
  currentdict
end
/Times-Roman exch definefont pop
/Times-Italic findfont
dup length dict begin
  {1 index /FID ne {def} {pop pop} ifelse} forall
  /Encoding WinAnsiEncoding def
  currentdict
end
/Times-Italic exch definefont pop
/Times-Bold findfont
dup length dict begin
  {1 index /FID ne {def} {pop pop} ifelse} forall
  /Encoding WinAnsiEncoding def
  currentdict
end
/Times-Bold exch definefont pop
/Times-BoldItalic findfont
dup length dict begin
  {1 index /FID ne {def} {pop pop} ifelse} forall
  /Encoding WinAnsiEncoding def
  currentdict
end
/Times-BoldItalic exch definefont pop
/Courier findfont
dup length dict begin
  {1 index /FID ne {def} {pop pop} ifelse} forall
  /Encoding WinAnsiEncoding def
  currentdict
end
/Courier exch definefont pop
%FOPEndFontReencode
%%EndProlog
%%Page: 1 1
%%PageBoundingBox: 0 0 922 576
%%BeginPageSetup
[1 0 0 -1 0 576] CT
%%EndPageSetup
GS
[0.6 0 0 0.6 0 0] CT
1 GC
N
0 0 1536 960 re
f
GR
GS
[0.6 0 0 0.6 0 0] CT
1 GC
N
0 0 1536 960 re
f
GR
GS
[0.6 0 0 0.6 0 0] CT
1 GC
N
200 254 M
714 254 L
714 82 L
200 82 L
cp
f
GR
GS
[0.6 0 0 0.6 0 0] CT
0.149 GC
2 setlinecap
1 LJ
0.833 LW
N
200 254 M
714 254 L
S
GR
GS
[0.6 0 0 0.6 0 0] CT
0.149 GC
2 setlinecap
1 LJ
0.833 LW
N
200 82 M
714 82 L
S
GR
GS
[0.6 0 0 0.6 0 0] CT
0.149 GC
2 setlinecap
1 LJ
0.833 LW
N
200 254 M
200 248.86 L
S
GR
GS
[0.6 0 0 0.6 0 0] CT
0.149 GC
2 setlinecap
1 LJ
0.833 LW
N
328.5 254 M
328.5 248.86 L
S
GR
GS
[0.6 0 0 0.6 0 0] CT
0.149 GC
2 setlinecap
1 LJ
0.833 LW
N
457 254 M
457 248.86 L
S
GR
GS
[0.6 0 0 0.6 0 0] CT
0.149 GC
2 setlinecap
1 LJ
0.833 LW
N
585.5 254 M
585.5 248.86 L
S
GR
GS
[0.6 0 0 0.6 0 0] CT
0.149 GC
2 setlinecap
1 LJ
0.833 LW
N
714 254 M
714 248.86 L
S
GR
GS
[0.6 0 0 0.6 0 0] CT
0.149 GC
2 setlinecap
1 LJ
0.833 LW
N
200 82 M
200 87.14 L
S
GR
GS
[0.6 0 0 0.6 0 0] CT
0.149 GC
2 setlinecap
1 LJ
0.833 LW
N
328.5 82 M
328.5 87.14 L
S
GR
GS
[0.6 0 0 0.6 0 0] CT
0.149 GC
2 setlinecap
1 LJ
0.833 LW
N
457 82 M
457 87.14 L
S
GR
GS
[0.6 0 0 0.6 0 0] CT
0.149 GC
2 setlinecap
1 LJ
0.833 LW
N
585.5 82 M
585.5 87.14 L
S
GR
GS
[0.6 0 0 0.6 0 0] CT
0.149 GC
2 setlinecap
1 LJ
0.833 LW
N
714 82 M
714 87.14 L
S
GR
GS
[0.6 0 0 0.6 120 157.40001] CT
0.149 GC
/Helvetica-Bold 25 F
GS
[1 0 0 1 0 0] CT
-7 26 moveto 
1 -1 scale
(0) t 
GR
GR
GS
[0.6 0 0 0.6 197.10001 157.40001] CT
0.149 GC
/Helvetica-Bold 25 F
GS
[1 0 0 1 0 0] CT
-17.5 26 moveto 
1 -1 scale
(0.5) t 
GR
GR
GS
[0.6 0 0 0.6 274.20001 157.40001] CT
0.149 GC
/Helvetica-Bold 25 F
GS
[1 0 0 1 0 0] CT
-7 26 moveto 
1 -1 scale
(1) t 
GR
GR
GS
[0.6 0 0 0.6 351.30001 157.40001] CT
0.149 GC
/Helvetica-Bold 25 F
GS
[1 0 0 1 0 0] CT
-17.5 26 moveto 
1 -1 scale
(1.5) t 
GR
GR
GS
[0.6 0 0 0.6 428.40002 157.40001] CT
0.149 GC
/Helvetica-Bold 25 F
GS
[1 0 0 1 0 0] CT
-7 26 moveto 
1 -1 scale
(2) t 
GR
GR
GS
[0.6 0 0 0.6 240.60001 194.4] CT
0.149 GC
N
4.391 0.313 M
2.813 0.313 2.102 -0.852 QT
1.391 -2.016 1.391 -3.688 QT
1.391 -4.797 1.594 -5.859 QT
1.797 -6.922 2.195 -8.008 QT
2.594 -9.094 3.117 -10.047 QT
3.641 -11 4.281 -11.891 QT
4.406 -12.078 4.609 -12.078 QT
5.781 -12.078 5.891 -11.969 QT
6 -11.859 6 -11.703 QT
6 -11.547 5.922 -11.438 QT
3.375 -7.922 3.375 -4.953 QT
3.375 -3.672 3.969 -2.742 QT
4.563 -1.813 4.781 -1.813 QT
5.828 -1.813 6.727 -2.43 QT
7.625 -3.047 8.281 -4 QT
8.281 -4.5 8.445 -5.539 QT
8.609 -6.578 8.977 -7.391 QT
9.344 -8.203 9.844 -8.203 QT
11.484 -8.203 11.484 -7.453 QT
11.484 -7.016 11.305 -6.352 QT
11.125 -5.688 10.898 -5.117 QT
10.672 -4.547 10.344 -3.813 QT
10.672 -1.813 11.344 -1.813 QT
12.313 -1.813 13.289 -2.375 QT
14.266 -2.938 15.016 -3.852 QT
15.766 -4.766 16.195 -5.813 QT
16.625 -6.859 16.625 -7.813 QT
16.625 -8.656 16.359 -9.125 QT
16.094 -9.594 15.656 -10.117 QT
15.219 -10.641 15.219 -10.953 QT
15.219 -11.5 15.688 -11.953 QT
16.156 -12.406 16.688 -12.406 QT
18.359 -12.406 18.648 -11.781 QT
18.938 -11.156 18.938 -10.359 QT
18.938 -9.078 18.43 -7.125 QT
17.922 -5.172 17.266 -3.875 QT
16.359 -2.109 15 -0.898 QT
13.641 0.313 10.938 0.313 QT
9.859 0.313 9.195 -0.336 QT
8.531 -0.984 8.531 -0.984 QT
8.531 -0.984 7.547 -0.336 QT
6.563 0.313 4.391 0.313 QT
cp
f
GR
GS
[0.6 0 0 0.6 252.00001 194.4] CT
0.149 GC
/Helvetica-Bold 27.5 F
GS
[1 0 0 1 0 0] CT
0 0 moveto 
1 -1 scale
( [rad/s]) t 
GR
GR
GS
[0.6 0 0 0.6 0 0] CT
0.149 GC
2 setlinecap
1 LJ
0.833 LW
N
200 254 M
200 82 L
S
GR
GS
[0.6 0 0 0.6 0 0] CT
0.149 GC
2 setlinecap
1 LJ
0.833 LW
N
714 254 M
714 82 L
S
GR
GS
[0.6 0 0 0.6 0 0] CT
0.149 GC
2 setlinecap
1 LJ
0.833 LW
N
200 254 M
205.14 254 L
S
GR
GS
[0.6 0 0 0.6 0 0] CT
0.149 GC
2 setlinecap
1 LJ
0.833 LW
N
200 168.742 M
205.14 168.742 L
S
GR
GS
[0.6 0 0 0.6 0 0] CT
0.149 GC
2 setlinecap
1 LJ
0.833 LW
N
200 83.484 M
205.14 83.484 L
S
GR
GS
[0.6 0 0 0.6 0 0] CT
0.149 GC
2 setlinecap
1 LJ
0.833 LW
N
714 254 M
708.86 254 L
S
GR
GS
[0.6 0 0 0.6 0 0] CT
0.149 GC
2 setlinecap
1 LJ
0.833 LW
N
714 168.742 M
708.86 168.742 L
S
GR
GS
[0.6 0 0 0.6 0 0] CT
0.149 GC
2 setlinecap
1 LJ
0.833 LW
N
714 83.484 M
708.86 83.484 L
S
GR
GS
[0.6 0 0 0.6 115.00001 152.4] CT
0.149 GC
/Helvetica-Bold 25 F
GS
[1 0 0 1 0 0] CT
-14 10 moveto 
1 -1 scale
(0) t 
GR
GR
GS
[0.6 0 0 0.6 115.00001 101.2453] CT
0.149 GC
/Helvetica-Bold 25 F
GS
[1 0 0 1 0 0] CT
-14 10 moveto 
1 -1 scale
(5) t 
GR
GR
GS
[0.6 0 0 0.6 115.00001 50.0906] CT
0.149 GC
/Helvetica-Bold 25 F
GS
[1 0 0 1 0 0] CT
-28 10 moveto 
1 -1 scale
(10) t 
GR
GR
GS
[0 -0.6 0.6 0 84.6 122.4] CT
0.149 GC
/Helvetica-Bold 27.5 F
GS
[1 0 0 1 0 0] CT
0 0 moveto 
1 -1 scale
(|F) t 
GR
GR
GS
[0 -0.6 0.6 0 92.4 107.4] CT
0.149 GC
/Helvetica-Bold 22 F
GS
[1 0 0 1 0 0] CT
0 0 moveto 
1 -1 scale
(ex) t 
GR
GR
GS
[0 -0.6 0.6 0 84.6 92.4] CT
0.149 GC
/Helvetica-Bold 27.5 F
GS
[1 0 0 1 0 0] CT
0 0 moveto 
1 -1 scale
(|) t 
GR
GR
GS
[0 -0.6 0.6 0 92.4 87.6] CT
0.149 GC
/Helvetica-Bold 22 F
GS
[1 0 0 1 0 0] CT
0 0 moveto 
1 -1 scale
(1) t 
GR
GR
GS
[0.6 0 0 0.6 120 45.6] CT
0.149 GC
N
3.672 -0.719 M
3.672 -0.922 3.797 -1.078 QT
9 -6.25 L
3.797 -11.453 L
3.672 -11.578 3.672 -11.781 QT
3.672 -11.969 3.82 -12.125 QT
3.969 -12.281 4.172 -12.281 QT
5.344 -12.281 5.547 -12.125 QT
10.219 -7.453 L
14.875 -12.125 L
15.094 -12.281 15.25 -12.281 QT
16.453 -12.281 16.602 -12.133 QT
16.75 -11.984 16.75 -11.781 QT
16.75 -11.578 16.625 -11.453 QT
11.422 -6.25 L
16.625 -1.078 L
16.75 -0.922 16.75 -0.719 QT
16.75 -0.516 16.602 -0.367 QT
16.453 -0.219 15.25 -0.219 QT
15.063 -0.219 14.875 -0.406 QT
10.219 -5.047 L
5.547 -0.406 L
5.375 -0.219 4.172 -0.219 QT
3.969 -0.219 3.82 -0.375 QT
3.672 -0.531 3.672 -0.719 QT
cp
f
GR
GS
[0.6 0 0 0.6 132.60001 45.6] CT
0.149 GC
/Helvetica-Bold 25 F
GS
[1 0 0 1 0 0] CT
0 0 moveto 
1 -1 scale
(10) t 
GR
GR
GS
[0.6 0 0 0.6 149.40001 38.4] CT
0.149 GC
/Helvetica-Bold 20 F
GS
[1 0 0 1 0 0] CT
0 0 moveto 
1 -1 scale
(5) t 
GR
GR
GS
[0.6 0 0 0.6 0 0] CT
0 0 1 RC
1 LJ
3.333 LW
N
225.7 252.002 M
237.908 249.671 L
250.115 246.477 L
262.323 242.45 L
274.53 237.624 L
286.737 232.039 L
298.945 225.735 L
311.152 218.757 L
323.36 211.146 L
335.568 202.945 L
347.775 194.196 L
359.983 184.945 L
372.19 175.239 L
384.397 165.14 L
396.605 154.726 L
408.813 144.103 L
421.02 133.422 L
433.228 122.89 L
445.435 112.782 L
457.643 103.451 L
469.85 95.314 L
482.057 88.814 L
494.265 84.35 L
506.473 82.192 L
518.68 82.399 L
530.888 84.792 L
543.095 88.985 L
555.302 94.466 L
567.51 100.697 L
579.717 107.196 L
591.925 113.597 L
604.133 119.675 L
616.34 125.357 L
628.547 130.705 L
640.755 135.869 L
652.963 141.025 L
665.17 146.311 L
677.378 151.778 L
689.585 157.392 L
701.792 163.052 L
714 168.626 L
S
GR
GS
[0.6 0 0 0.6 0 0] CT
1 0 0 RC
[12 12] 0 setdash
2 LJ
3.333 LW
N
225.7 252.004 M
237.908 249.675 L
250.115 246.485 L
262.323 242.461 L
274.53 237.639 L
286.737 232.059 L
298.945 225.761 L
311.152 218.787 L
323.36 211.181 L
335.568 202.984 L
347.775 194.238 L
359.983 184.989 L
372.19 175.284 L
384.397 165.182 L
396.605 154.766 L
408.813 144.131 L
421.02 133.441 L
433.228 122.884 L
445.435 112.754 L
457.643 103.386 L
469.85 95.216 L
482.057 88.681 L
494.265 84.18 L
506.473 82 L
518.68 82.194 L
530.888 84.587 L
543.095 88.795 L
555.302 94.296 L
567.51 100.541 L
579.717 107.056 L
591.925 113.462 L
604.133 119.52 L
616.34 125.176 L
628.547 130.488 L
640.755 135.616 L
652.963 140.729 L
665.17 145.989 L
677.378 151.452 L
689.585 157.075 L
701.792 162.751 L
714 168.345 L
S
GR
GS
[0.6 0 0 0.6 0 0] CT
1 GC
N
876 254 M
1390 254 L
1390 82 L
876 82 L
cp
f
GR
GS
[0.6 0 0 0.6 0 0] CT
0.149 GC
2 setlinecap
1 LJ
0.833 LW
N
876 254 M
1390 254 L
S
GR
GS
[0.6 0 0 0.6 0 0] CT
0.149 GC
2 setlinecap
1 LJ
0.833 LW
N
876 82 M
1390 82 L
S
GR
GS
[0.6 0 0 0.6 0 0] CT
0.149 GC
2 setlinecap
1 LJ
0.833 LW
N
876 254 M
876 248.86 L
S
GR
GS
[0.6 0 0 0.6 0 0] CT
0.149 GC
2 setlinecap
1 LJ
0.833 LW
N
1004.5 254 M
1004.5 248.86 L
S
GR
GS
[0.6 0 0 0.6 0 0] CT
0.149 GC
2 setlinecap
1 LJ
0.833 LW
N
1133 254 M
1133 248.86 L
S
GR
GS
[0.6 0 0 0.6 0 0] CT
0.149 GC
2 setlinecap
1 LJ
0.833 LW
N
1261.5 254 M
1261.5 248.86 L
S
GR
GS
[0.6 0 0 0.6 0 0] CT
0.149 GC
2 setlinecap
1 LJ
0.833 LW
N
1390 254 M
1390 248.86 L
S
GR
GS
[0.6 0 0 0.6 0 0] CT
0.149 GC
2 setlinecap
1 LJ
0.833 LW
N
876 82 M
876 87.14 L
S
GR
GS
[0.6 0 0 0.6 0 0] CT
0.149 GC
2 setlinecap
1 LJ
0.833 LW
N
1004.5 82 M
1004.5 87.14 L
S
GR
GS
[0.6 0 0 0.6 0 0] CT
0.149 GC
2 setlinecap
1 LJ
0.833 LW
N
1133 82 M
1133 87.14 L
S
GR
GS
[0.6 0 0 0.6 0 0] CT
0.149 GC
2 setlinecap
1 LJ
0.833 LW
N
1261.5 82 M
1261.5 87.14 L
S
GR
GS
[0.6 0 0 0.6 0 0] CT
0.149 GC
2 setlinecap
1 LJ
0.833 LW
N
1390 82 M
1390 87.14 L
S
GR
GS
[0.6 0 0 0.6 525.60002 157.40001] CT
0.149 GC
/Helvetica-Bold 25 F
GS
[1 0 0 1 0 0] CT
-7 26 moveto 
1 -1 scale
(0) t 
GR
GR
GS
[0.6 0 0 0.6 602.70002 157.40001] CT
0.149 GC
/Helvetica-Bold 25 F
GS
[1 0 0 1 0 0] CT
-17.5 26 moveto 
1 -1 scale
(0.5) t 
GR
GR
GS
[0.6 0 0 0.6 679.80003 157.40001] CT
0.149 GC
/Helvetica-Bold 25 F
GS
[1 0 0 1 0 0] CT
-7 26 moveto 
1 -1 scale
(1) t 
GR
GR
GS
[0.6 0 0 0.6 756.90003 157.40001] CT
0.149 GC
/Helvetica-Bold 25 F
GS
[1 0 0 1 0 0] CT
-17.5 26 moveto 
1 -1 scale
(1.5) t 
GR
GR
GS
[0.6 0 0 0.6 834.00003 157.40001] CT
0.149 GC
/Helvetica-Bold 25 F
GS
[1 0 0 1 0 0] CT
-7 26 moveto 
1 -1 scale
(2) t 
GR
GR
GS
[0.6 0 0 0.6 646.20003 194.4] CT
0.149 GC
N
/f876989070{4.391 0.313 M
2.813 0.313 2.102 -0.852 QT
1.391 -2.016 1.391 -3.688 QT
1.391 -4.797 1.594 -5.859 QT
1.797 -6.922 2.195 -8.008 QT
2.594 -9.094 3.117 -10.047 QT
3.641 -11 4.281 -11.891 QT
4.406 -12.078 4.609 -12.078 QT
5.781 -12.078 5.891 -11.969 QT
6 -11.859 6 -11.703 QT
6 -11.547 5.922 -11.438 QT
3.375 -7.922 3.375 -4.953 QT
3.375 -3.672 3.969 -2.742 QT
4.563 -1.813 4.781 -1.813 QT
5.828 -1.813 6.727 -2.43 QT
7.625 -3.047 8.281 -4 QT
8.281 -4.5 8.445 -5.539 QT
8.609 -6.578 8.977 -7.391 QT
9.344 -8.203 9.844 -8.203 QT
11.484 -8.203 11.484 -7.453 QT
11.484 -7.016 11.305 -6.352 QT
11.125 -5.688 10.898 -5.117 QT
10.672 -4.547 10.344 -3.813 QT
10.672 -1.813 11.344 -1.813 QT
12.313 -1.813 13.289 -2.375 QT
14.266 -2.938 15.016 -3.852 QT
15.766 -4.766 16.195 -5.813 QT
16.625 -6.859 16.625 -7.813 QT
16.625 -8.656 16.359 -9.125 QT
16.094 -9.594 15.656 -10.117 QT
15.219 -10.641 15.219 -10.953 QT
15.219 -11.5 15.688 -11.953 QT
16.156 -12.406 16.688 -12.406 QT
18.359 -12.406 18.648 -11.781 QT
18.938 -11.156 18.938 -10.359 QT
18.938 -9.078 18.43 -7.125 QT
17.922 -5.172 17.266 -3.875 QT
16.359 -2.109 15 -0.898 QT
13.641 0.313 10.938 0.313 QT
9.859 0.313 9.195 -0.336 QT
8.531 -0.984 8.531 -0.984 QT
8.531 -0.984 7.547 -0.336 QT
6.563 0.313 4.391 0.313 QT
cp}def
f876989070
f
GR
GS
[0.6 0 0 0.6 657.60003 194.4] CT
0.149 GC
/Helvetica-Bold 27.5 F
GS
[1 0 0 1 0 0] CT
0 0 moveto 
1 -1 scale
( [rad/s]) t 
GR
GR
GS
[0.6 0 0 0.6 0 0] CT
0.149 GC
2 setlinecap
1 LJ
0.833 LW
N
876 254 M
876 82 L
S
GR
GS
[0.6 0 0 0.6 0 0] CT
0.149 GC
2 setlinecap
1 LJ
0.833 LW
N
1390 254 M
1390 82 L
S
GR
GS
[0.6 0 0 0.6 0 0] CT
0.149 GC
2 setlinecap
1 LJ
0.833 LW
N
876 254 M
881.14 254 L
S
GR
GS
[0.6 0 0 0.6 0 0] CT
0.149 GC
2 setlinecap
1 LJ
0.833 LW
N
876 82 M
881.14 82 L
S
GR
GS
[0.6 0 0 0.6 0 0] CT
0.149 GC
2 setlinecap
1 LJ
0.833 LW
N
1390 254 M
1384.86 254 L
S
GR
GS
[0.6 0 0 0.6 0 0] CT
0.149 GC
2 setlinecap
1 LJ
0.833 LW
N
1390 82 M
1384.86 82 L
S
GR
GS
[0.6 0 0 0.6 520.60003 152.4] CT
0.149 GC
/Helvetica-Bold 25 F
GS
[1 0 0 1 0 0] CT
-14 10 moveto 
1 -1 scale
(0) t 
GR
GR
GS
[0.6 0 0 0.6 520.60003 49.2] CT
0.149 GC
/Helvetica-Bold 25 F
GS
[1 0 0 1 0 0] CT
-14 10 moveto 
1 -1 scale
(5) t 
GR
GR
GS
[0 -0.6 0.6 0 498.60002 122.4] CT
0.149 GC
/Helvetica-Bold 27.5 F
GS
[1 0 0 1 0 0] CT
0 0 moveto 
1 -1 scale
(|F) t 
GR
GR
GS
[0 -0.6 0.6 0 506.40002 107.4] CT
0.149 GC
/Helvetica-Bold 22 F
GS
[1 0 0 1 0 0] CT
0 0 moveto 
1 -1 scale
(ex) t 
GR
GR
GS
[0 -0.6 0.6 0 498.60002 92.4] CT
0.149 GC
/Helvetica-Bold 27.5 F
GS
[1 0 0 1 0 0] CT
0 0 moveto 
1 -1 scale
(|) t 
GR
GR
GS
[0 -0.6 0.6 0 506.40002 87.6] CT
0.149 GC
/Helvetica-Bold 22 F
GS
[1 0 0 1 0 0] CT
0 0 moveto 
1 -1 scale
(2) t 
GR
GR
GS
[0.6 0 0 0.6 525.60002 45.6] CT
0.149 GC
N
/f1086612530{3.672 -0.719 M
3.672 -0.922 3.797 -1.078 QT
9 -6.25 L
3.797 -11.453 L
3.672 -11.578 3.672 -11.781 QT
3.672 -11.969 3.82 -12.125 QT
3.969 -12.281 4.172 -12.281 QT
5.344 -12.281 5.547 -12.125 QT
10.219 -7.453 L
14.875 -12.125 L
15.094 -12.281 15.25 -12.281 QT
16.453 -12.281 16.602 -12.133 QT
16.75 -11.984 16.75 -11.781 QT
16.75 -11.578 16.625 -11.453 QT
11.422 -6.25 L
16.625 -1.078 L
16.75 -0.922 16.75 -0.719 QT
16.75 -0.516 16.602 -0.367 QT
16.453 -0.219 15.25 -0.219 QT
15.063 -0.219 14.875 -0.406 QT
10.219 -5.047 L
5.547 -0.406 L
5.375 -0.219 4.172 -0.219 QT
3.969 -0.219 3.82 -0.375 QT
3.672 -0.531 3.672 -0.719 QT
cp}def
f1086612530
f
GR
GS
[0.6 0 0 0.6 538.20002 45.6] CT
0.149 GC
/Helvetica-Bold 25 F
GS
[1 0 0 1 0 0] CT
0 0 moveto 
1 -1 scale
(10) t 
GR
GR
GS
[0.6 0 0 0.6 555.00002 38.4] CT
0.149 GC
/Helvetica-Bold 20 F
GS
[1 0 0 1 0 0] CT
0 0 moveto 
1 -1 scale
(5) t 
GR
GR
GS
[0.6 0 0 0.6 0 0] CT
0 0 1 RC
1 LJ
3.333 LW
N
901.7 252.885 M
913.907 251.58 L
926.115 249.783 L
938.323 247.5 L
950.53 244.741 L
962.737 241.509 L
974.945 237.81 L
987.153 233.641 L
999.36 228.997 L
1011.568 223.865 L
1023.775 218.227 L
1035.983 212.06 L
1048.19 205.337 L
1060.397 198.036 L
1072.605 190.143 L
1084.813 181.666 L
1097.02 172.654 L
1109.228 163.213 L
1121.435 153.532 L
1133.642 143.903 L
1145.85 134.727 L
1158.057 126.492 L
1170.265 119.715 L
1182.473 114.851 L
1194.68 112.197 L
1206.887 111.826 L
1219.095 113.589 L
1231.302 117.178 L
1243.51 122.211 L
1255.718 128.324 L
1267.925 135.217 L
1280.132 142.676 L
1292.34 150.551 L
1304.547 158.73 L
1316.755 167.093 L
1328.963 175.49 L
1341.17 183.733 L
1353.377 191.625 L
1365.585 198.994 L
1377.792 205.719 L
1390 211.749 L
S
GR
GS
[0.6 0 0 0.6 0 0] CT
1 0 0 RC
[12 12] 0 setdash
2 LJ
3.333 LW
N
901.7 252.888 M
913.907 251.586 L
926.115 249.794 L
938.323 247.517 L
950.53 244.764 L
962.737 241.54 L
974.945 237.848 L
987.153 233.687 L
999.36 229.051 L
1011.568 223.925 L
1023.775 218.293 L
1035.983 212.13 L
1048.19 205.409 L
1060.397 198.104 L
1072.605 190.207 L
1084.813 181.713 L
1097.02 172.683 L
1109.228 163.203 L
1121.435 153.481 L
1133.642 143.786 L
1145.85 134.539 L
1158.057 126.222 L
1170.265 119.348 L
1182.473 114.398 L
1194.68 111.659 L
1206.887 111.217 L
1219.095 112.931 L
1231.302 116.484 L
1243.51 121.486 L
1255.718 127.591 L
1267.925 134.487 L
1280.132 141.94 L
1292.34 149.837 L
1304.547 158.057 L
1316.755 166.488 L
1328.963 174.959 L
1341.17 183.306 L
1353.377 191.321 L
1365.585 198.816 L
1377.792 205.666 L
1390 211.813 L
S
GR
GS
[0.6 0 0 0.6 0 0] CT
1 GC
N
200 542 M
714 542 L
714 370 L
200 370 L
cp
f
GR
GS
[0.6 0 0 0.6 0 0] CT
0.149 GC
2 setlinecap
1 LJ
0.833 LW
N
200 542 M
714 542 L
S
GR
GS
[0.6 0 0 0.6 0 0] CT
0.149 GC
2 setlinecap
1 LJ
0.833 LW
N
200 370 M
714 370 L
S
GR
GS
[0.6 0 0 0.6 0 0] CT
0.149 GC
2 setlinecap
1 LJ
0.833 LW
N
200 542 M
200 536.86 L
S
GR
GS
[0.6 0 0 0.6 0 0] CT
0.149 GC
2 setlinecap
1 LJ
0.833 LW
N
328.5 542 M
328.5 536.86 L
S
GR
GS
[0.6 0 0 0.6 0 0] CT
0.149 GC
2 setlinecap
1 LJ
0.833 LW
N
457 542 M
457 536.86 L
S
GR
GS
[0.6 0 0 0.6 0 0] CT
0.149 GC
2 setlinecap
1 LJ
0.833 LW
N
585.5 542 M
585.5 536.86 L
S
GR
GS
[0.6 0 0 0.6 0 0] CT
0.149 GC
2 setlinecap
1 LJ
0.833 LW
N
714 542 M
714 536.86 L
S
GR
GS
[0.6 0 0 0.6 0 0] CT
0.149 GC
2 setlinecap
1 LJ
0.833 LW
N
200 370 M
200 375.14 L
S
GR
GS
[0.6 0 0 0.6 0 0] CT
0.149 GC
2 setlinecap
1 LJ
0.833 LW
N
328.5 370 M
328.5 375.14 L
S
GR
GS
[0.6 0 0 0.6 0 0] CT
0.149 GC
2 setlinecap
1 LJ
0.833 LW
N
457 370 M
457 375.14 L
S
GR
GS
[0.6 0 0 0.6 0 0] CT
0.149 GC
2 setlinecap
1 LJ
0.833 LW
N
585.5 370 M
585.5 375.14 L
S
GR
GS
[0.6 0 0 0.6 0 0] CT
0.149 GC
2 setlinecap
1 LJ
0.833 LW
N
714 370 M
714 375.14 L
S
GR
GS
[0.6 0 0 0.6 120 330.19999] CT
0.149 GC
/Helvetica-Bold 25 F
GS
[1 0 0 1 0 0] CT
-7 26 moveto 
1 -1 scale
(0) t 
GR
GR
GS
[0.6 0 0 0.6 197.10001 330.19999] CT
0.149 GC
/Helvetica-Bold 25 F
GS
[1 0 0 1 0 0] CT
-17.5 26 moveto 
1 -1 scale
(0.5) t 
GR
GR
GS
[0.6 0 0 0.6 274.20001 330.19999] CT
0.149 GC
/Helvetica-Bold 25 F
GS
[1 0 0 1 0 0] CT
-7 26 moveto 
1 -1 scale
(1) t 
GR
GR
GS
[0.6 0 0 0.6 351.30001 330.19999] CT
0.149 GC
/Helvetica-Bold 25 F
GS
[1 0 0 1 0 0] CT
-17.5 26 moveto 
1 -1 scale
(1.5) t 
GR
GR
GS
[0.6 0 0 0.6 428.40002 330.19999] CT
0.149 GC
/Helvetica-Bold 25 F
GS
[1 0 0 1 0 0] CT
-7 26 moveto 
1 -1 scale
(2) t 
GR
GR
GS
[0.6 0 0 0.6 240.60001 367.2] CT
0.149 GC
N
f876989070
f
GR
GS
[0.6 0 0 0.6 252.00001 367.2] CT
0.149 GC
/Helvetica-Bold 27.5 F
GS
[1 0 0 1 0 0] CT
0 0 moveto 
1 -1 scale
( [rad/s]) t 
GR
GR
GS
[0.6 0 0 0.6 0 0] CT
0.149 GC
2 setlinecap
1 LJ
0.833 LW
N
200 542 M
200 370 L
S
GR
GS
[0.6 0 0 0.6 0 0] CT
0.149 GC
2 setlinecap
1 LJ
0.833 LW
N
714 542 M
714 370 L
S
GR
GS
[0.6 0 0 0.6 0 0] CT
0.149 GC
2 setlinecap
1 LJ
0.833 LW
N
200 542 M
205.14 542 L
S
GR
GS
[0.6 0 0 0.6 0 0] CT
0.149 GC
2 setlinecap
1 LJ
0.833 LW
N
200 370 M
205.14 370 L
S
GR
GS
[0.6 0 0 0.6 0 0] CT
0.149 GC
2 setlinecap
1 LJ
0.833 LW
N
714 542 M
708.86 542 L
S
GR
GS
[0.6 0 0 0.6 0 0] CT
0.149 GC
2 setlinecap
1 LJ
0.833 LW
N
714 370 M
708.86 370 L
S
GR
GS
[0.6 0 0 0.6 115.00001 325.2] CT
0.149 GC
/Helvetica-Bold 25 F
GS
[1 0 0 1 0 0] CT
-14 10 moveto 
1 -1 scale
(0) t 
GR
GR
GS
[0.6 0 0 0.6 115.00001 222] CT
0.149 GC
/Helvetica-Bold 25 F
GS
[1 0 0 1 0 0] CT
-14 10 moveto 
1 -1 scale
(5) t 
GR
GR
GS
[0 -0.6 0.6 0 93 295.2] CT
0.149 GC
/Helvetica-Bold 27.5 F
GS
[1 0 0 1 0 0] CT
0 0 moveto 
1 -1 scale
(|F) t 
GR
GR
GS
[0 -0.6 0.6 0 100.8 280.2] CT
0.149 GC
/Helvetica-Bold 22 F
GS
[1 0 0 1 0 0] CT
0 0 moveto 
1 -1 scale
(ex) t 
GR
GR
GS
[0 -0.6 0.6 0 93 265.2] CT
0.149 GC
/Helvetica-Bold 27.5 F
GS
[1 0 0 1 0 0] CT
0 0 moveto 
1 -1 scale
(|) t 
GR
GR
GS
[0 -0.6 0.6 0 100.8 260.4] CT
0.149 GC
/Helvetica-Bold 22 F
GS
[1 0 0 1 0 0] CT
0 0 moveto 
1 -1 scale
(3) t 
GR
GR
GS
[0.6 0 0 0.6 120 218.4] CT
0.149 GC
N
f1086612530
f
GR
GS
[0.6 0 0 0.6 132.60001 218.4] CT
0.149 GC
/Helvetica-Bold 25 F
GS
[1 0 0 1 0 0] CT
0 0 moveto 
1 -1 scale
(10) t 
GR
GR
GS
[0.6 0 0 0.6 149.40001 211.2] CT
0.149 GC
/Helvetica-Bold 20 F
GS
[1 0 0 1 0 0] CT
0 0 moveto 
1 -1 scale
(5) t 
GR
GR
GS
[0.6 0 0 0.6 0 0] CT
0 0 1 RC
1 LJ
3.333 LW
N
225.7 375.447 M
237.908 377.983 L
250.115 381.442 L
262.323 385.768 L
274.53 390.892 L
286.737 396.725 L
298.945 403.172 L
311.152 410.125 L
323.36 417.477 L
335.568 425.117 L
347.775 432.939 L
359.983 440.841 L
372.19 448.729 L
384.397 456.518 L
396.605 464.13 L
408.813 471.499 L
421.02 478.567 L
433.228 485.288 L
445.435 491.622 L
457.643 497.541 L
469.85 503.022 L
482.057 508.051 L
494.265 512.621 L
506.473 516.731 L
518.68 520.392 L
530.888 523.622 L
543.095 526.446 L
555.302 528.899 L
567.51 531.017 L
579.717 532.835 L
591.925 534.391 L
604.133 535.716 L
616.34 536.84 L
628.547 537.789 L
640.755 538.588 L
652.963 539.255 L
665.17 539.81 L
677.378 540.268 L
689.585 540.643 L
701.792 540.948 L
714 541.195 L
S
GR
GS
[0.6 0 0 0.6 0 0] CT
1 0 0 RC
[12 12] 0 setdash
2 LJ
3.333 LW
N
225.7 375.447 M
237.908 377.983 L
250.115 381.441 L
262.323 385.768 L
274.53 390.892 L
286.737 396.726 L
298.945 403.172 L
311.152 410.125 L
323.36 417.478 L
335.568 425.118 L
347.775 432.939 L
359.983 440.839 L
372.19 448.73 L
384.397 456.517 L
396.605 464.129 L
408.813 471.498 L
421.02 478.566 L
433.228 485.286 L
445.435 491.622 L
457.643 497.538 L
469.85 503.022 L
482.057 508.049 L
494.265 512.621 L
506.473 516.734 L
518.68 520.392 L
530.888 523.625 L
543.095 526.45 L
555.302 528.901 L
567.51 531.019 L
579.717 532.838 L
591.925 534.392 L
604.133 535.716 L
616.34 536.839 L
628.547 537.788 L
640.755 538.585 L
652.963 539.252 L
665.17 539.806 L
677.378 540.263 L
689.585 540.638 L
701.792 540.944 L
714 541.191 L
S
GR
GS
[0.6 0 0 0.6 0 0] CT
1 GC
N
876 542 M
1390 542 L
1390 370 L
876 370 L
cp
f
GR
GS
[0.6 0 0 0.6 0 0] CT
0.149 GC
2 setlinecap
1 LJ
0.833 LW
N
876 542 M
1390 542 L
S
GR
GS
[0.6 0 0 0.6 0 0] CT
0.149 GC
2 setlinecap
1 LJ
0.833 LW
N
876 370 M
1390 370 L
S
GR
GS
[0.6 0 0 0.6 0 0] CT
0.149 GC
2 setlinecap
1 LJ
0.833 LW
N
876 542 M
876 536.86 L
S
GR
GS
[0.6 0 0 0.6 0 0] CT
0.149 GC
2 setlinecap
1 LJ
0.833 LW
N
1004.5 542 M
1004.5 536.86 L
S
GR
GS
[0.6 0 0 0.6 0 0] CT
0.149 GC
2 setlinecap
1 LJ
0.833 LW
N
1133 542 M
1133 536.86 L
S
GR
GS
[0.6 0 0 0.6 0 0] CT
0.149 GC
2 setlinecap
1 LJ
0.833 LW
N
1261.5 542 M
1261.5 536.86 L
S
GR
GS
[0.6 0 0 0.6 0 0] CT
0.149 GC
2 setlinecap
1 LJ
0.833 LW
N
1390 542 M
1390 536.86 L
S
GR
GS
[0.6 0 0 0.6 0 0] CT
0.149 GC
2 setlinecap
1 LJ
0.833 LW
N
876 370 M
876 375.14 L
S
GR
GS
[0.6 0 0 0.6 0 0] CT
0.149 GC
2 setlinecap
1 LJ
0.833 LW
N
1004.5 370 M
1004.5 375.14 L
S
GR
GS
[0.6 0 0 0.6 0 0] CT
0.149 GC
2 setlinecap
1 LJ
0.833 LW
N
1133 370 M
1133 375.14 L
S
GR
GS
[0.6 0 0 0.6 0 0] CT
0.149 GC
2 setlinecap
1 LJ
0.833 LW
N
1261.5 370 M
1261.5 375.14 L
S
GR
GS
[0.6 0 0 0.6 0 0] CT
0.149 GC
2 setlinecap
1 LJ
0.833 LW
N
1390 370 M
1390 375.14 L
S
GR
GS
[0.6 0 0 0.6 525.60002 330.19999] CT
0.149 GC
/Helvetica-Bold 25 F
GS
[1 0 0 1 0 0] CT
-7 26 moveto 
1 -1 scale
(0) t 
GR
GR
GS
[0.6 0 0 0.6 602.70002 330.19999] CT
0.149 GC
/Helvetica-Bold 25 F
GS
[1 0 0 1 0 0] CT
-17.5 26 moveto 
1 -1 scale
(0.5) t 
GR
GR
GS
[0.6 0 0 0.6 679.80003 330.19999] CT
0.149 GC
/Helvetica-Bold 25 F
GS
[1 0 0 1 0 0] CT
-7 26 moveto 
1 -1 scale
(1) t 
GR
GR
GS
[0.6 0 0 0.6 756.90003 330.19999] CT
0.149 GC
/Helvetica-Bold 25 F
GS
[1 0 0 1 0 0] CT
-17.5 26 moveto 
1 -1 scale
(1.5) t 
GR
GR
GS
[0.6 0 0 0.6 834.00003 330.19999] CT
0.149 GC
/Helvetica-Bold 25 F
GS
[1 0 0 1 0 0] CT
-7 26 moveto 
1 -1 scale
(2) t 
GR
GR
GS
[0.6 0 0 0.6 646.20003 367.2] CT
0.149 GC
N
f876989070
f
GR
GS
[0.6 0 0 0.6 657.60003 367.2] CT
0.149 GC
/Helvetica-Bold 27.5 F
GS
[1 0 0 1 0 0] CT
0 0 moveto 
1 -1 scale
( [rad/s]) t 
GR
GR
GS
[0.6 0 0 0.6 0 0] CT
0.149 GC
2 setlinecap
1 LJ
0.833 LW
N
876 542 M
876 370 L
S
GR
GS
[0.6 0 0 0.6 0 0] CT
0.149 GC
2 setlinecap
1 LJ
0.833 LW
N
1390 542 M
1390 370 L
S
GR
GS
[0.6 0 0 0.6 0 0] CT
0.149 GC
2 setlinecap
1 LJ
0.833 LW
N
876 524.882 M
881.14 524.882 L
S
GR
GS
[0.6 0 0 0.6 0 0] CT
0.149 GC
2 setlinecap
1 LJ
0.833 LW
N
876 494.447 M
881.14 494.447 L
S
GR
GS
[0.6 0 0 0.6 0 0] CT
0.149 GC
2 setlinecap
1 LJ
0.833 LW
N
876 464.012 M
881.14 464.012 L
S
GR
GS
[0.6 0 0 0.6 0 0] CT
0.149 GC
2 setlinecap
1 LJ
0.833 LW
N
876 433.578 M
881.14 433.578 L
S
GR
GS
[0.6 0 0 0.6 0 0] CT
0.149 GC
2 setlinecap
1 LJ
0.833 LW
N
876 403.143 M
881.14 403.143 L
S
GR
GS
[0.6 0 0 0.6 0 0] CT
0.149 GC
2 setlinecap
1 LJ
0.833 LW
N
876 372.708 M
881.14 372.708 L
S
GR
GS
[0.6 0 0 0.6 0 0] CT
0.149 GC
2 setlinecap
1 LJ
0.833 LW
N
1390 524.882 M
1384.86 524.882 L
S
GR
GS
[0.6 0 0 0.6 0 0] CT
0.149 GC
2 setlinecap
1 LJ
0.833 LW
N
1390 494.447 M
1384.86 494.447 L
S
GR
GS
[0.6 0 0 0.6 0 0] CT
0.149 GC
2 setlinecap
1 LJ
0.833 LW
N
1390 464.012 M
1384.86 464.012 L
S
GR
GS
[0.6 0 0 0.6 0 0] CT
0.149 GC
2 setlinecap
1 LJ
0.833 LW
N
1390 433.578 M
1384.86 433.578 L
S
GR
GS
[0.6 0 0 0.6 0 0] CT
0.149 GC
2 setlinecap
1 LJ
0.833 LW
N
1390 403.143 M
1384.86 403.143 L
S
GR
GS
[0.6 0 0 0.6 0 0] CT
0.149 GC
2 setlinecap
1 LJ
0.833 LW
N
1390 372.708 M
1384.86 372.708 L
S
GR
GS
[0.6 0 0 0.6 520.60003 314.92896] CT
0.149 GC
/Helvetica-Bold 25 F
GS
[1 0 0 1 0 0] CT
-14 10 moveto 
1 -1 scale
(4) t 
GR
GR
GS
[0.6 0 0 0.6 520.60003 296.66818] CT
0.149 GC
/Helvetica-Bold 25 F
GS
[1 0 0 1 0 0] CT
-14 10 moveto 
1 -1 scale
(6) t 
GR
GR
GS
[0.6 0 0 0.6 520.60003 278.4074] CT
0.149 GC
/Helvetica-Bold 25 F
GS
[1 0 0 1 0 0] CT
-14 10 moveto 
1 -1 scale
(8) t 
GR
GR
GS
[0.6 0 0 0.6 520.60003 260.1466] CT
0.149 GC
/Helvetica-Bold 25 F
GS
[1 0 0 1 0 0] CT
-28 10 moveto 
1 -1 scale
(10) t 
GR
GR
GS
[0.6 0 0 0.6 520.60003 241.88582] CT
0.149 GC
/Helvetica-Bold 25 F
GS
[1 0 0 1 0 0] CT
-28 10 moveto 
1 -1 scale
(12) t 
GR
GR
GS
[0.6 0 0 0.6 520.60003 223.62502] CT
0.149 GC
/Helvetica-Bold 25 F
GS
[1 0 0 1 0 0] CT
-28 10 moveto 
1 -1 scale
(14) t 
GR
GR
GS
[0 -0.6 0.6 0 490.20002 295.2] CT
0.149 GC
/Helvetica-Bold 27.5 F
GS
[1 0 0 1 0 0] CT
0 0 moveto 
1 -1 scale
(|F) t 
GR
GR
GS
[0 -0.6 0.6 0 498.00002 280.2] CT
0.149 GC
/Helvetica-Bold 22 F
GS
[1 0 0 1 0 0] CT
0 0 moveto 
1 -1 scale
(ex) t 
GR
GR
GS
[0 -0.6 0.6 0 490.20002 265.2] CT
0.149 GC
/Helvetica-Bold 27.5 F
GS
[1 0 0 1 0 0] CT
0 0 moveto 
1 -1 scale
(|) t 
GR
GR
GS
[0 -0.6 0.6 0 498.00002 260.4] CT
0.149 GC
/Helvetica-Bold 22 F
GS
[1 0 0 1 0 0] CT
0 0 moveto 
1 -1 scale
(4) t 
GR
GR
GS
[0.6 0 0 0.6 525.60002 218.4] CT
0.149 GC
N
f1086612530
f
GR
GS
[0.6 0 0 0.6 538.20002 218.4] CT
0.149 GC
/Helvetica-Bold 25 F
GS
[1 0 0 1 0 0] CT
0 0 moveto 
1 -1 scale
(10) t 
GR
GR
GS
[0.6 0 0 0.6 555.00002 211.2] CT
0.149 GC
/Helvetica-Bold 20 F
GS
[1 0 0 1 0 0] CT
0 0 moveto 
1 -1 scale
(5) t 
GR
GR
GS
[0.6 0 0 0.6 0 0] CT
0 0 1 RC
1 LJ
3.333 LW
N
901.7 462.963 M
913.907 464.785 L
926.115 467.167 L
938.323 469.969 L
950.53 473.006 L
962.737 476.051 L
974.945 478.836 L
987.153 481.064 L
999.36 482.417 L
1011.568 482.59 L
1023.775 481.311 L
1035.983 478.384 L
1048.19 473.701 L
1060.397 467.257 L
1072.605 459.139 L
1084.813 449.515 L
1097.02 438.639 L
1109.228 426.854 L
1121.435 414.62 L
1133.642 402.533 L
1145.85 391.32 L
1158.057 381.799 L
1170.265 374.778 L
1182.473 370.915 L
1194.68 370.575 L
1206.887 373.753 L
1219.095 380.097 L
1231.302 389.023 L
1243.51 399.866 L
1255.718 412.005 L
1267.925 424.938 L
1280.132 438.301 L
1292.34 451.833 L
1304.547 465.336 L
1316.755 478.611 L
1328.963 491.441 L
1341.17 503.588 L
1353.377 514.825 L
1365.585 524.986 L
1377.792 533.987 L
1390 541.829 L
S
GR
GS
[0.6 0 0 0.6 0 0] CT
1 0 0 RC
[12 12] 0 setdash
2 LJ
3.333 LW
N
901.7 462.963 M
913.907 464.786 L
926.115 467.169 L
938.323 469.974 L
950.53 473.015 L
962.737 476.066 L
974.945 478.86 L
987.153 481.1 L
999.36 482.469 L
1011.568 482.659 L
1023.775 481.4 L
1035.983 478.489 L
1048.19 473.824 L
1060.397 467.39 L
1072.605 459.279 L
1084.813 449.645 L
1097.02 438.754 L
1109.228 426.926 L
1121.435 414.643 L
1133.642 402.475 L
1145.85 391.172 L
1158.057 381.547 L
1170.265 374.406 L
1182.473 370.437 L
1194.68 370 L
1206.887 373.104 L
1219.095 379.396 L
1231.302 388.3 L
1243.51 399.122 L
1255.718 411.266 L
1267.925 424.22 L
1280.132 437.588 L
1292.34 451.164 L
1304.547 464.723 L
1316.755 478.09 L
1328.963 491.005 L
1341.17 503.272 L
1353.377 514.643 L
1365.585 524.931 L
1377.792 534.054 L
1390 542 L
S
GR
GS
[0.6 0 0 0.6 0 0] CT
1 GC
N
200 829 M
714 829 L
714 658 L
200 658 L
cp
f
GR
GS
[0.6 0 0 0.6 0 0] CT
0.149 GC
2 setlinecap
1 LJ
0.833 LW
N
200 829 M
714 829 L
S
GR
GS
[0.6 0 0 0.6 0 0] CT
0.149 GC
2 setlinecap
1 LJ
0.833 LW
N
200 658 M
714 658 L
S
GR
GS
[0.6 0 0 0.6 0 0] CT
0.149 GC
2 setlinecap
1 LJ
0.833 LW
N
200 829 M
200 823.86 L
S
GR
GS
[0.6 0 0 0.6 0 0] CT
0.149 GC
2 setlinecap
1 LJ
0.833 LW
N
328.5 829 M
328.5 823.86 L
S
GR
GS
[0.6 0 0 0.6 0 0] CT
0.149 GC
2 setlinecap
1 LJ
0.833 LW
N
457 829 M
457 823.86 L
S
GR
GS
[0.6 0 0 0.6 0 0] CT
0.149 GC
2 setlinecap
1 LJ
0.833 LW
N
585.5 829 M
585.5 823.86 L
S
GR
GS
[0.6 0 0 0.6 0 0] CT
0.149 GC
2 setlinecap
1 LJ
0.833 LW
N
714 829 M
714 823.86 L
S
GR
GS
[0.6 0 0 0.6 0 0] CT
0.149 GC
2 setlinecap
1 LJ
0.833 LW
N
200 658 M
200 663.14 L
S
GR
GS
[0.6 0 0 0.6 0 0] CT
0.149 GC
2 setlinecap
1 LJ
0.833 LW
N
328.5 658 M
328.5 663.14 L
S
GR
GS
[0.6 0 0 0.6 0 0] CT
0.149 GC
2 setlinecap
1 LJ
0.833 LW
N
457 658 M
457 663.14 L
S
GR
GS
[0.6 0 0 0.6 0 0] CT
0.149 GC
2 setlinecap
1 LJ
0.833 LW
N
585.5 658 M
585.5 663.14 L
S
GR
GS
[0.6 0 0 0.6 0 0] CT
0.149 GC
2 setlinecap
1 LJ
0.833 LW
N
714 658 M
714 663.14 L
S
GR
GS
[0.6 0 0 0.6 120 502.39999] CT
0.149 GC
/Helvetica-Bold 25 F
GS
[1 0 0 1 0 0] CT
-7 26 moveto 
1 -1 scale
(0) t 
GR
GR
GS
[0.6 0 0 0.6 197.10001 502.39999] CT
0.149 GC
/Helvetica-Bold 25 F
GS
[1 0 0 1 0 0] CT
-17.5 26 moveto 
1 -1 scale
(0.5) t 
GR
GR
GS
[0.6 0 0 0.6 274.20001 502.39999] CT
0.149 GC
/Helvetica-Bold 25 F
GS
[1 0 0 1 0 0] CT
-7 26 moveto 
1 -1 scale
(1) t 
GR
GR
GS
[0.6 0 0 0.6 351.30001 502.39999] CT
0.149 GC
/Helvetica-Bold 25 F
GS
[1 0 0 1 0 0] CT
-17.5 26 moveto 
1 -1 scale
(1.5) t 
GR
GR
GS
[0.6 0 0 0.6 428.40002 502.39999] CT
0.149 GC
/Helvetica-Bold 25 F
GS
[1 0 0 1 0 0] CT
-7 26 moveto 
1 -1 scale
(2) t 
GR
GR
GS
[0.6 0 0 0.6 240.60001 539.4] CT
0.149 GC
N
f876989070
f
GR
GS
[0.6 0 0 0.6 252.00001 539.4] CT
0.149 GC
/Helvetica-Bold 27.5 F
GS
[1 0 0 1 0 0] CT
0 0 moveto 
1 -1 scale
( [rad/s]) t 
GR
GR
GS
[0.6 0 0 0.6 0 0] CT
0.149 GC
2 setlinecap
1 LJ
0.833 LW
N
200 829 M
200 658 L
S
GR
GS
[0.6 0 0 0.6 0 0] CT
0.149 GC
2 setlinecap
1 LJ
0.833 LW
N
714 829 M
714 658 L
S
GR
GS
[0.6 0 0 0.6 0 0] CT
0.149 GC
2 setlinecap
1 LJ
0.833 LW
N
200 778.908 M
205.14 778.908 L
S
GR
GS
[0.6 0 0 0.6 0 0] CT
0.149 GC
2 setlinecap
1 LJ
0.833 LW
N
200 718.454 M
205.14 718.454 L
S
GR
GS
[0.6 0 0 0.6 0 0] CT
0.149 GC
2 setlinecap
1 LJ
0.833 LW
N
200 658 M
205.14 658 L
S
GR
GS
[0.6 0 0 0.6 0 0] CT
0.149 GC
2 setlinecap
1 LJ
0.833 LW
N
714 778.908 M
708.86 778.908 L
S
GR
GS
[0.6 0 0 0.6 0 0] CT
0.149 GC
2 setlinecap
1 LJ
0.833 LW
N
714 718.454 M
708.86 718.454 L
S
GR
GS
[0.6 0 0 0.6 0 0] CT
0.149 GC
2 setlinecap
1 LJ
0.833 LW
N
714 658 M
708.86 658 L
S
GR
GS
[0.6 0 0 0.6 115.00001 467.34507] CT
0.149 GC
/Helvetica-Bold 25 F
GS
[1 0 0 1 0 0] CT
-14 10 moveto 
1 -1 scale
(2) t 
GR
GR
GS
[0.6 0 0 0.6 115.00001 431.07253] CT
0.149 GC
/Helvetica-Bold 25 F
GS
[1 0 0 1 0 0] CT
-14 10 moveto 
1 -1 scale
(3) t 
GR
GR
GS
[0.6 0 0 0.6 115.00001 394.8] CT
0.149 GC
/Helvetica-Bold 25 F
GS
[1 0 0 1 0 0] CT
-14 10 moveto 
1 -1 scale
(4) t 
GR
GR
GS
[0 -0.6 0.6 0 93 467.4] CT
0.149 GC
/Helvetica-Bold 27.5 F
GS
[1 0 0 1 0 0] CT
0 0 moveto 
1 -1 scale
(|F) t 
GR
GR
GS
[0 -0.6 0.6 0 100.8 452.4] CT
0.149 GC
/Helvetica-Bold 22 F
GS
[1 0 0 1 0 0] CT
0 0 moveto 
1 -1 scale
(ex) t 
GR
GR
GS
[0 -0.6 0.6 0 93 437.4] CT
0.149 GC
/Helvetica-Bold 27.5 F
GS
[1 0 0 1 0 0] CT
0 0 moveto 
1 -1 scale
(|) t 
GR
GR
GS
[0 -0.6 0.6 0 100.8 432.6] CT
0.149 GC
/Helvetica-Bold 22 F
GS
[1 0 0 1 0 0] CT
0 0 moveto 
1 -1 scale
(5) t 
GR
GR
GS
[0.6 0 0 0.6 120 391.2] CT
0.149 GC
N
f1086612530
f
GR
GS
[0.6 0 0 0.6 132.60001 391.2] CT
0.149 GC
/Helvetica-Bold 25 F
GS
[1 0 0 1 0 0] CT
0 0 moveto 
1 -1 scale
(10) t 
GR
GR
GS
[0.6 0 0 0.6 149.40001 384] CT
0.149 GC
/Helvetica-Bold 20 F
GS
[1 0 0 1 0 0] CT
0 0 moveto 
1 -1 scale
(6) t 
GR
GR
GS
[0.6 0 0 0.6 0 0] CT
0 0 1 RC
1 LJ
3.333 LW
N
225.7 802.186 M
237.908 803.468 L
250.115 804.981 L
262.323 806.467 L
274.53 807.598 L
286.737 807.997 L
298.945 807.273 L
311.152 805.08 L
323.36 801.173 L
335.568 795.452 L
347.775 787.959 L
359.983 778.856 L
372.19 768.381 L
384.397 756.819 L
396.605 744.487 L
408.813 731.73 L
421.02 718.936 L
433.228 706.548 L
445.435 695.078 L
457.643 685.11 L
469.85 677.265 L
482.057 672.145 L
494.265 670.229 L
506.473 671.754 L
518.68 676.634 L
530.888 684.446 L
543.095 694.507 L
555.302 706.011 L
567.51 718.172 L
579.717 730.333 L
591.925 742.023 L
604.133 752.98 L
616.34 763.133 L
628.547 772.57 L
640.755 781.462 L
652.963 789.997 L
665.17 798.304 L
677.378 806.424 L
689.585 814.312 L
701.792 821.873 L
714 829 L
S
GR
GS
[0.6 0 0 0.6 0 0] CT
1 0 0 RC
[12 12] 0 setdash
2 LJ
3.333 LW
N
225.7 802.186 M
237.908 803.468 L
250.115 804.982 L
262.323 806.471 L
274.53 807.605 L
286.737 808.008 L
298.945 807.291 L
311.152 805.106 L
323.36 801.208 L
335.568 795.496 L
347.775 788.011 L
359.983 778.914 L
372.19 768.444 L
384.397 756.884 L
396.605 744.553 L
408.813 731.787 L
421.02 718.985 L
433.228 706.573 L
445.435 695.081 L
457.643 685.076 L
469.85 677.198 L
482.057 672.045 L
494.265 670.096 L
506.473 671.608 L
518.68 676.489 L
530.888 684.318 L
543.095 694.409 L
555.302 705.951 L
567.51 718.14 L
579.717 730.326 L
591.925 742.029 L
604.133 752.968 L
616.34 763.102 L
628.547 772.505 L
640.755 781.371 L
652.963 789.868 L
665.17 798.16 L
677.378 806.281 L
689.585 814.178 L
701.792 821.757 L
714 828.899 L
S
GR
GS
[0.6 0 0 0.6 0 0] CT
1 GC
N
876 829 M
1390 829 L
1390 658 L
876 658 L
cp
f
GR
GS
[0.6 0 0 0.6 0 0] CT
0.149 GC
2 setlinecap
1 LJ
0.833 LW
N
876 829 M
1390 829 L
S
GR
GS
[0.6 0 0 0.6 0 0] CT
0.149 GC
2 setlinecap
1 LJ
0.833 LW
N
876 658 M
1390 658 L
S
GR
GS
[0.6 0 0 0.6 0 0] CT
0.149 GC
2 setlinecap
1 LJ
0.833 LW
N
876 829 M
876 823.86 L
S
GR
GS
[0.6 0 0 0.6 0 0] CT
0.149 GC
2 setlinecap
1 LJ
0.833 LW
N
1004.5 829 M
1004.5 823.86 L
S
GR
GS
[0.6 0 0 0.6 0 0] CT
0.149 GC
2 setlinecap
1 LJ
0.833 LW
N
1133 829 M
1133 823.86 L
S
GR
GS
[0.6 0 0 0.6 0 0] CT
0.149 GC
2 setlinecap
1 LJ
0.833 LW
N
1261.5 829 M
1261.5 823.86 L
S
GR
GS
[0.6 0 0 0.6 0 0] CT
0.149 GC
2 setlinecap
1 LJ
0.833 LW
N
1390 829 M
1390 823.86 L
S
GR
GS
[0.6 0 0 0.6 0 0] CT
0.149 GC
2 setlinecap
1 LJ
0.833 LW
N
876 658 M
876 663.14 L
S
GR
GS
[0.6 0 0 0.6 0 0] CT
0.149 GC
2 setlinecap
1 LJ
0.833 LW
N
1004.5 658 M
1004.5 663.14 L
S
GR
GS
[0.6 0 0 0.6 0 0] CT
0.149 GC
2 setlinecap
1 LJ
0.833 LW
N
1133 658 M
1133 663.14 L
S
GR
GS
[0.6 0 0 0.6 0 0] CT
0.149 GC
2 setlinecap
1 LJ
0.833 LW
N
1261.5 658 M
1261.5 663.14 L
S
GR
GS
[0.6 0 0 0.6 0 0] CT
0.149 GC
2 setlinecap
1 LJ
0.833 LW
N
1390 658 M
1390 663.14 L
S
GR
GS
[0.6 0 0 0.6 525.60002 502.39999] CT
0.149 GC
/Helvetica-Bold 25 F
GS
[1 0 0 1 0 0] CT
-7 26 moveto 
1 -1 scale
(0) t 
GR
GR
GS
[0.6 0 0 0.6 602.70002 502.39999] CT
0.149 GC
/Helvetica-Bold 25 F
GS
[1 0 0 1 0 0] CT
-17.5 26 moveto 
1 -1 scale
(0.5) t 
GR
GR
GS
[0.6 0 0 0.6 679.80003 502.39999] CT
0.149 GC
/Helvetica-Bold 25 F
GS
[1 0 0 1 0 0] CT
-7 26 moveto 
1 -1 scale
(1) t 
GR
GR
GS
[0.6 0 0 0.6 756.90003 502.39999] CT
0.149 GC
/Helvetica-Bold 25 F
GS
[1 0 0 1 0 0] CT
-17.5 26 moveto 
1 -1 scale
(1.5) t 
GR
GR
GS
[0.6 0 0 0.6 834.00003 502.39999] CT
0.149 GC
/Helvetica-Bold 25 F
GS
[1 0 0 1 0 0] CT
-7 26 moveto 
1 -1 scale
(2) t 
GR
GR
GS
[0.6 0 0 0.6 646.20003 539.4] CT
0.149 GC
N
f876989070
f
GR
GS
[0.6 0 0 0.6 657.60003 539.4] CT
0.149 GC
/Helvetica-Bold 27.5 F
GS
[1 0 0 1 0 0] CT
0 0 moveto 
1 -1 scale
( [rad/s]) t 
GR
GR
GS
[0.6 0 0 0.6 0 0] CT
0.149 GC
2 setlinecap
1 LJ
0.833 LW
N
876 829 M
876 658 L
S
GR
GS
[0.6 0 0 0.6 0 0] CT
0.149 GC
2 setlinecap
1 LJ
0.833 LW
N
1390 829 M
1390 658 L
S
GR
GS
[0.6 0 0 0.6 0 0] CT
0.149 GC
2 setlinecap
1 LJ
0.833 LW
N
876 829 M
881.14 829 L
S
GR
GS
[0.6 0 0 0.6 0 0] CT
0.149 GC
2 setlinecap
1 LJ
0.833 LW
N
876 770.006 M
881.14 770.006 L
S
GR
GS
[0.6 0 0 0.6 0 0] CT
0.149 GC
2 setlinecap
1 LJ
0.833 LW
N
876 711.012 M
881.14 711.012 L
S
GR
GS
[0.6 0 0 0.6 0 0] CT
0.149 GC
2 setlinecap
1 LJ
0.833 LW
N
1390 829 M
1384.86 829 L
S
GR
GS
[0.6 0 0 0.6 0 0] CT
0.149 GC
2 setlinecap
1 LJ
0.833 LW
N
1390 770.006 M
1384.86 770.006 L
S
GR
GS
[0.6 0 0 0.6 0 0] CT
0.149 GC
2 setlinecap
1 LJ
0.833 LW
N
1390 711.012 M
1384.86 711.012 L
S
GR
GS
[0.6 0 0 0.6 520.60003 497.4] CT
0.149 GC
/Helvetica-Bold 25 F
GS
[1 0 0 1 0 0] CT
-14 10 moveto 
1 -1 scale
(0) t 
GR
GR
GS
[0.6 0 0 0.6 520.60003 462.00355] CT
0.149 GC
/Helvetica-Bold 25 F
GS
[1 0 0 1 0 0] CT
-14 10 moveto 
1 -1 scale
(1) t 
GR
GR
GS
[0.6 0 0 0.6 520.60003 426.60707] CT
0.149 GC
/Helvetica-Bold 25 F
GS
[1 0 0 1 0 0] CT
-14 10 moveto 
1 -1 scale
(2) t 
GR
GR
GS
[0 -0.6 0.6 0 498.60002 467.4] CT
0.149 GC
/Helvetica-Bold 27.5 F
GS
[1 0 0 1 0 0] CT
0 0 moveto 
1 -1 scale
(|F) t 
GR
GR
GS
[0 -0.6 0.6 0 506.40002 452.4] CT
0.149 GC
/Helvetica-Bold 22 F
GS
[1 0 0 1 0 0] CT
0 0 moveto 
1 -1 scale
(ex) t 
GR
GR
GS
[0 -0.6 0.6 0 498.60002 437.4] CT
0.149 GC
/Helvetica-Bold 27.5 F
GS
[1 0 0 1 0 0] CT
0 0 moveto 
1 -1 scale
(|) t 
GR
GR
GS
[0 -0.6 0.6 0 506.40002 432.6] CT
0.149 GC
/Helvetica-Bold 22 F
GS
[1 0 0 1 0 0] CT
0 0 moveto 
1 -1 scale
(6) t 
GR
GR
GS
[0.6 0 0 0.6 525.60002 391.2] CT
0.149 GC
N
f1086612530
f
GR
GS
[0.6 0 0 0.6 538.20002 391.2] CT
0.149 GC
/Helvetica-Bold 25 F
GS
[1 0 0 1 0 0] CT
0 0 moveto 
1 -1 scale
(10) t 
GR
GR
GS
[0.6 0 0 0.6 555.00002 384] CT
0.149 GC
/Helvetica-Bold 20 F
GS
[1 0 0 1 0 0] CT
0 0 moveto 
1 -1 scale
(6) t 
GR
GR
GS
[0.6 0 0 0.6 0 0] CT
0 0 1 RC
1 LJ
3.333 LW
N
901.7 827.513 M
913.907 825.775 L
926.115 823.39 L
938.323 820.372 L
950.53 816.742 L
962.737 812.519 L
974.945 807.722 L
987.153 802.367 L
999.36 796.467 L
1011.568 790.029 L
1023.775 783.056 L
1035.983 775.544 L
1048.19 767.487 L
1060.397 758.879 L
1072.605 749.722 L
1084.813 740.036 L
1097.02 729.875 L
1109.228 719.341 L
1121.435 708.615 L
1133.642 697.969 L
1145.85 687.775 L
1158.057 678.486 L
1170.265 670.583 L
1182.473 664.485 L
1194.68 660.46 L
1206.887 658.567 L
1219.095 658.659 L
1231.302 660.445 L
1243.51 663.582 L
1255.718 667.764 L
1267.925 672.77 L
1280.132 678.484 L
1292.34 684.873 L
1304.547 691.942 L
1316.755 699.675 L
1328.963 707.987 L
1341.17 716.71 L
1353.377 725.617 L
1365.585 734.468 L
1377.792 743.067 L
1390 751.287 L
S
GR
GS
[0.6 0 0 0.6 0 0] CT
1 0 0 RC
[12 12] 0 setdash
2 LJ
3.333 LW
N
901.7 827.515 M
913.907 825.78 L
926.115 823.397 L
938.323 820.384 L
950.53 816.758 L
962.737 812.54 L
974.945 807.748 L
987.153 802.398 L
999.36 796.503 L
1011.568 790.069 L
1023.775 783.099 L
1035.983 775.588 L
1048.19 767.53 L
1060.397 758.917 L
1072.605 749.754 L
1084.813 740.052 L
1097.02 729.872 L
1109.228 719.303 L
1121.435 708.539 L
1133.642 697.834 L
1145.85 687.577 L
1158.057 678.216 L
1170.265 670.228 L
1182.473 664.055 L
1194.68 659.956 L
1206.887 658 L
1219.095 658.044 L
1231.302 659.79 L
1243.51 662.88 L
1255.718 667.03 L
1267.925 672.004 L
1280.132 677.663 L
1292.34 684.013 L
1304.547 691.055 L
1316.755 698.784 L
1328.963 707.085 L
1341.17 715.834 L
1353.377 724.796 L
1365.585 733.713 L
1377.792 742.372 L
1390 750.644 L
S
GR
%%Trailer
%%Pages: 1
%%EOF
