%!PS-Adobe-3.0 EPSF-3.0
%%Creator: (MATLAB, The Mathworks, Inc. Version 9.10.0.1739362 \(R2021a\) Update 5. Operating System: Windows 10)
%%Title: (C:/Users/rkurnia/Documents/2. publication/202211 NEMOH MANUAL/figures/Ver_NonSymmetrical_addedmass.eps)
%%CreationDate: 2022-11-24T06:51:32
%%Pages: (atend)
%%BoundingBox:     0     0   922   576
%%LanguageLevel: 3
%%EndComments
%%BeginProlog
%%BeginResource: procset (Apache XML Graphics Std ProcSet) 1.2 0
%%Version: 1.2 0
%%Copyright: (Copyright 2001-2003,2010 The Apache Software Foundation. License terms: http://www.apache.org/licenses/LICENSE-2.0)
/bd{bind def}bind def
/ld{load def}bd
/GR/grestore ld
/GS/gsave ld
/RM/rmoveto ld
/C/curveto ld
/t/show ld
/L/lineto ld
/ML/setmiterlimit ld
/CT/concat ld
/f/fill ld
/N/newpath ld
/S/stroke ld
/CC/setcmykcolor ld
/A/ashow ld
/cp/closepath ld
/RC/setrgbcolor ld
/LJ/setlinejoin ld
/GC/setgray ld
/LW/setlinewidth ld
/M/moveto ld
/re {4 2 roll M
1 index 0 rlineto
0 exch rlineto
neg 0 rlineto
cp } bd
/_ctm matrix def
/_tm matrix def
/BT { _ctm currentmatrix pop matrix _tm copy pop 0 0 moveto } bd
/ET { _ctm setmatrix } bd
/iTm { _ctm setmatrix _tm concat } bd
/Tm { _tm astore pop iTm 0 0 moveto } bd
/ux 0.0 def
/uy 0.0 def
/F {
  /Tp exch def
  /Tf exch def
  Tf findfont Tp scalefont setfont
  /cf Tf def  /cs Tp def
} bd
/ULS {currentpoint /uy exch def /ux exch def} bd
/ULE {
  /Tcx currentpoint pop def
  gsave
  newpath
  cf findfont cs scalefont dup
  /FontMatrix get 0 get /Ts exch def /FontInfo get dup
  /UnderlinePosition get Ts mul /To exch def
  /UnderlineThickness get Ts mul /Tt exch def
  ux uy To add moveto  Tcx uy To add lineto
  Tt setlinewidth stroke
  grestore
} bd
/OLE {
  /Tcx currentpoint pop def
  gsave
  newpath
  cf findfont cs scalefont dup
  /FontMatrix get 0 get /Ts exch def /FontInfo get dup
  /UnderlinePosition get Ts mul /To exch def
  /UnderlineThickness get Ts mul /Tt exch def
  ux uy To add cs add moveto Tcx uy To add cs add lineto
  Tt setlinewidth stroke
  grestore
} bd
/SOE {
  /Tcx currentpoint pop def
  gsave
  newpath
  cf findfont cs scalefont dup
  /FontMatrix get 0 get /Ts exch def /FontInfo get dup
  /UnderlinePosition get Ts mul /To exch def
  /UnderlineThickness get Ts mul /Tt exch def
  ux uy To add cs 10 mul 26 idiv add moveto Tcx uy To add cs 10 mul 26 idiv add lineto
  Tt setlinewidth stroke
  grestore
} bd
/QT {
/Y22 exch store
/X22 exch store
/Y21 exch store
/X21 exch store
currentpoint
/Y21 load 2 mul add 3 div exch
/X21 load 2 mul add 3 div exch
/X21 load 2 mul /X22 load add 3 div
/Y21 load 2 mul /Y22 load add 3 div
/X22 load /Y22 load curveto
} bd
/SSPD {
dup length /d exch dict def
{
/v exch def
/k exch def
currentpagedevice k known {
/cpdv currentpagedevice k get def
v cpdv ne {
/upd false def
/nullv v type /nulltype eq def
/nullcpdv cpdv type /nulltype eq def
nullv nullcpdv or
{
/upd true def
} {
/sametype v type cpdv type eq def
sametype {
v type /arraytype eq {
/vlen v length def
/cpdvlen cpdv length def
vlen cpdvlen eq {
0 1 vlen 1 sub {
/i exch def
/obj v i get def
/cpdobj cpdv i get def
obj cpdobj ne {
/upd true def
exit
} if
} for
} {
/upd true def
} ifelse
} {
v type /dicttype eq {
v {
/dv exch def
/dk exch def
/cpddv cpdv dk get def
dv cpddv ne {
/upd true def
exit
} if
} forall
} {
/upd true def
} ifelse
} ifelse
} if
} ifelse
upd true eq {
d k v put
} if
} if
} if
} forall
d length 0 gt {
d setpagedevice
} if
} bd
/RE { % /NewFontName [NewEncodingArray] /FontName RE -
  findfont dup length dict begin
  {
    1 index /FID ne
    {def} {pop pop} ifelse
  } forall
  /Encoding exch def
  /FontName 1 index def
  currentdict definefont pop
  end
} bind def
%%EndResource
%%BeginResource: procset (Apache XML Graphics EPS ProcSet) 1.0 0
%%Version: 1.0 0
%%Copyright: (Copyright 2002-2003 The Apache Software Foundation. License terms: http://www.apache.org/licenses/LICENSE-2.0)
/BeginEPSF { %def
/b4_Inc_state save def         % Save state for cleanup
/dict_count countdictstack def % Count objects on dict stack
/op_count count 1 sub def      % Count objects on operand stack
userdict begin                 % Push userdict on dict stack
/showpage { } def              % Redefine showpage, { } = null proc
0 setgray 0 setlinecap         % Prepare graphics state
1 setlinewidth 0 setlinejoin
10 setmiterlimit [ ] 0 setdash newpath
/languagelevel where           % If level not equal to 1 then
{pop languagelevel             % set strokeadjust and
1 ne                           % overprint to their defaults.
{false setstrokeadjust false setoverprint
} if
} if
} bd
/EndEPSF { %def
count op_count sub {pop} repeat            % Clean up stacks
countdictstack dict_count sub {end} repeat
b4_Inc_state restore
} bd
%%EndResource
%FOPBeginFontDict
%%IncludeResource: font Courier-Oblique
%%IncludeResource: font Courier-BoldOblique
%%IncludeResource: font Courier-Bold
%%IncludeResource: font ZapfDingbats
%%IncludeResource: font Symbol
%%IncludeResource: font Helvetica
%%IncludeResource: font Helvetica-Oblique
%%IncludeResource: font Helvetica-Bold
%%IncludeResource: font Helvetica-BoldOblique
%%IncludeResource: font Times-Roman
%%IncludeResource: font Times-Italic
%%IncludeResource: font Times-Bold
%%IncludeResource: font Times-BoldItalic
%%IncludeResource: font Courier
%FOPEndFontDict
%%BeginResource: encoding WinAnsiEncoding
/WinAnsiEncoding [
/.notdef /.notdef /.notdef /.notdef /.notdef
/.notdef /.notdef /.notdef /.notdef /.notdef
/.notdef /.notdef /.notdef /.notdef /.notdef
/.notdef /.notdef /.notdef /.notdef /.notdef
/.notdef /.notdef /.notdef /.notdef /.notdef
/.notdef /.notdef /.notdef /.notdef /.notdef
/.notdef /.notdef /space /exclam /quotedbl
/numbersign /dollar /percent /ampersand /quotesingle
/parenleft /parenright /asterisk /plus /comma
/hyphen /period /slash /zero /one
/two /three /four /five /six
/seven /eight /nine /colon /semicolon
/less /equal /greater /question /at
/A /B /C /D /E
/F /G /H /I /J
/K /L /M /N /O
/P /Q /R /S /T
/U /V /W /X /Y
/Z /bracketleft /backslash /bracketright /asciicircum
/underscore /quoteleft /a /b /c
/d /e /f /g /h
/i /j /k /l /m
/n /o /p /q /r
/s /t /u /v /w
/x /y /z /braceleft /bar
/braceright /asciitilde /bullet /Euro /bullet
/quotesinglbase /florin /quotedblbase /ellipsis /dagger
/daggerdbl /circumflex /perthousand /Scaron /guilsinglleft
/OE /bullet /Zcaron /bullet /bullet
/quoteleft /quoteright /quotedblleft /quotedblright /bullet
/endash /emdash /asciitilde /trademark /scaron
/guilsinglright /oe /bullet /zcaron /Ydieresis
/space /exclamdown /cent /sterling /currency
/yen /brokenbar /section /dieresis /copyright
/ordfeminine /guillemotleft /logicalnot /sfthyphen /registered
/macron /degree /plusminus /twosuperior /threesuperior
/acute /mu /paragraph /middot /cedilla
/onesuperior /ordmasculine /guillemotright /onequarter /onehalf
/threequarters /questiondown /Agrave /Aacute /Acircumflex
/Atilde /Adieresis /Aring /AE /Ccedilla
/Egrave /Eacute /Ecircumflex /Edieresis /Igrave
/Iacute /Icircumflex /Idieresis /Eth /Ntilde
/Ograve /Oacute /Ocircumflex /Otilde /Odieresis
/multiply /Oslash /Ugrave /Uacute /Ucircumflex
/Udieresis /Yacute /Thorn /germandbls /agrave
/aacute /acircumflex /atilde /adieresis /aring
/ae /ccedilla /egrave /eacute /ecircumflex
/edieresis /igrave /iacute /icircumflex /idieresis
/eth /ntilde /ograve /oacute /ocircumflex
/otilde /odieresis /divide /oslash /ugrave
/uacute /ucircumflex /udieresis /yacute /thorn
/ydieresis
] def
%%EndResource
%FOPBeginFontReencode
/Courier-Oblique findfont
dup length dict begin
  {1 index /FID ne {def} {pop pop} ifelse} forall
  /Encoding WinAnsiEncoding def
  currentdict
end
/Courier-Oblique exch definefont pop
/Courier-BoldOblique findfont
dup length dict begin
  {1 index /FID ne {def} {pop pop} ifelse} forall
  /Encoding WinAnsiEncoding def
  currentdict
end
/Courier-BoldOblique exch definefont pop
/Courier-Bold findfont
dup length dict begin
  {1 index /FID ne {def} {pop pop} ifelse} forall
  /Encoding WinAnsiEncoding def
  currentdict
end
/Courier-Bold exch definefont pop
/Helvetica findfont
dup length dict begin
  {1 index /FID ne {def} {pop pop} ifelse} forall
  /Encoding WinAnsiEncoding def
  currentdict
end
/Helvetica exch definefont pop
/Helvetica-Oblique findfont
dup length dict begin
  {1 index /FID ne {def} {pop pop} ifelse} forall
  /Encoding WinAnsiEncoding def
  currentdict
end
/Helvetica-Oblique exch definefont pop
/Helvetica-Bold findfont
dup length dict begin
  {1 index /FID ne {def} {pop pop} ifelse} forall
  /Encoding WinAnsiEncoding def
  currentdict
end
/Helvetica-Bold exch definefont pop
/Helvetica-BoldOblique findfont
dup length dict begin
  {1 index /FID ne {def} {pop pop} ifelse} forall
  /Encoding WinAnsiEncoding def
  currentdict
end
/Helvetica-BoldOblique exch definefont pop
/Times-Roman findfont
dup length dict begin
  {1 index /FID ne {def} {pop pop} ifelse} forall
  /Encoding WinAnsiEncoding def
  currentdict
end
/Times-Roman exch definefont pop
/Times-Italic findfont
dup length dict begin
  {1 index /FID ne {def} {pop pop} ifelse} forall
  /Encoding WinAnsiEncoding def
  currentdict
end
/Times-Italic exch definefont pop
/Times-Bold findfont
dup length dict begin
  {1 index /FID ne {def} {pop pop} ifelse} forall
  /Encoding WinAnsiEncoding def
  currentdict
end
/Times-Bold exch definefont pop
/Times-BoldItalic findfont
dup length dict begin
  {1 index /FID ne {def} {pop pop} ifelse} forall
  /Encoding WinAnsiEncoding def
  currentdict
end
/Times-BoldItalic exch definefont pop
/Courier findfont
dup length dict begin
  {1 index /FID ne {def} {pop pop} ifelse} forall
  /Encoding WinAnsiEncoding def
  currentdict
end
/Courier exch definefont pop
%FOPEndFontReencode
%%EndProlog
%%Page: 1 1
%%PageBoundingBox: 0 0 922 576
%%BeginPageSetup
[1 0 0 -1 0 576] CT
%%EndPageSetup
GS
[0.6 0 0 0.6 0 0] CT
1 GC
N
0 0 1536 960 re
f
GR
GS
[0.6 0 0 0.6 0 0] CT
1 GC
N
0 0 1536 960 re
f
GR
GS
[0.6 0 0 0.6 0 0] CT
1 GC
N
200 254 M
714 254 L
714 82 L
200 82 L
cp
f
GR
GS
[0.6 0 0 0.6 0 0] CT
0.149 GC
2 setlinecap
1 LJ
0.833 LW
N
200 254 M
714 254 L
S
GR
GS
[0.6 0 0 0.6 0 0] CT
0.149 GC
2 setlinecap
1 LJ
0.833 LW
N
200 82 M
714 82 L
S
GR
GS
[0.6 0 0 0.6 0 0] CT
0.149 GC
2 setlinecap
1 LJ
0.833 LW
N
200 254 M
200 248.86 L
S
GR
GS
[0.6 0 0 0.6 0 0] CT
0.149 GC
2 setlinecap
1 LJ
0.833 LW
N
328.5 254 M
328.5 248.86 L
S
GR
GS
[0.6 0 0 0.6 0 0] CT
0.149 GC
2 setlinecap
1 LJ
0.833 LW
N
457 254 M
457 248.86 L
S
GR
GS
[0.6 0 0 0.6 0 0] CT
0.149 GC
2 setlinecap
1 LJ
0.833 LW
N
585.5 254 M
585.5 248.86 L
S
GR
GS
[0.6 0 0 0.6 0 0] CT
0.149 GC
2 setlinecap
1 LJ
0.833 LW
N
714 254 M
714 248.86 L
S
GR
GS
[0.6 0 0 0.6 0 0] CT
0.149 GC
2 setlinecap
1 LJ
0.833 LW
N
200 82 M
200 87.14 L
S
GR
GS
[0.6 0 0 0.6 0 0] CT
0.149 GC
2 setlinecap
1 LJ
0.833 LW
N
328.5 82 M
328.5 87.14 L
S
GR
GS
[0.6 0 0 0.6 0 0] CT
0.149 GC
2 setlinecap
1 LJ
0.833 LW
N
457 82 M
457 87.14 L
S
GR
GS
[0.6 0 0 0.6 0 0] CT
0.149 GC
2 setlinecap
1 LJ
0.833 LW
N
585.5 82 M
585.5 87.14 L
S
GR
GS
[0.6 0 0 0.6 0 0] CT
0.149 GC
2 setlinecap
1 LJ
0.833 LW
N
714 82 M
714 87.14 L
S
GR
GS
[0.6 0 0 0.6 120 157.40001] CT
0.149 GC
/Helvetica-Bold 25 F
GS
[1 0 0 1 0 0] CT
-7 26 moveto 
1 -1 scale
(0) t 
GR
GR
GS
[0.6 0 0 0.6 197.10001 157.40001] CT
0.149 GC
/Helvetica-Bold 25 F
GS
[1 0 0 1 0 0] CT
-17.5 26 moveto 
1 -1 scale
(0.5) t 
GR
GR
GS
[0.6 0 0 0.6 274.20001 157.40001] CT
0.149 GC
/Helvetica-Bold 25 F
GS
[1 0 0 1 0 0] CT
-7 26 moveto 
1 -1 scale
(1) t 
GR
GR
GS
[0.6 0 0 0.6 351.30001 157.40001] CT
0.149 GC
/Helvetica-Bold 25 F
GS
[1 0 0 1 0 0] CT
-17.5 26 moveto 
1 -1 scale
(1.5) t 
GR
GR
GS
[0.6 0 0 0.6 428.40002 157.40001] CT
0.149 GC
/Helvetica-Bold 25 F
GS
[1 0 0 1 0 0] CT
-7 26 moveto 
1 -1 scale
(2) t 
GR
GR
GS
[0.6 0 0 0.6 240.60001 194.4] CT
0.149 GC
N
4.391 0.313 M
2.813 0.313 2.102 -0.852 QT
1.391 -2.016 1.391 -3.688 QT
1.391 -4.797 1.594 -5.859 QT
1.797 -6.922 2.195 -8.008 QT
2.594 -9.094 3.117 -10.047 QT
3.641 -11 4.281 -11.891 QT
4.406 -12.078 4.609 -12.078 QT
5.781 -12.078 5.891 -11.969 QT
6 -11.859 6 -11.703 QT
6 -11.547 5.922 -11.438 QT
3.375 -7.922 3.375 -4.953 QT
3.375 -3.672 3.969 -2.742 QT
4.563 -1.813 4.781 -1.813 QT
5.828 -1.813 6.727 -2.43 QT
7.625 -3.047 8.281 -4 QT
8.281 -4.5 8.445 -5.539 QT
8.609 -6.578 8.977 -7.391 QT
9.344 -8.203 9.844 -8.203 QT
11.484 -8.203 11.484 -7.453 QT
11.484 -7.016 11.305 -6.352 QT
11.125 -5.688 10.898 -5.117 QT
10.672 -4.547 10.344 -3.813 QT
10.672 -1.813 11.344 -1.813 QT
12.313 -1.813 13.289 -2.375 QT
14.266 -2.938 15.016 -3.852 QT
15.766 -4.766 16.195 -5.813 QT
16.625 -6.859 16.625 -7.813 QT
16.625 -8.656 16.359 -9.125 QT
16.094 -9.594 15.656 -10.117 QT
15.219 -10.641 15.219 -10.953 QT
15.219 -11.5 15.688 -11.953 QT
16.156 -12.406 16.688 -12.406 QT
18.359 -12.406 18.648 -11.781 QT
18.938 -11.156 18.938 -10.359 QT
18.938 -9.078 18.43 -7.125 QT
17.922 -5.172 17.266 -3.875 QT
16.359 -2.109 15 -0.898 QT
13.641 0.313 10.938 0.313 QT
9.859 0.313 9.195 -0.336 QT
8.531 -0.984 8.531 -0.984 QT
8.531 -0.984 7.547 -0.336 QT
6.563 0.313 4.391 0.313 QT
cp
f
GR
GS
[0.6 0 0 0.6 252.00001 194.4] CT
0.149 GC
/Helvetica-Bold 27.5 F
GS
[1 0 0 1 0 0] CT
0 0 moveto 
1 -1 scale
( [rad/s]) t 
GR
GR
GS
[0.6 0 0 0.6 0 0] CT
0.149 GC
2 setlinecap
1 LJ
0.833 LW
N
200 254 M
200 82 L
S
GR
GS
[0.6 0 0 0.6 0 0] CT
0.149 GC
2 setlinecap
1 LJ
0.833 LW
N
714 254 M
714 82 L
S
GR
GS
[0.6 0 0 0.6 0 0] CT
0.149 GC
2 setlinecap
1 LJ
0.833 LW
N
200 195.332 M
205.14 195.332 L
S
GR
GS
[0.6 0 0 0.6 0 0] CT
0.149 GC
2 setlinecap
1 LJ
0.833 LW
N
200 82 M
205.14 82 L
S
GR
GS
[0.6 0 0 0.6 0 0] CT
0.149 GC
2 setlinecap
1 LJ
0.833 LW
N
714 195.332 M
708.86 195.332 L
S
GR
GS
[0.6 0 0 0.6 0 0] CT
0.149 GC
2 setlinecap
1 LJ
0.833 LW
N
714 82 M
708.86 82 L
S
GR
GS
[0.6 0 0 0.6 115.00001 117.19932] CT
0.149 GC
/Helvetica-Bold 25 F
GS
[1 0 0 1 0 0] CT
-14 10 moveto 
1 -1 scale
(5) t 
GR
GR
GS
[0.6 0 0 0.6 115.00001 49.2] CT
0.149 GC
/Helvetica-Bold 25 F
GS
[1 0 0 1 0 0] CT
-28 10 moveto 
1 -1 scale
(10) t 
GR
GR
GS
[0 -0.6 0.6 0 84.6 113.4] CT
0.149 GC
/Helvetica-Bold 27.5 F
GS
[1 0 0 1 0 0] CT
0 0 moveto 
1 -1 scale
(a) t 
GR
GR
GS
[0 -0.6 0.6 0 92.4 103.8] CT
0.149 GC
/Helvetica-Bold 22 F
GS
[1 0 0 1 0 0] CT
0 0 moveto 
1 -1 scale
(11) t 
GR
GR
GS
[0.6 0 0 0.6 120 45.6] CT
0.149 GC
N
3.672 -0.719 M
3.672 -0.922 3.797 -1.078 QT
9 -6.25 L
3.797 -11.453 L
3.672 -11.578 3.672 -11.781 QT
3.672 -11.969 3.82 -12.125 QT
3.969 -12.281 4.172 -12.281 QT
5.344 -12.281 5.547 -12.125 QT
10.219 -7.453 L
14.875 -12.125 L
15.094 -12.281 15.25 -12.281 QT
16.453 -12.281 16.602 -12.133 QT
16.75 -11.984 16.75 -11.781 QT
16.75 -11.578 16.625 -11.453 QT
11.422 -6.25 L
16.625 -1.078 L
16.75 -0.922 16.75 -0.719 QT
16.75 -0.516 16.602 -0.367 QT
16.453 -0.219 15.25 -0.219 QT
15.063 -0.219 14.875 -0.406 QT
10.219 -5.047 L
5.547 -0.406 L
5.375 -0.219 4.172 -0.219 QT
3.969 -0.219 3.82 -0.375 QT
3.672 -0.531 3.672 -0.719 QT
cp
f
GR
GS
[0.6 0 0 0.6 132.60001 45.6] CT
0.149 GC
/Helvetica-Bold 25 F
GS
[1 0 0 1 0 0] CT
0 0 moveto 
1 -1 scale
(10) t 
GR
GR
GS
[0.6 0 0 0.6 149.40001 38.4] CT
0.149 GC
/Helvetica-Bold 20 F
GS
[1 0 0 1 0 0] CT
0 0 moveto 
1 -1 scale
(5) t 
GR
GR
GS
[0.6 0 0 0.6 0 0] CT
0 0 1 RC
1 LJ
3.333 LW
N
225.7 155.072 M
237.908 154.661 L
250.115 154.073 L
262.323 153.289 L
274.53 152.284 L
286.737 151.026 L
298.945 149.481 L
311.152 147.61 L
323.36 145.375 L
335.568 142.743 L
347.775 139.689 L
359.983 136.203 L
372.19 132.3 L
384.397 128.03 L
396.605 123.493 L
408.813 118.86 L
421.02 114.392 L
433.228 110.459 L
445.435 107.549 L
457.643 106.249 L
469.85 107.179 L
482.057 110.881 L
494.265 117.656 L
506.473 127.426 L
518.68 139.677 L
530.888 153.554 L
543.095 168.059 L
555.302 182.272 L
567.51 195.509 L
579.717 207.362 L
591.925 217.664 L
604.133 226.416 L
616.34 233.706 L
628.547 239.654 L
640.755 244.377 L
652.963 247.98 L
665.17 250.564 L
677.378 252.24 L
689.585 253.133 L
701.792 253.383 L
714 253.126 L
S
GR
GS
[0.6 0 0 0.6 0 0] CT
1 0 0 RC
[12 12] 0 setdash
2 LJ
3.333 LW
N
225.7 155.326 M
237.908 154.918 L
250.115 154.329 L
262.323 153.544 L
274.53 152.531 L
286.737 151.27 L
298.945 149.722 L
311.152 147.843 L
323.36 145.6 L
335.568 142.953 L
347.775 139.885 L
359.983 136.384 L
372.19 132.465 L
384.397 128.169 L
396.605 123.616 L
408.813 118.945 L
421.02 114.45 L
433.228 110.466 L
445.435 107.52 L
457.643 106.165 L
469.85 107.062 L
482.057 110.743 L
494.265 117.511 L
506.473 127.314 L
518.68 139.622 L
530.888 153.579 L
543.095 168.178 L
555.302 182.485 L
567.51 195.801 L
579.717 207.727 L
591.925 218.09 L
604.133 226.88 L
616.34 234.209 L
628.547 240.19 L
640.755 244.944 L
652.963 248.564 L
665.17 251.165 L
677.378 252.854 L
689.585 253.752 L
701.792 254 L
714 253.737 L
S
GR
GS
[0.6 0 0 0.6 0 0] CT
1 GC
N
876 254 M
1390 254 L
1390 82 L
876 82 L
cp
f
GR
GS
[0.6 0 0 0.6 0 0] CT
0.149 GC
2 setlinecap
1 LJ
0.833 LW
N
876 254 M
1390 254 L
S
GR
GS
[0.6 0 0 0.6 0 0] CT
0.149 GC
2 setlinecap
1 LJ
0.833 LW
N
876 82 M
1390 82 L
S
GR
GS
[0.6 0 0 0.6 0 0] CT
0.149 GC
2 setlinecap
1 LJ
0.833 LW
N
876 254 M
876 248.86 L
S
GR
GS
[0.6 0 0 0.6 0 0] CT
0.149 GC
2 setlinecap
1 LJ
0.833 LW
N
1004.5 254 M
1004.5 248.86 L
S
GR
GS
[0.6 0 0 0.6 0 0] CT
0.149 GC
2 setlinecap
1 LJ
0.833 LW
N
1133 254 M
1133 248.86 L
S
GR
GS
[0.6 0 0 0.6 0 0] CT
0.149 GC
2 setlinecap
1 LJ
0.833 LW
N
1261.5 254 M
1261.5 248.86 L
S
GR
GS
[0.6 0 0 0.6 0 0] CT
0.149 GC
2 setlinecap
1 LJ
0.833 LW
N
1390 254 M
1390 248.86 L
S
GR
GS
[0.6 0 0 0.6 0 0] CT
0.149 GC
2 setlinecap
1 LJ
0.833 LW
N
876 82 M
876 87.14 L
S
GR
GS
[0.6 0 0 0.6 0 0] CT
0.149 GC
2 setlinecap
1 LJ
0.833 LW
N
1004.5 82 M
1004.5 87.14 L
S
GR
GS
[0.6 0 0 0.6 0 0] CT
0.149 GC
2 setlinecap
1 LJ
0.833 LW
N
1133 82 M
1133 87.14 L
S
GR
GS
[0.6 0 0 0.6 0 0] CT
0.149 GC
2 setlinecap
1 LJ
0.833 LW
N
1261.5 82 M
1261.5 87.14 L
S
GR
GS
[0.6 0 0 0.6 0 0] CT
0.149 GC
2 setlinecap
1 LJ
0.833 LW
N
1390 82 M
1390 87.14 L
S
GR
GS
[0.6 0 0 0.6 525.60002 157.40001] CT
0.149 GC
/Helvetica-Bold 25 F
GS
[1 0 0 1 0 0] CT
-7 26 moveto 
1 -1 scale
(0) t 
GR
GR
GS
[0.6 0 0 0.6 602.70002 157.40001] CT
0.149 GC
/Helvetica-Bold 25 F
GS
[1 0 0 1 0 0] CT
-17.5 26 moveto 
1 -1 scale
(0.5) t 
GR
GR
GS
[0.6 0 0 0.6 679.80003 157.40001] CT
0.149 GC
/Helvetica-Bold 25 F
GS
[1 0 0 1 0 0] CT
-7 26 moveto 
1 -1 scale
(1) t 
GR
GR
GS
[0.6 0 0 0.6 756.90003 157.40001] CT
0.149 GC
/Helvetica-Bold 25 F
GS
[1 0 0 1 0 0] CT
-17.5 26 moveto 
1 -1 scale
(1.5) t 
GR
GR
GS
[0.6 0 0 0.6 834.00003 157.40001] CT
0.149 GC
/Helvetica-Bold 25 F
GS
[1 0 0 1 0 0] CT
-7 26 moveto 
1 -1 scale
(2) t 
GR
GR
GS
[0.6 0 0 0.6 646.20003 194.4] CT
0.149 GC
N
/f876989070{4.391 0.313 M
2.813 0.313 2.102 -0.852 QT
1.391 -2.016 1.391 -3.688 QT
1.391 -4.797 1.594 -5.859 QT
1.797 -6.922 2.195 -8.008 QT
2.594 -9.094 3.117 -10.047 QT
3.641 -11 4.281 -11.891 QT
4.406 -12.078 4.609 -12.078 QT
5.781 -12.078 5.891 -11.969 QT
6 -11.859 6 -11.703 QT
6 -11.547 5.922 -11.438 QT
3.375 -7.922 3.375 -4.953 QT
3.375 -3.672 3.969 -2.742 QT
4.563 -1.813 4.781 -1.813 QT
5.828 -1.813 6.727 -2.43 QT
7.625 -3.047 8.281 -4 QT
8.281 -4.5 8.445 -5.539 QT
8.609 -6.578 8.977 -7.391 QT
9.344 -8.203 9.844 -8.203 QT
11.484 -8.203 11.484 -7.453 QT
11.484 -7.016 11.305 -6.352 QT
11.125 -5.688 10.898 -5.117 QT
10.672 -4.547 10.344 -3.813 QT
10.672 -1.813 11.344 -1.813 QT
12.313 -1.813 13.289 -2.375 QT
14.266 -2.938 15.016 -3.852 QT
15.766 -4.766 16.195 -5.813 QT
16.625 -6.859 16.625 -7.813 QT
16.625 -8.656 16.359 -9.125 QT
16.094 -9.594 15.656 -10.117 QT
15.219 -10.641 15.219 -10.953 QT
15.219 -11.5 15.688 -11.953 QT
16.156 -12.406 16.688 -12.406 QT
18.359 -12.406 18.648 -11.781 QT
18.938 -11.156 18.938 -10.359 QT
18.938 -9.078 18.43 -7.125 QT
17.922 -5.172 17.266 -3.875 QT
16.359 -2.109 15 -0.898 QT
13.641 0.313 10.938 0.313 QT
9.859 0.313 9.195 -0.336 QT
8.531 -0.984 8.531 -0.984 QT
8.531 -0.984 7.547 -0.336 QT
6.563 0.313 4.391 0.313 QT
cp}def
f876989070
f
GR
GS
[0.6 0 0 0.6 657.60003 194.4] CT
0.149 GC
/Helvetica-Bold 27.5 F
GS
[1 0 0 1 0 0] CT
0 0 moveto 
1 -1 scale
( [rad/s]) t 
GR
GR
GS
[0.6 0 0 0.6 0 0] CT
0.149 GC
2 setlinecap
1 LJ
0.833 LW
N
876 254 M
876 82 L
S
GR
GS
[0.6 0 0 0.6 0 0] CT
0.149 GC
2 setlinecap
1 LJ
0.833 LW
N
1390 254 M
1390 82 L
S
GR
GS
[0.6 0 0 0.6 0 0] CT
0.149 GC
2 setlinecap
1 LJ
0.833 LW
N
876 195.156 M
881.14 195.156 L
S
GR
GS
[0.6 0 0 0.6 0 0] CT
0.149 GC
2 setlinecap
1 LJ
0.833 LW
N
876 82 M
881.14 82 L
S
GR
GS
[0.6 0 0 0.6 0 0] CT
0.149 GC
2 setlinecap
1 LJ
0.833 LW
N
1390 195.156 M
1384.86 195.156 L
S
GR
GS
[0.6 0 0 0.6 0 0] CT
0.149 GC
2 setlinecap
1 LJ
0.833 LW
N
1390 82 M
1384.86 82 L
S
GR
GS
[0.6 0 0 0.6 520.60003 117.09384] CT
0.149 GC
/Helvetica-Bold 25 F
GS
[1 0 0 1 0 0] CT
-14 10 moveto 
1 -1 scale
(5) t 
GR
GR
GS
[0.6 0 0 0.6 520.60003 49.2] CT
0.149 GC
/Helvetica-Bold 25 F
GS
[1 0 0 1 0 0] CT
-28 10 moveto 
1 -1 scale
(10) t 
GR
GR
GS
[0 -0.6 0.6 0 490.20002 113.4] CT
0.149 GC
/Helvetica-Bold 27.5 F
GS
[1 0 0 1 0 0] CT
0 0 moveto 
1 -1 scale
(a) t 
GR
GR
GS
[0 -0.6 0.6 0 498.00002 103.8] CT
0.149 GC
/Helvetica-Bold 22 F
GS
[1 0 0 1 0 0] CT
0 0 moveto 
1 -1 scale
(22) t 
GR
GR
GS
[0.6 0 0 0.6 525.60002 45.6] CT
0.149 GC
N
/f1086612530{3.672 -0.719 M
3.672 -0.922 3.797 -1.078 QT
9 -6.25 L
3.797 -11.453 L
3.672 -11.578 3.672 -11.781 QT
3.672 -11.969 3.82 -12.125 QT
3.969 -12.281 4.172 -12.281 QT
5.344 -12.281 5.547 -12.125 QT
10.219 -7.453 L
14.875 -12.125 L
15.094 -12.281 15.25 -12.281 QT
16.453 -12.281 16.602 -12.133 QT
16.75 -11.984 16.75 -11.781 QT
16.75 -11.578 16.625 -11.453 QT
11.422 -6.25 L
16.625 -1.078 L
16.75 -0.922 16.75 -0.719 QT
16.75 -0.516 16.602 -0.367 QT
16.453 -0.219 15.25 -0.219 QT
15.063 -0.219 14.875 -0.406 QT
10.219 -5.047 L
5.547 -0.406 L
5.375 -0.219 4.172 -0.219 QT
3.969 -0.219 3.82 -0.375 QT
3.672 -0.531 3.672 -0.719 QT
cp}def
f1086612530
f
GR
GS
[0.6 0 0 0.6 538.20002 45.6] CT
0.149 GC
/Helvetica-Bold 25 F
GS
[1 0 0 1 0 0] CT
0 0 moveto 
1 -1 scale
(10) t 
GR
GR
GS
[0.6 0 0 0.6 555.00002 38.4] CT
0.149 GC
/Helvetica-Bold 20 F
GS
[1 0 0 1 0 0] CT
0 0 moveto 
1 -1 scale
(5) t 
GR
GR
GS
[0.6 0 0 0.6 0 0] CT
0 0 1 RC
1 LJ
3.333 LW
N
901.7 155.436 M
913.907 155.027 L
926.115 154.442 L
938.323 153.662 L
950.53 152.661 L
962.737 151.409 L
974.945 149.871 L
987.153 148.008 L
999.36 145.784 L
1011.568 143.164 L
1023.775 140.124 L
1035.983 136.653 L
1048.19 132.767 L
1060.397 128.513 L
1072.605 123.993 L
1084.813 119.375 L
1097.02 114.919 L
1109.228 110.994 L
1121.435 108.084 L
1133.642 106.773 L
1145.85 107.681 L
1158.057 111.349 L
1170.265 118.078 L
1182.473 127.794 L
1194.68 139.986 L
1206.887 153.804 L
1219.095 168.253 L
1231.302 182.418 L
1243.51 195.614 L
1255.718 207.434 L
1267.925 217.71 L
1280.132 226.442 L
1292.34 233.717 L
1304.547 239.655 L
1316.755 244.371 L
1328.963 247.97 L
1341.17 250.553 L
1353.377 252.23 L
1365.585 253.128 L
1377.792 253.382 L
1390 253.132 L
S
GR
GS
[0.6 0 0 0.6 0 0] CT
1 0 0 RC
[12 12] 0 setdash
2 LJ
3.333 LW
N
901.7 155.693 M
913.907 155.286 L
926.115 154.7 L
938.323 153.919 L
950.53 152.91 L
962.737 151.655 L
974.945 150.114 L
987.153 148.244 L
999.36 146.012 L
1011.568 143.377 L
1023.775 140.322 L
1035.983 136.837 L
1048.19 132.934 L
1060.397 128.655 L
1072.605 124.12 L
1084.813 119.464 L
1097.02 114.982 L
1109.228 111.004 L
1121.435 108.059 L
1133.642 106.693 L
1145.85 107.568 L
1158.057 111.214 L
1170.265 117.937 L
1182.473 127.686 L
1194.68 139.934 L
1206.887 153.831 L
1219.095 168.375 L
1231.302 182.634 L
1243.51 195.908 L
1255.718 207.801 L
1267.925 218.138 L
1280.132 226.908 L
1292.34 234.222 L
1304.547 240.192 L
1316.755 244.939 L
1328.963 248.555 L
1341.17 251.155 L
1353.377 252.845 L
1365.585 253.747 L
1377.792 254 L
1390 253.744 L
S
GR
GS
[0.6 0 0 0.6 0 0] CT
1 GC
N
200 542 M
714 542 L
714 370 L
200 370 L
cp
f
GR
GS
[0.6 0 0 0.6 0 0] CT
0.149 GC
2 setlinecap
1 LJ
0.833 LW
N
200 542 M
714 542 L
S
GR
GS
[0.6 0 0 0.6 0 0] CT
0.149 GC
2 setlinecap
1 LJ
0.833 LW
N
200 370 M
714 370 L
S
GR
GS
[0.6 0 0 0.6 0 0] CT
0.149 GC
2 setlinecap
1 LJ
0.833 LW
N
200 542 M
200 536.86 L
S
GR
GS
[0.6 0 0 0.6 0 0] CT
0.149 GC
2 setlinecap
1 LJ
0.833 LW
N
328.5 542 M
328.5 536.86 L
S
GR
GS
[0.6 0 0 0.6 0 0] CT
0.149 GC
2 setlinecap
1 LJ
0.833 LW
N
457 542 M
457 536.86 L
S
GR
GS
[0.6 0 0 0.6 0 0] CT
0.149 GC
2 setlinecap
1 LJ
0.833 LW
N
585.5 542 M
585.5 536.86 L
S
GR
GS
[0.6 0 0 0.6 0 0] CT
0.149 GC
2 setlinecap
1 LJ
0.833 LW
N
714 542 M
714 536.86 L
S
GR
GS
[0.6 0 0 0.6 0 0] CT
0.149 GC
2 setlinecap
1 LJ
0.833 LW
N
200 370 M
200 375.14 L
S
GR
GS
[0.6 0 0 0.6 0 0] CT
0.149 GC
2 setlinecap
1 LJ
0.833 LW
N
328.5 370 M
328.5 375.14 L
S
GR
GS
[0.6 0 0 0.6 0 0] CT
0.149 GC
2 setlinecap
1 LJ
0.833 LW
N
457 370 M
457 375.14 L
S
GR
GS
[0.6 0 0 0.6 0 0] CT
0.149 GC
2 setlinecap
1 LJ
0.833 LW
N
585.5 370 M
585.5 375.14 L
S
GR
GS
[0.6 0 0 0.6 0 0] CT
0.149 GC
2 setlinecap
1 LJ
0.833 LW
N
714 370 M
714 375.14 L
S
GR
GS
[0.6 0 0 0.6 120 330.20002] CT
0.149 GC
/Helvetica-Bold 25 F
GS
[1 0 0 1 0 0] CT
-7 26 moveto 
1 -1 scale
(0) t 
GR
GR
GS
[0.6 0 0 0.6 197.10001 330.20002] CT
0.149 GC
/Helvetica-Bold 25 F
GS
[1 0 0 1 0 0] CT
-17.5 26 moveto 
1 -1 scale
(0.5) t 
GR
GR
GS
[0.6 0 0 0.6 274.20001 330.20002] CT
0.149 GC
/Helvetica-Bold 25 F
GS
[1 0 0 1 0 0] CT
-7 26 moveto 
1 -1 scale
(1) t 
GR
GR
GS
[0.6 0 0 0.6 351.30001 330.20002] CT
0.149 GC
/Helvetica-Bold 25 F
GS
[1 0 0 1 0 0] CT
-17.5 26 moveto 
1 -1 scale
(1.5) t 
GR
GR
GS
[0.6 0 0 0.6 428.40002 330.20002] CT
0.149 GC
/Helvetica-Bold 25 F
GS
[1 0 0 1 0 0] CT
-7 26 moveto 
1 -1 scale
(2) t 
GR
GR
GS
[0.6 0 0 0.6 240.60001 367.2] CT
0.149 GC
N
f876989070
f
GR
GS
[0.6 0 0 0.6 252.00001 367.2] CT
0.149 GC
/Helvetica-Bold 27.5 F
GS
[1 0 0 1 0 0] CT
0 0 moveto 
1 -1 scale
( [rad/s]) t 
GR
GR
GS
[0.6 0 0 0.6 0 0] CT
0.149 GC
2 setlinecap
1 LJ
0.833 LW
N
200 542 M
200 370 L
S
GR
GS
[0.6 0 0 0.6 0 0] CT
0.149 GC
2 setlinecap
1 LJ
0.833 LW
N
714 542 M
714 370 L
S
GR
GS
[0.6 0 0 0.6 0 0] CT
0.149 GC
2 setlinecap
1 LJ
0.833 LW
N
200 487.417 M
205.14 487.417 L
S
GR
GS
[0.6 0 0 0.6 0 0] CT
0.149 GC
2 setlinecap
1 LJ
0.833 LW
N
200 428.709 M
205.14 428.709 L
S
GR
GS
[0.6 0 0 0.6 0 0] CT
0.149 GC
2 setlinecap
1 LJ
0.833 LW
N
200 370 M
205.14 370 L
S
GR
GS
[0.6 0 0 0.6 0 0] CT
0.149 GC
2 setlinecap
1 LJ
0.833 LW
N
714 487.417 M
708.86 487.417 L
S
GR
GS
[0.6 0 0 0.6 0 0] CT
0.149 GC
2 setlinecap
1 LJ
0.833 LW
N
714 428.709 M
708.86 428.709 L
S
GR
GS
[0.6 0 0 0.6 0 0] CT
0.149 GC
2 setlinecap
1 LJ
0.833 LW
N
714 370 M
708.86 370 L
S
GR
GS
[0.6 0 0 0.6 115.00001 292.45042] CT
0.149 GC
/Helvetica-Bold 25 F
GS
[1 0 0 1 0 0] CT
-35 10 moveto 
1 -1 scale
(1.2) t 
GR
GR
GS
[0.6 0 0 0.6 115.00001 257.22521] CT
0.149 GC
/Helvetica-Bold 25 F
GS
[1 0 0 1 0 0] CT
-35 10 moveto 
1 -1 scale
(1.3) t 
GR
GR
GS
[0.6 0 0 0.6 115.00001 222] CT
0.149 GC
/Helvetica-Bold 25 F
GS
[1 0 0 1 0 0] CT
-35 10 moveto 
1 -1 scale
(1.4) t 
GR
GR
GS
[0 -0.6 0.6 0 80.4 286.2] CT
0.149 GC
/Helvetica-Bold 27.5 F
GS
[1 0 0 1 0 0] CT
0 0 moveto 
1 -1 scale
(a) t 
GR
GR
GS
[0 -0.6 0.6 0 88.2 276.6] CT
0.149 GC
/Helvetica-Bold 22 F
GS
[1 0 0 1 0 0] CT
0 0 moveto 
1 -1 scale
(33) t 
GR
GR
GS
[0.6 0 0 0.6 120 218.4] CT
0.149 GC
N
f1086612530
f
GR
GS
[0.6 0 0 0.6 132.60001 218.4] CT
0.149 GC
/Helvetica-Bold 25 F
GS
[1 0 0 1 0 0] CT
0 0 moveto 
1 -1 scale
(10) t 
GR
GR
GS
[0.6 0 0 0.6 149.40001 211.2] CT
0.149 GC
/Helvetica-Bold 20 F
GS
[1 0 0 1 0 0] CT
0 0 moveto 
1 -1 scale
(5) t 
GR
GR
GS
[0.6 0 0 0.6 0 0] CT
0 0 1 RC
1 LJ
3.333 LW
N
225.7 388.825 M
237.908 384.639 L
250.115 382.021 L
262.323 381.756 L
274.53 384.303 L
286.737 389.826 L
298.945 398.219 L
311.152 409.15 L
323.36 422.116 L
335.568 436.499 L
347.775 451.631 L
359.983 466.844 L
372.19 481.525 L
384.397 495.149 L
396.605 507.304 L
408.813 517.706 L
421.02 526.2 L
433.228 532.749 L
445.435 537.421 L
457.643 540.368 L
469.85 541.796 L
482.057 541.95 L
494.265 541.084 L
506.473 539.443 L
518.68 537.258 L
530.888 534.725 L
543.095 532.011 L
555.302 529.246 L
567.51 526.528 L
579.717 523.928 L
591.925 521.491 L
604.133 519.243 L
616.34 517.194 L
628.547 515.344 L
640.755 513.684 L
652.963 512.202 L
665.17 510.881 L
677.378 509.706 L
689.585 508.659 L
701.792 507.725 L
714 506.89 L
S
GR
GS
[0.6 0 0 0.6 0 0] CT
1 0 0 RC
[12 12] 0 setdash
2 LJ
3.333 LW
N
225.7 388.888 M
237.908 384.576 L
250.115 382.063 L
262.323 381.743 L
274.53 384.269 L
286.737 389.781 L
298.945 398.228 L
311.152 409.171 L
323.36 422.095 L
335.568 436.444 L
347.775 451.635 L
359.983 467.019 L
372.19 481.534 L
384.397 495.217 L
396.605 507.342 L
408.813 517.73 L
421.02 526.233 L
433.228 532.767 L
445.435 537.383 L
457.643 540.44 L
469.85 541.682 L
482.057 542 L
494.265 541.008 L
506.473 539.299 L
518.68 537.33 L
530.888 534.616 L
543.095 531.85 L
555.302 529.23 L
567.51 526.459 L
579.717 523.802 L
591.925 521.417 L
604.133 519.245 L
616.34 517.156 L
628.547 515.309 L
640.755 513.673 L
652.963 512.187 L
665.17 510.882 L
677.378 509.71 L
689.585 508.663 L
701.792 507.715 L
714 506.883 L
S
GR
GS
[0.6 0 0 0.6 0 0] CT
1 GC
N
876 542 M
1390 542 L
1390 370 L
876 370 L
cp
f
GR
GS
[0.6 0 0 0.6 0 0] CT
0.149 GC
2 setlinecap
1 LJ
0.833 LW
N
876 542 M
1390 542 L
S
GR
GS
[0.6 0 0 0.6 0 0] CT
0.149 GC
2 setlinecap
1 LJ
0.833 LW
N
876 370 M
1390 370 L
S
GR
GS
[0.6 0 0 0.6 0 0] CT
0.149 GC
2 setlinecap
1 LJ
0.833 LW
N
876 542 M
876 536.86 L
S
GR
GS
[0.6 0 0 0.6 0 0] CT
0.149 GC
2 setlinecap
1 LJ
0.833 LW
N
1004.5 542 M
1004.5 536.86 L
S
GR
GS
[0.6 0 0 0.6 0 0] CT
0.149 GC
2 setlinecap
1 LJ
0.833 LW
N
1133 542 M
1133 536.86 L
S
GR
GS
[0.6 0 0 0.6 0 0] CT
0.149 GC
2 setlinecap
1 LJ
0.833 LW
N
1261.5 542 M
1261.5 536.86 L
S
GR
GS
[0.6 0 0 0.6 0 0] CT
0.149 GC
2 setlinecap
1 LJ
0.833 LW
N
1390 542 M
1390 536.86 L
S
GR
GS
[0.6 0 0 0.6 0 0] CT
0.149 GC
2 setlinecap
1 LJ
0.833 LW
N
876 370 M
876 375.14 L
S
GR
GS
[0.6 0 0 0.6 0 0] CT
0.149 GC
2 setlinecap
1 LJ
0.833 LW
N
1004.5 370 M
1004.5 375.14 L
S
GR
GS
[0.6 0 0 0.6 0 0] CT
0.149 GC
2 setlinecap
1 LJ
0.833 LW
N
1133 370 M
1133 375.14 L
S
GR
GS
[0.6 0 0 0.6 0 0] CT
0.149 GC
2 setlinecap
1 LJ
0.833 LW
N
1261.5 370 M
1261.5 375.14 L
S
GR
GS
[0.6 0 0 0.6 0 0] CT
0.149 GC
2 setlinecap
1 LJ
0.833 LW
N
1390 370 M
1390 375.14 L
S
GR
GS
[0.6 0 0 0.6 525.60002 330.19999] CT
0.149 GC
/Helvetica-Bold 25 F
GS
[1 0 0 1 0 0] CT
-7 26 moveto 
1 -1 scale
(0) t 
GR
GR
GS
[0.6 0 0 0.6 602.70002 330.19999] CT
0.149 GC
/Helvetica-Bold 25 F
GS
[1 0 0 1 0 0] CT
-17.5 26 moveto 
1 -1 scale
(0.5) t 
GR
GR
GS
[0.6 0 0 0.6 679.80003 330.19999] CT
0.149 GC
/Helvetica-Bold 25 F
GS
[1 0 0 1 0 0] CT
-7 26 moveto 
1 -1 scale
(1) t 
GR
GR
GS
[0.6 0 0 0.6 756.90003 330.19999] CT
0.149 GC
/Helvetica-Bold 25 F
GS
[1 0 0 1 0 0] CT
-17.5 26 moveto 
1 -1 scale
(1.5) t 
GR
GR
GS
[0.6 0 0 0.6 834.00003 330.19999] CT
0.149 GC
/Helvetica-Bold 25 F
GS
[1 0 0 1 0 0] CT
-7 26 moveto 
1 -1 scale
(2) t 
GR
GR
GS
[0.6 0 0 0.6 646.20003 367.2] CT
0.149 GC
N
f876989070
f
GR
GS
[0.6 0 0 0.6 657.60003 367.2] CT
0.149 GC
/Helvetica-Bold 27.5 F
GS
[1 0 0 1 0 0] CT
0 0 moveto 
1 -1 scale
( [rad/s]) t 
GR
GR
GS
[0.6 0 0 0.6 0 0] CT
0.149 GC
2 setlinecap
1 LJ
0.833 LW
N
876 542 M
876 370 L
S
GR
GS
[0.6 0 0 0.6 0 0] CT
0.149 GC
2 setlinecap
1 LJ
0.833 LW
N
1390 542 M
1390 370 L
S
GR
GS
[0.6 0 0 0.6 0 0] CT
0.149 GC
2 setlinecap
1 LJ
0.833 LW
N
876 542 M
881.14 542 L
S
GR
GS
[0.6 0 0 0.6 0 0] CT
0.149 GC
2 setlinecap
1 LJ
0.833 LW
N
876 456 M
881.14 456 L
S
GR
GS
[0.6 0 0 0.6 0 0] CT
0.149 GC
2 setlinecap
1 LJ
0.833 LW
N
876 370 M
881.14 370 L
S
GR
GS
[0.6 0 0 0.6 0 0] CT
0.149 GC
2 setlinecap
1 LJ
0.833 LW
N
1390 542 M
1384.86 542 L
S
GR
GS
[0.6 0 0 0.6 0 0] CT
0.149 GC
2 setlinecap
1 LJ
0.833 LW
N
1390 456 M
1384.86 456 L
S
GR
GS
[0.6 0 0 0.6 0 0] CT
0.149 GC
2 setlinecap
1 LJ
0.833 LW
N
1390 370 M
1384.86 370 L
S
GR
GS
[0.6 0 0 0.6 520.60003 325.2] CT
0.149 GC
/Helvetica-Bold 25 F
GS
[1 0 0 1 0 0] CT
-14 10 moveto 
1 -1 scale
(1) t 
GR
GR
GS
[0.6 0 0 0.6 520.60003 273.6] CT
0.149 GC
/Helvetica-Bold 25 F
GS
[1 0 0 1 0 0] CT
-35 10 moveto 
1 -1 scale
(1.5) t 
GR
GR
GS
[0.6 0 0 0.6 520.60003 222] CT
0.149 GC
/Helvetica-Bold 25 F
GS
[1 0 0 1 0 0] CT
-14 10 moveto 
1 -1 scale
(2) t 
GR
GR
GS
[0 -0.6 0.6 0 486.00002 286.2] CT
0.149 GC
/Helvetica-Bold 27.5 F
GS
[1 0 0 1 0 0] CT
0 0 moveto 
1 -1 scale
(a) t 
GR
GR
GS
[0 -0.6 0.6 0 493.80002 276.6] CT
0.149 GC
/Helvetica-Bold 22 F
GS
[1 0 0 1 0 0] CT
0 0 moveto 
1 -1 scale
(44) t 
GR
GR
GS
[0.6 0 0 0.6 525.60002 218.4] CT
0.149 GC
N
f1086612530
f
GR
GS
[0.6 0 0 0.6 538.20002 218.4] CT
0.149 GC
/Helvetica-Bold 25 F
GS
[1 0 0 1 0 0] CT
0 0 moveto 
1 -1 scale
(10) t 
GR
GR
GS
[0.6 0 0 0.6 555.00002 211.2] CT
0.149 GC
/Helvetica-Bold 20 F
GS
[1 0 0 1 0 0] CT
0 0 moveto 
1 -1 scale
(7) t 
GR
GR
GS
[0.6 0 0 0.6 0 0] CT
0 0 1 RC
1 LJ
3.333 LW
N
901.7 426.29 M
913.907 425.854 L
926.115 425.25 L
938.323 424.461 L
950.53 423.46 L
962.737 422.213 L
974.945 420.68 L
987.153 418.824 L
999.36 416.609 L
1011.568 414.01 L
1023.775 411.021 L
1035.983 407.662 L
1048.19 403.992 L
1060.397 400.119 L
1072.605 396.214 L
1084.813 392.533 L
1097.02 389.422 L
1109.228 387.329 L
1121.435 386.788 L
1133.642 388.375 L
1145.85 392.614 L
1158.057 399.835 L
1170.265 410.03 L
1182.473 422.744 L
1194.68 437.113 L
1206.887 452.028 L
1219.095 466.396 L
1231.302 479.356 L
1243.51 490.391 L
1255.718 499.313 L
1267.925 506.181 L
1280.132 511.194 L
1292.34 514.61 L
1304.547 516.687 L
1316.755 517.661 L
1328.963 517.735 L
1341.17 517.092 L
1353.377 515.897 L
1365.585 514.301 L
1377.792 512.442 L
1390 510.434 L
S
GR
GS
[0.6 0 0 0.6 0 0] CT
1 0 0 RC
[12 12] 0 setdash
2 LJ
3.333 LW
N
901.7 426.676 M
913.907 426.241 L
926.115 425.639 L
938.323 424.849 L
950.53 423.841 L
962.737 422.592 L
974.945 421.059 L
987.153 419.198 L
999.36 416.975 L
1011.568 414.363 L
1023.775 411.361 L
1035.983 407.992 L
1048.19 404.307 L
1060.397 400.417 L
1072.605 396.503 L
1084.813 392.791 L
1097.02 389.662 L
1109.228 387.527 L
1121.435 386.961 L
1133.642 388.511 L
1145.85 392.733 L
1158.057 399.957 L
1170.265 410.163 L
1182.473 422.93 L
1194.68 437.37 L
1206.887 452.362 L
1219.095 466.816 L
1231.302 479.855 L
1243.51 490.941 L
1255.718 499.905 L
1267.925 506.804 L
1280.132 511.822 L
1292.34 515.241 L
1304.547 517.323 L
1316.755 518.3 L
1328.963 518.364 L
1341.17 517.714 L
1353.377 516.516 L
1365.585 514.92 L
1377.792 513.058 L
1390 511.05 L
S
GR
GS
[0.6 0 0 0.6 0 0] CT
1 GC
N
200 829 M
714 829 L
714 658 L
200 658 L
cp
f
GR
GS
[0.6 0 0 0.6 0 0] CT
0.149 GC
2 setlinecap
1 LJ
0.833 LW
N
200 829 M
714 829 L
S
GR
GS
[0.6 0 0 0.6 0 0] CT
0.149 GC
2 setlinecap
1 LJ
0.833 LW
N
200 658 M
714 658 L
S
GR
GS
[0.6 0 0 0.6 0 0] CT
0.149 GC
2 setlinecap
1 LJ
0.833 LW
N
200 829 M
200 823.86 L
S
GR
GS
[0.6 0 0 0.6 0 0] CT
0.149 GC
2 setlinecap
1 LJ
0.833 LW
N
328.5 829 M
328.5 823.86 L
S
GR
GS
[0.6 0 0 0.6 0 0] CT
0.149 GC
2 setlinecap
1 LJ
0.833 LW
N
457 829 M
457 823.86 L
S
GR
GS
[0.6 0 0 0.6 0 0] CT
0.149 GC
2 setlinecap
1 LJ
0.833 LW
N
585.5 829 M
585.5 823.86 L
S
GR
GS
[0.6 0 0 0.6 0 0] CT
0.149 GC
2 setlinecap
1 LJ
0.833 LW
N
714 829 M
714 823.86 L
S
GR
GS
[0.6 0 0 0.6 0 0] CT
0.149 GC
2 setlinecap
1 LJ
0.833 LW
N
200 658 M
200 663.14 L
S
GR
GS
[0.6 0 0 0.6 0 0] CT
0.149 GC
2 setlinecap
1 LJ
0.833 LW
N
328.5 658 M
328.5 663.14 L
S
GR
GS
[0.6 0 0 0.6 0 0] CT
0.149 GC
2 setlinecap
1 LJ
0.833 LW
N
457 658 M
457 663.14 L
S
GR
GS
[0.6 0 0 0.6 0 0] CT
0.149 GC
2 setlinecap
1 LJ
0.833 LW
N
585.5 658 M
585.5 663.14 L
S
GR
GS
[0.6 0 0 0.6 0 0] CT
0.149 GC
2 setlinecap
1 LJ
0.833 LW
N
714 658 M
714 663.14 L
S
GR
GS
[0.6 0 0 0.6 120 502.39999] CT
0.149 GC
/Helvetica-Bold 25 F
GS
[1 0 0 1 0 0] CT
-7 26 moveto 
1 -1 scale
(0) t 
GR
GR
GS
[0.6 0 0 0.6 197.10001 502.39999] CT
0.149 GC
/Helvetica-Bold 25 F
GS
[1 0 0 1 0 0] CT
-17.5 26 moveto 
1 -1 scale
(0.5) t 
GR
GR
GS
[0.6 0 0 0.6 274.20001 502.39999] CT
0.149 GC
/Helvetica-Bold 25 F
GS
[1 0 0 1 0 0] CT
-7 26 moveto 
1 -1 scale
(1) t 
GR
GR
GS
[0.6 0 0 0.6 351.30001 502.39999] CT
0.149 GC
/Helvetica-Bold 25 F
GS
[1 0 0 1 0 0] CT
-17.5 26 moveto 
1 -1 scale
(1.5) t 
GR
GR
GS
[0.6 0 0 0.6 428.40002 502.39999] CT
0.149 GC
/Helvetica-Bold 25 F
GS
[1 0 0 1 0 0] CT
-7 26 moveto 
1 -1 scale
(2) t 
GR
GR
GS
[0.6 0 0 0.6 240.60001 539.4] CT
0.149 GC
N
f876989070
f
GR
GS
[0.6 0 0 0.6 252.00001 539.4] CT
0.149 GC
/Helvetica-Bold 27.5 F
GS
[1 0 0 1 0 0] CT
0 0 moveto 
1 -1 scale
( [rad/s]) t 
GR
GR
GS
[0.6 0 0 0.6 0 0] CT
0.149 GC
2 setlinecap
1 LJ
0.833 LW
N
200 829 M
200 658 L
S
GR
GS
[0.6 0 0 0.6 0 0] CT
0.149 GC
2 setlinecap
1 LJ
0.833 LW
N
714 829 M
714 658 L
S
GR
GS
[0.6 0 0 0.6 0 0] CT
0.149 GC
2 setlinecap
1 LJ
0.833 LW
N
200 769.917 M
205.14 769.917 L
S
GR
GS
[0.6 0 0 0.6 0 0] CT
0.149 GC
2 setlinecap
1 LJ
0.833 LW
N
200 658 M
205.14 658 L
S
GR
GS
[0.6 0 0 0.6 0 0] CT
0.149 GC
2 setlinecap
1 LJ
0.833 LW
N
714 769.917 M
708.86 769.917 L
S
GR
GS
[0.6 0 0 0.6 0 0] CT
0.149 GC
2 setlinecap
1 LJ
0.833 LW
N
714 658 M
708.86 658 L
S
GR
GS
[0.6 0 0 0.6 115.00001 461.95031] CT
0.149 GC
/Helvetica-Bold 25 F
GS
[1 0 0 1 0 0] CT
-35 10 moveto 
1 -1 scale
(1.5) t 
GR
GR
GS
[0.6 0 0 0.6 115.00001 394.8] CT
0.149 GC
/Helvetica-Bold 25 F
GS
[1 0 0 1 0 0] CT
-14 10 moveto 
1 -1 scale
(2) t 
GR
GR
GS
[0 -0.6 0.6 0 80.4 458.4] CT
0.149 GC
/Helvetica-Bold 27.5 F
GS
[1 0 0 1 0 0] CT
0 0 moveto 
1 -1 scale
(a) t 
GR
GR
GS
[0 -0.6 0.6 0 88.2 448.8] CT
0.149 GC
/Helvetica-Bold 22 F
GS
[1 0 0 1 0 0] CT
0 0 moveto 
1 -1 scale
(55) t 
GR
GR
GS
[0.6 0 0 0.6 120 391.2] CT
0.149 GC
N
f1086612530
f
GR
GS
[0.6 0 0 0.6 132.60001 391.2] CT
0.149 GC
/Helvetica-Bold 25 F
GS
[1 0 0 1 0 0] CT
0 0 moveto 
1 -1 scale
(10) t 
GR
GR
GS
[0.6 0 0 0.6 149.40001 384] CT
0.149 GC
/Helvetica-Bold 20 F
GS
[1 0 0 1 0 0] CT
0 0 moveto 
1 -1 scale
(7) t 
GR
GR
GS
[0.6 0 0 0.6 0 0] CT
0 0 1 RC
1 LJ
3.333 LW
N
225.7 705.044 M
237.908 704.316 L
250.115 703.43 L
262.323 702.394 L
274.53 701.193 L
286.737 699.789 L
298.945 698.13 L
311.152 696.153 L
323.36 693.794 L
335.568 690.999 L
347.775 687.735 L
359.983 684 L
372.19 679.846 L
384.397 675.391 L
396.605 670.838 L
408.813 666.502 L
421.02 662.821 L
433.228 660.368 L
445.435 659.834 L
457.643 661.964 L
469.85 667.443 L
482.057 676.711 L
494.265 689.771 L
506.473 706.057 L
518.68 724.471 L
530.888 743.599 L
543.095 762.039 L
555.302 778.689 L
567.51 792.88 L
579.717 804.369 L
591.925 813.225 L
604.133 819.701 L
616.34 824.125 L
628.547 826.825 L
640.755 828.1 L
652.963 828.209 L
665.17 827.384 L
677.378 825.838 L
689.585 823.768 L
701.792 821.349 L
714 818.731 L
S
GR
GS
[0.6 0 0 0.6 0 0] CT
1 0 0 RC
[12 12] 0 setdash
2 LJ
3.333 LW
N
225.7 705.522 M
237.908 704.791 L
250.115 703.91 L
262.323 702.872 L
274.53 701.662 L
286.737 700.254 L
298.945 698.596 L
311.152 696.612 L
323.36 694.241 L
335.568 691.429 L
347.775 688.147 L
359.983 684.404 L
372.19 680.224 L
384.397 675.749 L
396.605 671.182 L
408.813 666.804 L
421.02 663.1 L
433.228 660.592 L
445.435 660.023 L
457.643 662.109 L
469.85 667.561 L
482.057 676.837 L
494.265 689.907 L
506.473 706.26 L
518.68 724.774 L
530.888 743.995 L
543.095 762.547 L
555.302 779.304 L
567.51 793.56 L
579.717 805.102 L
591.925 814.001 L
604.133 820.488 L
616.34 824.915 L
628.547 827.623 L
640.755 828.904 L
652.963 829 L
665.17 828.168 L
677.378 826.618 L
689.585 824.546 L
701.792 822.122 L
714 819.507 L
S
GR
GS
[0.6 0 0 0.6 0 0] CT
1 GC
N
876 829 M
1390 829 L
1390 658 L
876 658 L
cp
f
GR
GS
[0.6 0 0 0.6 0 0] CT
0.149 GC
2 setlinecap
1 LJ
0.833 LW
N
876 829 M
1390 829 L
S
GR
GS
[0.6 0 0 0.6 0 0] CT
0.149 GC
2 setlinecap
1 LJ
0.833 LW
N
876 658 M
1390 658 L
S
GR
GS
[0.6 0 0 0.6 0 0] CT
0.149 GC
2 setlinecap
1 LJ
0.833 LW
N
876 829 M
876 823.86 L
S
GR
GS
[0.6 0 0 0.6 0 0] CT
0.149 GC
2 setlinecap
1 LJ
0.833 LW
N
1004.5 829 M
1004.5 823.86 L
S
GR
GS
[0.6 0 0 0.6 0 0] CT
0.149 GC
2 setlinecap
1 LJ
0.833 LW
N
1133 829 M
1133 823.86 L
S
GR
GS
[0.6 0 0 0.6 0 0] CT
0.149 GC
2 setlinecap
1 LJ
0.833 LW
N
1261.5 829 M
1261.5 823.86 L
S
GR
GS
[0.6 0 0 0.6 0 0] CT
0.149 GC
2 setlinecap
1 LJ
0.833 LW
N
1390 829 M
1390 823.86 L
S
GR
GS
[0.6 0 0 0.6 0 0] CT
0.149 GC
2 setlinecap
1 LJ
0.833 LW
N
876 658 M
876 663.14 L
S
GR
GS
[0.6 0 0 0.6 0 0] CT
0.149 GC
2 setlinecap
1 LJ
0.833 LW
N
1004.5 658 M
1004.5 663.14 L
S
GR
GS
[0.6 0 0 0.6 0 0] CT
0.149 GC
2 setlinecap
1 LJ
0.833 LW
N
1133 658 M
1133 663.14 L
S
GR
GS
[0.6 0 0 0.6 0 0] CT
0.149 GC
2 setlinecap
1 LJ
0.833 LW
N
1261.5 658 M
1261.5 663.14 L
S
GR
GS
[0.6 0 0 0.6 0 0] CT
0.149 GC
2 setlinecap
1 LJ
0.833 LW
N
1390 658 M
1390 663.14 L
S
GR
GS
[0.6 0 0 0.6 525.60002 502.39999] CT
0.149 GC
/Helvetica-Bold 25 F
GS
[1 0 0 1 0 0] CT
-7 26 moveto 
1 -1 scale
(0) t 
GR
GR
GS
[0.6 0 0 0.6 602.70002 502.39999] CT
0.149 GC
/Helvetica-Bold 25 F
GS
[1 0 0 1 0 0] CT
-17.5 26 moveto 
1 -1 scale
(0.5) t 
GR
GR
GS
[0.6 0 0 0.6 679.80003 502.39999] CT
0.149 GC
/Helvetica-Bold 25 F
GS
[1 0 0 1 0 0] CT
-7 26 moveto 
1 -1 scale
(1) t 
GR
GR
GS
[0.6 0 0 0.6 756.90003 502.39999] CT
0.149 GC
/Helvetica-Bold 25 F
GS
[1 0 0 1 0 0] CT
-17.5 26 moveto 
1 -1 scale
(1.5) t 
GR
GR
GS
[0.6 0 0 0.6 834.00003 502.39999] CT
0.149 GC
/Helvetica-Bold 25 F
GS
[1 0 0 1 0 0] CT
-7 26 moveto 
1 -1 scale
(2) t 
GR
GR
GS
[0.6 0 0 0.6 646.20003 539.4] CT
0.149 GC
N
f876989070
f
GR
GS
[0.6 0 0 0.6 657.60003 539.4] CT
0.149 GC
/Helvetica-Bold 27.5 F
GS
[1 0 0 1 0 0] CT
0 0 moveto 
1 -1 scale
( [rad/s]) t 
GR
GR
GS
[0.6 0 0 0.6 0 0] CT
0.149 GC
2 setlinecap
1 LJ
0.833 LW
N
876 829 M
876 658 L
S
GR
GS
[0.6 0 0 0.6 0 0] CT
0.149 GC
2 setlinecap
1 LJ
0.833 LW
N
1390 829 M
1390 658 L
S
GR
GS
[0.6 0 0 0.6 0 0] CT
0.149 GC
2 setlinecap
1 LJ
0.833 LW
N
876 829 M
881.14 829 L
S
GR
GS
[0.6 0 0 0.6 0 0] CT
0.149 GC
2 setlinecap
1 LJ
0.833 LW
N
876 743.5 M
881.14 743.5 L
S
GR
GS
[0.6 0 0 0.6 0 0] CT
0.149 GC
2 setlinecap
1 LJ
0.833 LW
N
876 658 M
881.14 658 L
S
GR
GS
[0.6 0 0 0.6 0 0] CT
0.149 GC
2 setlinecap
1 LJ
0.833 LW
N
1390 829 M
1384.86 829 L
S
GR
GS
[0.6 0 0 0.6 0 0] CT
0.149 GC
2 setlinecap
1 LJ
0.833 LW
N
1390 743.5 M
1384.86 743.5 L
S
GR
GS
[0.6 0 0 0.6 0 0] CT
0.149 GC
2 setlinecap
1 LJ
0.833 LW
N
1390 658 M
1384.86 658 L
S
GR
GS
[0.6 0 0 0.6 520.60003 497.4] CT
0.149 GC
/Helvetica-Bold 25 F
GS
[1 0 0 1 0 0] CT
-14 10 moveto 
1 -1 scale
(1) t 
GR
GR
GS
[0.6 0 0 0.6 520.60003 446.1] CT
0.149 GC
/Helvetica-Bold 25 F
GS
[1 0 0 1 0 0] CT
-14 10 moveto 
1 -1 scale
(2) t 
GR
GR
GS
[0.6 0 0 0.6 520.60003 394.8] CT
0.149 GC
/Helvetica-Bold 25 F
GS
[1 0 0 1 0 0] CT
-14 10 moveto 
1 -1 scale
(3) t 
GR
GR
GS
[0 -0.6 0.6 0 498.60002 458.4] CT
0.149 GC
/Helvetica-Bold 27.5 F
GS
[1 0 0 1 0 0] CT
0 0 moveto 
1 -1 scale
(a) t 
GR
GR
GS
[0 -0.6 0.6 0 506.40002 448.8] CT
0.149 GC
/Helvetica-Bold 22 F
GS
[1 0 0 1 0 0] CT
0 0 moveto 
1 -1 scale
(66) t 
GR
GR
GS
[0.6 0 0 0.6 525.60002 391.2] CT
0.149 GC
N
f1086612530
f
GR
GS
[0.6 0 0 0.6 538.20002 391.2] CT
0.149 GC
/Helvetica-Bold 25 F
GS
[1 0 0 1 0 0] CT
0 0 moveto 
1 -1 scale
(10) t 
GR
GR
GS
[0.6 0 0 0.6 555.00002 384] CT
0.149 GC
/Helvetica-Bold 20 F
GS
[1 0 0 1 0 0] CT
0 0 moveto 
1 -1 scale
(7) t 
GR
GR
GS
[0.6 0 0 0.6 0 0] CT
0 0 1 RC
1 LJ
3.333 LW
N
901.7 717.168 M
913.907 716.794 L
926.115 716.26 L
938.323 715.552 L
950.53 714.646 L
962.737 713.517 L
974.945 712.135 L
987.153 710.466 L
999.36 708.476 L
1011.568 706.135 L
1023.775 703.416 L
1035.983 700.304 L
1048.19 696.802 L
1060.397 692.944 L
1072.605 688.803 L
1084.813 684.51 L
1097.02 680.279 L
1109.228 676.415 L
1121.435 673.335 L
1133.642 671.542 L
1145.85 671.581 L
1158.057 673.926 L
1170.265 678.845 L
1182.473 686.267 L
1194.68 695.734 L
1206.887 706.495 L
1219.095 717.684 L
1231.302 728.538 L
1243.51 738.53 L
1255.718 747.418 L
1267.925 755.204 L
1280.132 762.052 L
1292.34 768.199 L
1304.547 773.862 L
1316.755 779.173 L
1328.963 784.147 L
1341.17 788.703 L
1353.377 792.725 L
1365.585 796.13 L
1377.792 798.916 L
1390 801.164 L
S
GR
GS
[0.6 0 0 0.6 0 0] CT
1 0 0 RC
[12 12] 0 setdash
2 LJ
3.333 LW
N
901.7 717.542 M
913.907 717.173 L
926.115 716.638 L
938.323 715.93 L
950.53 715.012 L
962.737 713.881 L
974.945 712.496 L
987.153 710.819 L
999.36 708.82 L
1011.568 706.459 L
1023.775 703.722 L
1035.983 700.594 L
1048.19 697.077 L
1060.397 693.188 L
1072.605 689.036 L
1084.813 684.698 L
1097.02 680.443 L
1109.228 676.52 L
1121.435 673.406 L
1133.642 671.549 L
1145.85 671.551 L
1158.057 673.867 L
1170.265 678.762 L
1182.473 686.203 L
1194.68 695.702 L
1206.887 706.511 L
1219.095 717.763 L
1231.302 728.671 L
1243.51 738.688 L
1255.718 747.604 L
1267.925 755.401 L
1280.132 762.224 L
1292.34 768.361 L
1304.547 774.025 L
1316.755 779.359 L
1328.963 784.346 L
1341.17 788.947 L
1353.377 793.033 L
1365.585 796.5 L
1377.792 799.337 L
1390 801.626 L
S
GR
%%Trailer
%%Pages: 1
%%EOF
