%!PS-Adobe-3.0 EPSF-3.0
%%Creator: (MATLAB, The Mathworks, Inc. Version 9.10.0.1739362 \(R2021a\) Update 5. Operating System: Windows 10)
%%Title: (C:/Users/rkurnia/Documents/2. publication/202211 NEMOH MANUAL/figures/Cylinder/dampcoef.eps)
%%CreationDate: 2022-11-24T09:51:28
%%Pages: (atend)
%%BoundingBox:     0     0   922   576
%%LanguageLevel: 3
%%EndComments
%%BeginProlog
%%BeginResource: procset (Apache XML Graphics Std ProcSet) 1.2 0
%%Version: 1.2 0
%%Copyright: (Copyright 2001-2003,2010 The Apache Software Foundation. License terms: http://www.apache.org/licenses/LICENSE-2.0)
/bd{bind def}bind def
/ld{load def}bd
/GR/grestore ld
/GS/gsave ld
/RM/rmoveto ld
/C/curveto ld
/t/show ld
/L/lineto ld
/ML/setmiterlimit ld
/CT/concat ld
/f/fill ld
/N/newpath ld
/S/stroke ld
/CC/setcmykcolor ld
/A/ashow ld
/cp/closepath ld
/RC/setrgbcolor ld
/LJ/setlinejoin ld
/GC/setgray ld
/LW/setlinewidth ld
/M/moveto ld
/re {4 2 roll M
1 index 0 rlineto
0 exch rlineto
neg 0 rlineto
cp } bd
/_ctm matrix def
/_tm matrix def
/BT { _ctm currentmatrix pop matrix _tm copy pop 0 0 moveto } bd
/ET { _ctm setmatrix } bd
/iTm { _ctm setmatrix _tm concat } bd
/Tm { _tm astore pop iTm 0 0 moveto } bd
/ux 0.0 def
/uy 0.0 def
/F {
  /Tp exch def
  /Tf exch def
  Tf findfont Tp scalefont setfont
  /cf Tf def  /cs Tp def
} bd
/ULS {currentpoint /uy exch def /ux exch def} bd
/ULE {
  /Tcx currentpoint pop def
  gsave
  newpath
  cf findfont cs scalefont dup
  /FontMatrix get 0 get /Ts exch def /FontInfo get dup
  /UnderlinePosition get Ts mul /To exch def
  /UnderlineThickness get Ts mul /Tt exch def
  ux uy To add moveto  Tcx uy To add lineto
  Tt setlinewidth stroke
  grestore
} bd
/OLE {
  /Tcx currentpoint pop def
  gsave
  newpath
  cf findfont cs scalefont dup
  /FontMatrix get 0 get /Ts exch def /FontInfo get dup
  /UnderlinePosition get Ts mul /To exch def
  /UnderlineThickness get Ts mul /Tt exch def
  ux uy To add cs add moveto Tcx uy To add cs add lineto
  Tt setlinewidth stroke
  grestore
} bd
/SOE {
  /Tcx currentpoint pop def
  gsave
  newpath
  cf findfont cs scalefont dup
  /FontMatrix get 0 get /Ts exch def /FontInfo get dup
  /UnderlinePosition get Ts mul /To exch def
  /UnderlineThickness get Ts mul /Tt exch def
  ux uy To add cs 10 mul 26 idiv add moveto Tcx uy To add cs 10 mul 26 idiv add lineto
  Tt setlinewidth stroke
  grestore
} bd
/QT {
/Y22 exch store
/X22 exch store
/Y21 exch store
/X21 exch store
currentpoint
/Y21 load 2 mul add 3 div exch
/X21 load 2 mul add 3 div exch
/X21 load 2 mul /X22 load add 3 div
/Y21 load 2 mul /Y22 load add 3 div
/X22 load /Y22 load curveto
} bd
/SSPD {
dup length /d exch dict def
{
/v exch def
/k exch def
currentpagedevice k known {
/cpdv currentpagedevice k get def
v cpdv ne {
/upd false def
/nullv v type /nulltype eq def
/nullcpdv cpdv type /nulltype eq def
nullv nullcpdv or
{
/upd true def
} {
/sametype v type cpdv type eq def
sametype {
v type /arraytype eq {
/vlen v length def
/cpdvlen cpdv length def
vlen cpdvlen eq {
0 1 vlen 1 sub {
/i exch def
/obj v i get def
/cpdobj cpdv i get def
obj cpdobj ne {
/upd true def
exit
} if
} for
} {
/upd true def
} ifelse
} {
v type /dicttype eq {
v {
/dv exch def
/dk exch def
/cpddv cpdv dk get def
dv cpddv ne {
/upd true def
exit
} if
} forall
} {
/upd true def
} ifelse
} ifelse
} if
} ifelse
upd true eq {
d k v put
} if
} if
} if
} forall
d length 0 gt {
d setpagedevice
} if
} bd
/RE { % /NewFontName [NewEncodingArray] /FontName RE -
  findfont dup length dict begin
  {
    1 index /FID ne
    {def} {pop pop} ifelse
  } forall
  /Encoding exch def
  /FontName 1 index def
  currentdict definefont pop
  end
} bind def
%%EndResource
%%BeginResource: procset (Apache XML Graphics EPS ProcSet) 1.0 0
%%Version: 1.0 0
%%Copyright: (Copyright 2002-2003 The Apache Software Foundation. License terms: http://www.apache.org/licenses/LICENSE-2.0)
/BeginEPSF { %def
/b4_Inc_state save def         % Save state for cleanup
/dict_count countdictstack def % Count objects on dict stack
/op_count count 1 sub def      % Count objects on operand stack
userdict begin                 % Push userdict on dict stack
/showpage { } def              % Redefine showpage, { } = null proc
0 setgray 0 setlinecap         % Prepare graphics state
1 setlinewidth 0 setlinejoin
10 setmiterlimit [ ] 0 setdash newpath
/languagelevel where           % If level not equal to 1 then
{pop languagelevel             % set strokeadjust and
1 ne                           % overprint to their defaults.
{false setstrokeadjust false setoverprint
} if
} if
} bd
/EndEPSF { %def
count op_count sub {pop} repeat            % Clean up stacks
countdictstack dict_count sub {end} repeat
b4_Inc_state restore
} bd
%%EndResource
%FOPBeginFontDict
%%IncludeResource: font Courier-Oblique
%%IncludeResource: font Courier-BoldOblique
%%IncludeResource: font Courier-Bold
%%IncludeResource: font ZapfDingbats
%%IncludeResource: font Symbol
%%IncludeResource: font Helvetica
%%IncludeResource: font Helvetica-Oblique
%%IncludeResource: font Helvetica-Bold
%%IncludeResource: font Helvetica-BoldOblique
%%IncludeResource: font Times-Roman
%%IncludeResource: font Times-Italic
%%IncludeResource: font Times-Bold
%%IncludeResource: font Times-BoldItalic
%%IncludeResource: font Courier
%FOPEndFontDict
%%BeginResource: encoding WinAnsiEncoding
/WinAnsiEncoding [
/.notdef /.notdef /.notdef /.notdef /.notdef
/.notdef /.notdef /.notdef /.notdef /.notdef
/.notdef /.notdef /.notdef /.notdef /.notdef
/.notdef /.notdef /.notdef /.notdef /.notdef
/.notdef /.notdef /.notdef /.notdef /.notdef
/.notdef /.notdef /.notdef /.notdef /.notdef
/.notdef /.notdef /space /exclam /quotedbl
/numbersign /dollar /percent /ampersand /quotesingle
/parenleft /parenright /asterisk /plus /comma
/hyphen /period /slash /zero /one
/two /three /four /five /six
/seven /eight /nine /colon /semicolon
/less /equal /greater /question /at
/A /B /C /D /E
/F /G /H /I /J
/K /L /M /N /O
/P /Q /R /S /T
/U /V /W /X /Y
/Z /bracketleft /backslash /bracketright /asciicircum
/underscore /quoteleft /a /b /c
/d /e /f /g /h
/i /j /k /l /m
/n /o /p /q /r
/s /t /u /v /w
/x /y /z /braceleft /bar
/braceright /asciitilde /bullet /Euro /bullet
/quotesinglbase /florin /quotedblbase /ellipsis /dagger
/daggerdbl /circumflex /perthousand /Scaron /guilsinglleft
/OE /bullet /Zcaron /bullet /bullet
/quoteleft /quoteright /quotedblleft /quotedblright /bullet
/endash /emdash /asciitilde /trademark /scaron
/guilsinglright /oe /bullet /zcaron /Ydieresis
/space /exclamdown /cent /sterling /currency
/yen /brokenbar /section /dieresis /copyright
/ordfeminine /guillemotleft /logicalnot /sfthyphen /registered
/macron /degree /plusminus /twosuperior /threesuperior
/acute /mu /paragraph /middot /cedilla
/onesuperior /ordmasculine /guillemotright /onequarter /onehalf
/threequarters /questiondown /Agrave /Aacute /Acircumflex
/Atilde /Adieresis /Aring /AE /Ccedilla
/Egrave /Eacute /Ecircumflex /Edieresis /Igrave
/Iacute /Icircumflex /Idieresis /Eth /Ntilde
/Ograve /Oacute /Ocircumflex /Otilde /Odieresis
/multiply /Oslash /Ugrave /Uacute /Ucircumflex
/Udieresis /Yacute /Thorn /germandbls /agrave
/aacute /acircumflex /atilde /adieresis /aring
/ae /ccedilla /egrave /eacute /ecircumflex
/edieresis /igrave /iacute /icircumflex /idieresis
/eth /ntilde /ograve /oacute /ocircumflex
/otilde /odieresis /divide /oslash /ugrave
/uacute /ucircumflex /udieresis /yacute /thorn
/ydieresis
] def
%%EndResource
%FOPBeginFontReencode
/Courier-Oblique findfont
dup length dict begin
  {1 index /FID ne {def} {pop pop} ifelse} forall
  /Encoding WinAnsiEncoding def
  currentdict
end
/Courier-Oblique exch definefont pop
/Courier-BoldOblique findfont
dup length dict begin
  {1 index /FID ne {def} {pop pop} ifelse} forall
  /Encoding WinAnsiEncoding def
  currentdict
end
/Courier-BoldOblique exch definefont pop
/Courier-Bold findfont
dup length dict begin
  {1 index /FID ne {def} {pop pop} ifelse} forall
  /Encoding WinAnsiEncoding def
  currentdict
end
/Courier-Bold exch definefont pop
/Helvetica findfont
dup length dict begin
  {1 index /FID ne {def} {pop pop} ifelse} forall
  /Encoding WinAnsiEncoding def
  currentdict
end
/Helvetica exch definefont pop
/Helvetica-Oblique findfont
dup length dict begin
  {1 index /FID ne {def} {pop pop} ifelse} forall
  /Encoding WinAnsiEncoding def
  currentdict
end
/Helvetica-Oblique exch definefont pop
/Helvetica-Bold findfont
dup length dict begin
  {1 index /FID ne {def} {pop pop} ifelse} forall
  /Encoding WinAnsiEncoding def
  currentdict
end
/Helvetica-Bold exch definefont pop
/Helvetica-BoldOblique findfont
dup length dict begin
  {1 index /FID ne {def} {pop pop} ifelse} forall
  /Encoding WinAnsiEncoding def
  currentdict
end
/Helvetica-BoldOblique exch definefont pop
/Times-Roman findfont
dup length dict begin
  {1 index /FID ne {def} {pop pop} ifelse} forall
  /Encoding WinAnsiEncoding def
  currentdict
end
/Times-Roman exch definefont pop
/Times-Italic findfont
dup length dict begin
  {1 index /FID ne {def} {pop pop} ifelse} forall
  /Encoding WinAnsiEncoding def
  currentdict
end
/Times-Italic exch definefont pop
/Times-Bold findfont
dup length dict begin
  {1 index /FID ne {def} {pop pop} ifelse} forall
  /Encoding WinAnsiEncoding def
  currentdict
end
/Times-Bold exch definefont pop
/Times-BoldItalic findfont
dup length dict begin
  {1 index /FID ne {def} {pop pop} ifelse} forall
  /Encoding WinAnsiEncoding def
  currentdict
end
/Times-BoldItalic exch definefont pop
/Courier findfont
dup length dict begin
  {1 index /FID ne {def} {pop pop} ifelse} forall
  /Encoding WinAnsiEncoding def
  currentdict
end
/Courier exch definefont pop
%FOPEndFontReencode
%%EndProlog
%%Page: 1 1
%%PageBoundingBox: 0 0 922 576
%%BeginPageSetup
[1 0 0 -1 0 576] CT
%%EndPageSetup
GS
[0.6 0 0 0.6 0 0] CT
1 GC
N
0 0 1536 960 re
f
GR
GS
[0.6 0 0 0.6 0 0] CT
1 GC
N
0 0 1536 960 re
f
GR
GS
[0.6 0 0 0.6 0 0] CT
1 GC
N
200 254 M
714 254 L
714 82 L
200 82 L
cp
f
GR
GS
[0.6 0 0 0.6 0 0] CT
0.149 GC
2 setlinecap
1 LJ
0.833 LW
N
200 254 M
714 254 L
S
GR
GS
[0.6 0 0 0.6 0 0] CT
0.149 GC
2 setlinecap
1 LJ
0.833 LW
N
200 82 M
714 82 L
S
GR
GS
[0.6 0 0 0.6 0 0] CT
0.149 GC
2 setlinecap
1 LJ
0.833 LW
N
200 254 M
200 248.86 L
S
GR
GS
[0.6 0 0 0.6 0 0] CT
0.149 GC
2 setlinecap
1 LJ
0.833 LW
N
281.847 254 M
281.847 248.86 L
S
GR
GS
[0.6 0 0 0.6 0 0] CT
0.149 GC
2 setlinecap
1 LJ
0.833 LW
N
363.694 254 M
363.694 248.86 L
S
GR
GS
[0.6 0 0 0.6 0 0] CT
0.149 GC
2 setlinecap
1 LJ
0.833 LW
N
445.541 254 M
445.541 248.86 L
S
GR
GS
[0.6 0 0 0.6 0 0] CT
0.149 GC
2 setlinecap
1 LJ
0.833 LW
N
527.389 254 M
527.389 248.86 L
S
GR
GS
[0.6 0 0 0.6 0 0] CT
0.149 GC
2 setlinecap
1 LJ
0.833 LW
N
609.236 254 M
609.236 248.86 L
S
GR
GS
[0.6 0 0 0.6 0 0] CT
0.149 GC
2 setlinecap
1 LJ
0.833 LW
N
691.083 254 M
691.083 248.86 L
S
GR
GS
[0.6 0 0 0.6 0 0] CT
0.149 GC
2 setlinecap
1 LJ
0.833 LW
N
200 82 M
200 87.14 L
S
GR
GS
[0.6 0 0 0.6 0 0] CT
0.149 GC
2 setlinecap
1 LJ
0.833 LW
N
281.847 82 M
281.847 87.14 L
S
GR
GS
[0.6 0 0 0.6 0 0] CT
0.149 GC
2 setlinecap
1 LJ
0.833 LW
N
363.694 82 M
363.694 87.14 L
S
GR
GS
[0.6 0 0 0.6 0 0] CT
0.149 GC
2 setlinecap
1 LJ
0.833 LW
N
445.541 82 M
445.541 87.14 L
S
GR
GS
[0.6 0 0 0.6 0 0] CT
0.149 GC
2 setlinecap
1 LJ
0.833 LW
N
527.389 82 M
527.389 87.14 L
S
GR
GS
[0.6 0 0 0.6 0 0] CT
0.149 GC
2 setlinecap
1 LJ
0.833 LW
N
609.236 82 M
609.236 87.14 L
S
GR
GS
[0.6 0 0 0.6 0 0] CT
0.149 GC
2 setlinecap
1 LJ
0.833 LW
N
691.083 82 M
691.083 87.14 L
S
GR
GS
[0.6 0 0 0.6 120 157.40001] CT
0.149 GC
/Helvetica-Bold 25 F
GS
[1 0 0 1 0 0] CT
-7 26 moveto 
1 -1 scale
(0) t 
GR
GR
GS
[0.6 0 0 0.6 169.10829 157.40001] CT
0.149 GC
/Helvetica-Bold 25 F
GS
[1 0 0 1 0 0] CT
-7 26 moveto 
1 -1 scale
(1) t 
GR
GR
GS
[0.6 0 0 0.6 218.21657 157.40001] CT
0.149 GC
/Helvetica-Bold 25 F
GS
[1 0 0 1 0 0] CT
-7 26 moveto 
1 -1 scale
(2) t 
GR
GR
GS
[0.6 0 0 0.6 267.32486 157.40001] CT
0.149 GC
/Helvetica-Bold 25 F
GS
[1 0 0 1 0 0] CT
-7 26 moveto 
1 -1 scale
(3) t 
GR
GR
GS
[0.6 0 0 0.6 316.43314 157.40001] CT
0.149 GC
/Helvetica-Bold 25 F
GS
[1 0 0 1 0 0] CT
-7 26 moveto 
1 -1 scale
(4) t 
GR
GR
GS
[0.6 0 0 0.6 365.54141 157.40001] CT
0.149 GC
/Helvetica-Bold 25 F
GS
[1 0 0 1 0 0] CT
-7 26 moveto 
1 -1 scale
(5) t 
GR
GR
GS
[0.6 0 0 0.6 414.64971 157.40001] CT
0.149 GC
/Helvetica-Bold 25 F
GS
[1 0 0 1 0 0] CT
-7 26 moveto 
1 -1 scale
(6) t 
GR
GR
GS
[0.6 0 0 0.6 240.60001 194.4] CT
0.149 GC
N
4.391 0.313 M
2.813 0.313 2.102 -0.852 QT
1.391 -2.016 1.391 -3.688 QT
1.391 -4.797 1.594 -5.859 QT
1.797 -6.922 2.195 -8.008 QT
2.594 -9.094 3.117 -10.047 QT
3.641 -11 4.281 -11.891 QT
4.406 -12.078 4.609 -12.078 QT
5.781 -12.078 5.891 -11.969 QT
6 -11.859 6 -11.703 QT
6 -11.547 5.922 -11.438 QT
3.375 -7.922 3.375 -4.953 QT
3.375 -3.672 3.969 -2.742 QT
4.563 -1.813 4.781 -1.813 QT
5.828 -1.813 6.727 -2.43 QT
7.625 -3.047 8.281 -4 QT
8.281 -4.5 8.445 -5.539 QT
8.609 -6.578 8.977 -7.391 QT
9.344 -8.203 9.844 -8.203 QT
11.484 -8.203 11.484 -7.453 QT
11.484 -7.016 11.305 -6.352 QT
11.125 -5.688 10.898 -5.117 QT
10.672 -4.547 10.344 -3.813 QT
10.672 -1.813 11.344 -1.813 QT
12.313 -1.813 13.289 -2.375 QT
14.266 -2.938 15.016 -3.852 QT
15.766 -4.766 16.195 -5.813 QT
16.625 -6.859 16.625 -7.813 QT
16.625 -8.656 16.359 -9.125 QT
16.094 -9.594 15.656 -10.117 QT
15.219 -10.641 15.219 -10.953 QT
15.219 -11.5 15.688 -11.953 QT
16.156 -12.406 16.688 -12.406 QT
18.359 -12.406 18.648 -11.781 QT
18.938 -11.156 18.938 -10.359 QT
18.938 -9.078 18.43 -7.125 QT
17.922 -5.172 17.266 -3.875 QT
16.359 -2.109 15 -0.898 QT
13.641 0.313 10.938 0.313 QT
9.859 0.313 9.195 -0.336 QT
8.531 -0.984 8.531 -0.984 QT
8.531 -0.984 7.547 -0.336 QT
6.563 0.313 4.391 0.313 QT
cp
f
GR
GS
[0.6 0 0 0.6 252.00001 194.4] CT
0.149 GC
/Helvetica-Bold 27.5 F
GS
[1 0 0 1 0 0] CT
0 0 moveto 
1 -1 scale
( [rad/s]) t 
GR
GR
GS
[0.6 0 0 0.6 0 0] CT
0.149 GC
2 setlinecap
1 LJ
0.833 LW
N
200 254 M
200 82 L
S
GR
GS
[0.6 0 0 0.6 0 0] CT
0.149 GC
2 setlinecap
1 LJ
0.833 LW
N
714 254 M
714 82 L
S
GR
GS
[0.6 0 0 0.6 0 0] CT
0.149 GC
2 setlinecap
1 LJ
0.833 LW
N
200 243.763 M
205.14 243.763 L
S
GR
GS
[0.6 0 0 0.6 0 0] CT
0.149 GC
2 setlinecap
1 LJ
0.833 LW
N
200 169.193 M
205.14 169.193 L
S
GR
GS
[0.6 0 0 0.6 0 0] CT
0.149 GC
2 setlinecap
1 LJ
0.833 LW
N
200 94.623 M
205.14 94.623 L
S
GR
GS
[0.6 0 0 0.6 0 0] CT
0.149 GC
2 setlinecap
1 LJ
0.833 LW
N
714 243.763 M
708.86 243.763 L
S
GR
GS
[0.6 0 0 0.6 0 0] CT
0.149 GC
2 setlinecap
1 LJ
0.833 LW
N
714 169.193 M
708.86 169.193 L
S
GR
GS
[0.6 0 0 0.6 0 0] CT
0.149 GC
2 setlinecap
1 LJ
0.833 LW
N
714 94.623 M
708.86 94.623 L
S
GR
GS
[0.6 0 0 0.6 115.00001 146.25764] CT
0.149 GC
/Helvetica-Bold 25 F
GS
[1 0 0 1 0 0] CT
-14 10 moveto 
1 -1 scale
(0) t 
GR
GR
GS
[0.6 0 0 0.6 115.00001 101.5156] CT
0.149 GC
/Helvetica-Bold 25 F
GS
[1 0 0 1 0 0] CT
-14 10 moveto 
1 -1 scale
(5) t 
GR
GR
GS
[0.6 0 0 0.6 115.00001 56.77357] CT
0.149 GC
/Helvetica-Bold 25 F
GS
[1 0 0 1 0 0] CT
-28 10 moveto 
1 -1 scale
(10) t 
GR
GR
GS
[0 -0.6 0.6 0 84.6 113.4] CT
0.149 GC
/Helvetica-Bold 27.5 F
GS
[1 0 0 1 0 0] CT
0 0 moveto 
1 -1 scale
(b) t 
GR
GR
GS
[0 -0.6 0.6 0 92.4 103.2] CT
0.149 GC
/Helvetica-Bold 22 F
GS
[1 0 0 1 0 0] CT
0 0 moveto 
1 -1 scale
(11) t 
GR
GR
GS
[0.6 0 0 0.6 120 45.6] CT
0.149 GC
N
3.672 -0.719 M
3.672 -0.922 3.797 -1.078 QT
9 -6.25 L
3.797 -11.453 L
3.672 -11.578 3.672 -11.781 QT
3.672 -11.969 3.82 -12.125 QT
3.969 -12.281 4.172 -12.281 QT
5.344 -12.281 5.547 -12.125 QT
10.219 -7.453 L
14.875 -12.125 L
15.094 -12.281 15.25 -12.281 QT
16.453 -12.281 16.602 -12.133 QT
16.75 -11.984 16.75 -11.781 QT
16.75 -11.578 16.625 -11.453 QT
11.422 -6.25 L
16.625 -1.078 L
16.75 -0.922 16.75 -0.719 QT
16.75 -0.516 16.602 -0.367 QT
16.453 -0.219 15.25 -0.219 QT
15.063 -0.219 14.875 -0.406 QT
10.219 -5.047 L
5.547 -0.406 L
5.375 -0.219 4.172 -0.219 QT
3.969 -0.219 3.82 -0.375 QT
3.672 -0.531 3.672 -0.719 QT
cp
f
GR
GS
[0.6 0 0 0.6 132.60001 45.6] CT
0.149 GC
/Helvetica-Bold 25 F
GS
[1 0 0 1 0 0] CT
0 0 moveto 
1 -1 scale
(10) t 
GR
GR
GS
[0.6 0 0 0.6 149.40001 38.4] CT
0.149 GC
/Helvetica-Bold 20 F
GS
[1 0 0 1 0 0] CT
0 0 moveto 
1 -1 scale
(5) t 
GR
GR
GS
[0.6 0 0 0.6 0 0] CT
0 0 1 RC
1 LJ
3.333 LW
N
205.14 243.763 M
210.28 243.763 L
215.42 243.76 L
220.56 243.743 L
225.7 243.674 L
230.84 243.458 L
235.98 242.913 L
241.12 241.719 L
246.26 239.391 L
251.4 235.251 L
256.54 228.459 L
261.68 218.128 L
266.82 203.57 L
271.96 184.687 L
277.1 162.388 L
282.24 138.755 L
287.38 116.668 L
292.52 98.917 L
297.66 87.273 L
302.8 82.149 L
307.94 82.736 L
313.08 87.677 L
318.22 95.522 L
323.36 105.013 L
328.5 115.219 L
333.64 125.488 L
338.78 135.411 L
343.92 144.753 L
349.06 153.396 L
354.2 161.3 L
359.34 168.473 L
364.48 174.953 L
369.62 180.79 L
374.76 186.041 L
379.9 190.764 L
385.04 195.015 L
390.18 198.847 L
395.32 202.308 L
400.46 205.44 L
405.6 208.284 L
410.74 210.873 L
415.88 213.239 L
421.02 215.408 L
426.16 217.406 L
431.3 219.256 L
436.44 220.977 L
441.58 222.588 L
446.72 224.109 L
451.86 225.556 L
457 226.948 L
462.14 228.302 L
467.28 229.643 L
472.42 230.994 L
477.56 232.387 L
482.7 233.867 L
487.84 235.494 L
492.98 237.356 L
498.12 239.587 L
503.26 242.381 L
508.4 245.964 L
513.54 250.328 L
518.68 254 L
523.82 252.751 L
528.96 247.205 L
534.1 242.823 L
539.24 240.786 L
544.38 240.504 L
549.52 242.721 L
554.66 240.772 L
559.8 234.794 L
564.94 236.4 L
570.08 237.569 L
575.22 238.907 L
580.36 241.27 L
585.5 249.111 L
590.64 235.858 L
595.78 238.372 L
600.92 240.054 L
606.06 241.984 L
611.2 242.939 L
616.34 239.259 L
621.48 240.189 L
626.62 241.355 L
631.76 242.657 L
636.9 243.622 L
642.04 242.976 L
647.18 242.282 L
652.32 242.897 L
657.46 243.396 L
662.6 243.461 L
667.74 243.232 L
672.88 243.071 L
678.02 243.058 L
683.16 243.09 L
688.3 243.094 L
693.44 242.974 L
698.58 243.011 L
703.72 242.691 L
708.86 242.639 L
714 243.176 L
S
GR
GS
[0.6 0 0 0.6 0 0] CT
1 0 0 RC
[12 12] 0 setdash
2 LJ
3.333 LW
N
205.14 243.763 M
210.28 243.763 L
215.42 243.76 L
220.56 243.743 L
225.7 243.674 L
230.84 243.459 L
235.98 242.914 L
241.12 241.725 L
246.26 239.409 L
251.4 235.3 L
256.54 228.582 L
261.68 218.407 L
266.82 204.15 L
271.96 185.782 L
277.1 164.255 L
282.24 141.613 L
287.38 120.587 L
292.52 103.74 L
297.66 92.652 L
302.8 87.607 L
307.94 87.862 L
313.08 92.148 L
318.22 99.146 L
323.36 107.707 L
328.5 116.975 L
333.64 126.359 L
338.78 135.468 L
343.92 144.085 L
349.06 152.103 L
354.2 159.473 L
359.34 166.195 L
364.48 172.297 L
369.62 177.821 L
374.76 182.808 L
379.9 187.3 L
385.04 191.333 L
390.18 194.959 L
395.32 198.219 L
400.46 201.149 L
405.6 203.782 L
410.74 206.164 L
415.88 208.334 L
421.02 210.328 L
426.16 212.172 L
431.3 213.89 L
436.44 215.495 L
441.58 216.999 L
446.72 218.405 L
451.86 219.711 L
457 220.911 L
462.14 222.004 L
467.28 222.997 L
472.42 223.9 L
477.56 224.73 L
482.7 225.501 L
487.84 226.239 L
492.98 226.958 L
498.12 227.664 L
503.26 228.359 L
508.4 229.03 L
513.54 229.671 L
518.68 230.27 L
523.82 230.815 L
528.96 231.308 L
534.1 231.762 L
539.24 232.197 L
544.38 232.63 L
549.52 233.071 L
554.66 233.522 L
559.8 233.982 L
564.94 234.43 L
570.08 234.846 L
575.22 235.222 L
580.36 235.569 L
585.5 235.902 L
590.64 236.24 L
595.78 236.596 L
600.92 236.977 L
606.06 237.38 L
611.2 237.785 L
616.34 238.175 L
621.48 238.55 L
626.62 238.935 L
631.76 239.353 L
636.9 239.744 L
642.04 240.098 L
647.18 239.88 L
652.32 240.336 L
657.46 240.503 L
662.6 241.086 L
667.74 241.539 L
672.88 241.449 L
678.02 240.932 L
683.16 241.259 L
688.3 241.68 L
693.44 241.863 L
698.58 242.138 L
703.72 242.477 L
708.86 242.731 L
714 242.581 L
S
GR
GS
[0.6 0 0 0.6 0 0] CT
0 1 0 RC
[12 3 6 3] 0 setdash
2 LJ
3.333 LW
N
205.14 243.763 M
210.28 243.763 L
215.42 243.76 L
220.56 243.743 L
225.7 243.674 L
230.84 243.458 L
235.98 242.912 L
241.12 241.718 L
246.26 239.388 L
251.4 235.245 L
256.54 228.449 L
261.68 218.114 L
266.82 203.553 L
271.96 184.67 L
277.1 162.372 L
282.24 138.739 L
287.38 116.644 L
292.52 98.871 L
297.66 87.195 L
302.8 82 L
307.94 82.516 L
313.08 87.381 L
318.22 95.152 L
323.36 104.579 L
328.5 114.732 L
333.64 124.966 L
338.78 134.866 L
343.92 144.21 L
349.06 152.882 L
354.2 160.839 L
359.34 168.096 L
364.48 174.691 L
369.62 180.684 L
374.76 186.135 L
379.9 191.114 L
385.04 195.722 L
390.18 200.133 L
395.32 204.783 L
400.46 212.004 L
405.6 214.787 L
410.74 205.608 L
415.88 209.861 L
421.02 212.8 L
426.16 215.237 L
431.3 217.408 L
436.44 219.426 L
441.58 221.305 L
446.72 223.138 L
451.86 224.962 L
457 226.884 L
462.14 229.107 L
467.28 232.176 L
472.42 239.129 L
477.56 244.024 L
482.7 225.059 L
487.84 227.015 L
492.98 228.862 L
498.12 230.451 L
503.26 231.967 L
508.4 233.453 L
513.54 235.054 L
518.68 237.139 L
523.82 240.207 L
528.96 245.631 L
534.1 244.347 L
539.24 232.252 L
544.38 232.554 L
549.52 234.226 L
554.66 235.85 L
559.8 237.55 L
564.94 239.501 L
570.08 242.033 L
575.22 245.592 L
580.36 247.07 L
585.5 238.069 L
590.64 235.341 L
595.78 236.503 L
600.92 238.25 L
606.06 240.204 L
611.2 242.529 L
616.34 245.299 L
621.48 246.951 L
626.62 241.979 L
631.76 237.726 L
636.9 238.05 L
642.04 239.719 L
647.18 241.791 L
652.32 244.159 L
657.46 246.228 L
662.6 245.12 L
667.74 240.591 L
672.88 239.133 L
678.02 240.222 L
683.16 242.132 L
688.3 244.282 L
693.44 245.841 L
698.58 244.664 L
703.72 241.377 L
708.86 240.352 L
714 241.417 L
S
GR
GS
[0.6 0 0 0.6 0 0] CT
1 GC
N
701 184 M
701 94 L
398 94 L
398 184 L
cp
f
GR
GS
[0.6 0 0 0.6 274.07912 66.27258] CT
/Helvetica-Bold 22.5 F
GS
[1 0 0 1 0 0] CT
0 9 moveto 
1 -1 scale
(HYDROSTAR with IRR) t 
GR
GR
GS
[0.6 0 0 0.6 0 0] CT
0 0 1 RC
1 LJ
3.333 LW
N
403.004 110.454 M
453.045 110.454 L
S
GR
GS
[0.6 0 0 0.6 274.07912 83.4] CT
/Helvetica-Bold 22.5 F
GS
[1 0 0 1 0 0] CT
0 9 moveto 
1 -1 scale
(NEMOH with IRR) t 
GR
GR
GS
[0.6 0 0 0.6 0 0] CT
1 0 0 RC
[12 12] 0 setdash
2 LJ
3.333 LW
N
403.004 139 M
453.045 139 L
S
GR
GS
[0.6 0 0 0.6 274.07912 100.52742] CT
/Helvetica-Bold 22.5 F
GS
[1 0 0 1 0 0] CT
0 9 moveto 
1 -1 scale
(NEMOH wihout IRR) t 
GR
GR
GS
[0.6 0 0 0.6 0 0] CT
0 1 0 RC
[12 3 6 3] 0 setdash
2 LJ
3.333 LW
N
403.004 167.546 M
453.045 167.546 L
S
GR
GS
[0.6 0 0 0.6 0 0] CT
0.149 GC
10.0 ML
0.833 LW
N
398 184 M
398 94 L
701 94 L
701 184 L
cp
S
GR
GS
[0.6 0 0 0.6 0 0] CT
1 GC
N
876 254 M
1390 254 L
1390 82 L
876 82 L
cp
f
GR
GS
[0.6 0 0 0.6 0 0] CT
0.149 GC
2 setlinecap
1 LJ
0.833 LW
N
876 254 M
1390 254 L
S
GR
GS
[0.6 0 0 0.6 0 0] CT
0.149 GC
2 setlinecap
1 LJ
0.833 LW
N
876 82 M
1390 82 L
S
GR
GS
[0.6 0 0 0.6 0 0] CT
0.149 GC
2 setlinecap
1 LJ
0.833 LW
N
876 254 M
876 248.86 L
S
GR
GS
[0.6 0 0 0.6 0 0] CT
0.149 GC
2 setlinecap
1 LJ
0.833 LW
N
957.847 254 M
957.847 248.86 L
S
GR
GS
[0.6 0 0 0.6 0 0] CT
0.149 GC
2 setlinecap
1 LJ
0.833 LW
N
1039.694 254 M
1039.694 248.86 L
S
GR
GS
[0.6 0 0 0.6 0 0] CT
0.149 GC
2 setlinecap
1 LJ
0.833 LW
N
1121.541 254 M
1121.541 248.86 L
S
GR
GS
[0.6 0 0 0.6 0 0] CT
0.149 GC
2 setlinecap
1 LJ
0.833 LW
N
1203.389 254 M
1203.389 248.86 L
S
GR
GS
[0.6 0 0 0.6 0 0] CT
0.149 GC
2 setlinecap
1 LJ
0.833 LW
N
1285.236 254 M
1285.236 248.86 L
S
GR
GS
[0.6 0 0 0.6 0 0] CT
0.149 GC
2 setlinecap
1 LJ
0.833 LW
N
1367.083 254 M
1367.083 248.86 L
S
GR
GS
[0.6 0 0 0.6 0 0] CT
0.149 GC
2 setlinecap
1 LJ
0.833 LW
N
876 82 M
876 87.14 L
S
GR
GS
[0.6 0 0 0.6 0 0] CT
0.149 GC
2 setlinecap
1 LJ
0.833 LW
N
957.847 82 M
957.847 87.14 L
S
GR
GS
[0.6 0 0 0.6 0 0] CT
0.149 GC
2 setlinecap
1 LJ
0.833 LW
N
1039.694 82 M
1039.694 87.14 L
S
GR
GS
[0.6 0 0 0.6 0 0] CT
0.149 GC
2 setlinecap
1 LJ
0.833 LW
N
1121.541 82 M
1121.541 87.14 L
S
GR
GS
[0.6 0 0 0.6 0 0] CT
0.149 GC
2 setlinecap
1 LJ
0.833 LW
N
1203.389 82 M
1203.389 87.14 L
S
GR
GS
[0.6 0 0 0.6 0 0] CT
0.149 GC
2 setlinecap
1 LJ
0.833 LW
N
1285.236 82 M
1285.236 87.14 L
S
GR
GS
[0.6 0 0 0.6 0 0] CT
0.149 GC
2 setlinecap
1 LJ
0.833 LW
N
1367.083 82 M
1367.083 87.14 L
S
GR
GS
[0.6 0 0 0.6 525.60002 157.40001] CT
0.149 GC
/Helvetica-Bold 25 F
GS
[1 0 0 1 0 0] CT
-7 26 moveto 
1 -1 scale
(0) t 
GR
GR
GS
[0.6 0 0 0.6 574.70829 157.40001] CT
0.149 GC
/Helvetica-Bold 25 F
GS
[1 0 0 1 0 0] CT
-7 26 moveto 
1 -1 scale
(1) t 
GR
GR
GS
[0.6 0 0 0.6 623.81655 157.40001] CT
0.149 GC
/Helvetica-Bold 25 F
GS
[1 0 0 1 0 0] CT
-7 26 moveto 
1 -1 scale
(2) t 
GR
GR
GS
[0.6 0 0 0.6 672.92486 157.40001] CT
0.149 GC
/Helvetica-Bold 25 F
GS
[1 0 0 1 0 0] CT
-7 26 moveto 
1 -1 scale
(3) t 
GR
GR
GS
[0.6 0 0 0.6 722.03316 157.40001] CT
0.149 GC
/Helvetica-Bold 25 F
GS
[1 0 0 1 0 0] CT
-7 26 moveto 
1 -1 scale
(4) t 
GR
GR
GS
[0.6 0 0 0.6 771.14146 157.40001] CT
0.149 GC
/Helvetica-Bold 25 F
GS
[1 0 0 1 0 0] CT
-7 26 moveto 
1 -1 scale
(5) t 
GR
GR
GS
[0.6 0 0 0.6 820.24969 157.40001] CT
0.149 GC
/Helvetica-Bold 25 F
GS
[1 0 0 1 0 0] CT
-7 26 moveto 
1 -1 scale
(6) t 
GR
GR
GS
[0.6 0 0 0.6 646.20003 194.4] CT
0.149 GC
N
/f876989070{4.391 0.313 M
2.813 0.313 2.102 -0.852 QT
1.391 -2.016 1.391 -3.688 QT
1.391 -4.797 1.594 -5.859 QT
1.797 -6.922 2.195 -8.008 QT
2.594 -9.094 3.117 -10.047 QT
3.641 -11 4.281 -11.891 QT
4.406 -12.078 4.609 -12.078 QT
5.781 -12.078 5.891 -11.969 QT
6 -11.859 6 -11.703 QT
6 -11.547 5.922 -11.438 QT
3.375 -7.922 3.375 -4.953 QT
3.375 -3.672 3.969 -2.742 QT
4.563 -1.813 4.781 -1.813 QT
5.828 -1.813 6.727 -2.43 QT
7.625 -3.047 8.281 -4 QT
8.281 -4.5 8.445 -5.539 QT
8.609 -6.578 8.977 -7.391 QT
9.344 -8.203 9.844 -8.203 QT
11.484 -8.203 11.484 -7.453 QT
11.484 -7.016 11.305 -6.352 QT
11.125 -5.688 10.898 -5.117 QT
10.672 -4.547 10.344 -3.813 QT
10.672 -1.813 11.344 -1.813 QT
12.313 -1.813 13.289 -2.375 QT
14.266 -2.938 15.016 -3.852 QT
15.766 -4.766 16.195 -5.813 QT
16.625 -6.859 16.625 -7.813 QT
16.625 -8.656 16.359 -9.125 QT
16.094 -9.594 15.656 -10.117 QT
15.219 -10.641 15.219 -10.953 QT
15.219 -11.5 15.688 -11.953 QT
16.156 -12.406 16.688 -12.406 QT
18.359 -12.406 18.648 -11.781 QT
18.938 -11.156 18.938 -10.359 QT
18.938 -9.078 18.43 -7.125 QT
17.922 -5.172 17.266 -3.875 QT
16.359 -2.109 15 -0.898 QT
13.641 0.313 10.938 0.313 QT
9.859 0.313 9.195 -0.336 QT
8.531 -0.984 8.531 -0.984 QT
8.531 -0.984 7.547 -0.336 QT
6.563 0.313 4.391 0.313 QT
cp}def
f876989070
f
GR
GS
[0.6 0 0 0.6 657.60003 194.4] CT
0.149 GC
/Helvetica-Bold 27.5 F
GS
[1 0 0 1 0 0] CT
0 0 moveto 
1 -1 scale
( [rad/s]) t 
GR
GR
GS
[0.6 0 0 0.6 0 0] CT
0.149 GC
2 setlinecap
1 LJ
0.833 LW
N
876 254 M
876 82 L
S
GR
GS
[0.6 0 0 0.6 0 0] CT
0.149 GC
2 setlinecap
1 LJ
0.833 LW
N
1390 254 M
1390 82 L
S
GR
GS
[0.6 0 0 0.6 0 0] CT
0.149 GC
2 setlinecap
1 LJ
0.833 LW
N
876 243.869 M
881.14 243.869 L
S
GR
GS
[0.6 0 0 0.6 0 0] CT
0.149 GC
2 setlinecap
1 LJ
0.833 LW
N
876 169.22 M
881.14 169.22 L
S
GR
GS
[0.6 0 0 0.6 0 0] CT
0.149 GC
2 setlinecap
1 LJ
0.833 LW
N
876 94.571 M
881.14 94.571 L
S
GR
GS
[0.6 0 0 0.6 0 0] CT
0.149 GC
2 setlinecap
1 LJ
0.833 LW
N
1390 243.869 M
1384.86 243.869 L
S
GR
GS
[0.6 0 0 0.6 0 0] CT
0.149 GC
2 setlinecap
1 LJ
0.833 LW
N
1390 169.22 M
1384.86 169.22 L
S
GR
GS
[0.6 0 0 0.6 0 0] CT
0.149 GC
2 setlinecap
1 LJ
0.833 LW
N
1390 94.571 M
1384.86 94.571 L
S
GR
GS
[0.6 0 0 0.6 520.60003 146.32158] CT
0.149 GC
/Helvetica-Bold 25 F
GS
[1 0 0 1 0 0] CT
-14 10 moveto 
1 -1 scale
(0) t 
GR
GR
GS
[0.6 0 0 0.6 520.60003 101.53202] CT
0.149 GC
/Helvetica-Bold 25 F
GS
[1 0 0 1 0 0] CT
-14 10 moveto 
1 -1 scale
(5) t 
GR
GR
GS
[0.6 0 0 0.6 520.60003 56.74247] CT
0.149 GC
/Helvetica-Bold 25 F
GS
[1 0 0 1 0 0] CT
-28 10 moveto 
1 -1 scale
(10) t 
GR
GR
GS
[0 -0.6 0.6 0 490.20002 113.4] CT
0.149 GC
/Helvetica-Bold 27.5 F
GS
[1 0 0 1 0 0] CT
0 0 moveto 
1 -1 scale
(b) t 
GR
GR
GS
[0 -0.6 0.6 0 498.00002 103.2] CT
0.149 GC
/Helvetica-Bold 22 F
GS
[1 0 0 1 0 0] CT
0 0 moveto 
1 -1 scale
(22) t 
GR
GR
GS
[0.6 0 0 0.6 525.60002 45.6] CT
0.149 GC
N
/f1086612530{3.672 -0.719 M
3.672 -0.922 3.797 -1.078 QT
9 -6.25 L
3.797 -11.453 L
3.672 -11.578 3.672 -11.781 QT
3.672 -11.969 3.82 -12.125 QT
3.969 -12.281 4.172 -12.281 QT
5.344 -12.281 5.547 -12.125 QT
10.219 -7.453 L
14.875 -12.125 L
15.094 -12.281 15.25 -12.281 QT
16.453 -12.281 16.602 -12.133 QT
16.75 -11.984 16.75 -11.781 QT
16.75 -11.578 16.625 -11.453 QT
11.422 -6.25 L
16.625 -1.078 L
16.75 -0.922 16.75 -0.719 QT
16.75 -0.516 16.602 -0.367 QT
16.453 -0.219 15.25 -0.219 QT
15.063 -0.219 14.875 -0.406 QT
10.219 -5.047 L
5.547 -0.406 L
5.375 -0.219 4.172 -0.219 QT
3.969 -0.219 3.82 -0.375 QT
3.672 -0.531 3.672 -0.719 QT
cp}def
f1086612530
f
GR
GS
[0.6 0 0 0.6 538.20002 45.6] CT
0.149 GC
/Helvetica-Bold 25 F
GS
[1 0 0 1 0 0] CT
0 0 moveto 
1 -1 scale
(10) t 
GR
GR
GS
[0.6 0 0 0.6 555.00002 38.4] CT
0.149 GC
/Helvetica-Bold 20 F
GS
[1 0 0 1 0 0] CT
0 0 moveto 
1 -1 scale
(5) t 
GR
GR
GS
[0.6 0 0 0.6 0 0] CT
0 0 1 RC
1 LJ
3.333 LW
N
881.14 243.869 M
886.28 243.869 L
891.42 243.867 L
896.56 243.85 L
901.7 243.78 L
906.84 243.565 L
911.98 243.018 L
917.12 241.824 L
922.26 239.494 L
927.4 235.35 L
932.54 228.553 L
937.68 218.215 L
942.82 203.646 L
947.96 184.751 L
953.1 162.436 L
958.24 138.786 L
963.38 116.682 L
968.52 98.918 L
973.66 87.277 L
978.8 82.136 L
983.94 82.722 L
989.08 87.668 L
994.22 95.513 L
999.36 105.014 L
1004.5 115.226 L
1009.64 125.502 L
1014.78 135.431 L
1019.92 144.778 L
1025.06 153.426 L
1030.2 161.334 L
1035.34 168.512 L
1040.48 174.996 L
1045.62 180.836 L
1050.76 186.09 L
1055.9 190.816 L
1061.04 195.07 L
1066.18 198.905 L
1071.32 202.368 L
1076.46 205.503 L
1081.6 208.349 L
1086.74 210.941 L
1091.88 213.308 L
1097.02 215.48 L
1102.16 217.479 L
1107.3 219.33 L
1112.44 221.052 L
1117.58 222.664 L
1122.72 224.184 L
1127.86 225.631 L
1133 227.021 L
1138.14 228.374 L
1143.28 229.712 L
1148.42 231.059 L
1153.56 232.448 L
1158.7 233.921 L
1163.84 235.538 L
1168.98 237.389 L
1174.12 239.608 L
1179.26 242.393 L
1184.4 245.98 L
1189.54 250.352 L
1194.68 254 L
1199.82 252.874 L
1204.96 247.182 L
1210.1 242.758 L
1215.24 240.858 L
1220.38 240.564 L
1225.52 242.766 L
1230.66 241.214 L
1235.8 234.88 L
1240.94 236.495 L
1246.08 237.65 L
1251.22 238.975 L
1256.36 241.286 L
1261.5 249.254 L
1266.64 235.942 L
1271.78 238.438 L
1276.92 240.135 L
1282.06 242.044 L
1287.2 243.033 L
1292.34 239.343 L
1297.48 240.275 L
1302.62 241.432 L
1307.76 242.741 L
1312.9 243.717 L
1318.04 243.077 L
1323.18 242.369 L
1328.32 242.985 L
1333.46 243.487 L
1338.6 243.559 L
1343.74 243.338 L
1348.88 243.18 L
1354.02 243.169 L
1359.16 243.2 L
1364.3 243.2 L
1369.44 243.079 L
1374.58 243.115 L
1379.72 242.789 L
1384.86 242.738 L
1390 243.268 L
S
GR
GS
[0.6 0 0 0.6 0 0] CT
1 0 0 RC
[12 12] 0 setdash
2 LJ
3.333 LW
N
881.14 243.869 M
886.28 243.869 L
891.42 243.867 L
896.56 243.85 L
901.7 243.78 L
906.84 243.565 L
911.98 243.02 L
917.12 241.83 L
922.26 239.511 L
927.4 235.398 L
932.54 228.674 L
937.68 218.488 L
942.82 204.214 L
947.96 185.821 L
953.1 164.261 L
958.24 141.58 L
963.38 120.514 L
968.52 103.634 L
973.66 92.523 L
978.8 87.471 L
983.94 87.733 L
989.08 92.035 L
994.22 99.056 L
999.36 107.643 L
1004.5 116.938 L
1009.64 126.348 L
1014.78 135.481 L
1019.92 144.12 L
1025.06 152.158 L
1030.2 159.546 L
1035.34 166.283 L
1040.48 172.401 L
1045.62 177.938 L
1050.76 182.937 L
1055.9 187.441 L
1061.04 191.487 L
1066.18 195.123 L
1071.32 198.392 L
1076.46 201.333 L
1081.6 203.979 L
1086.74 206.371 L
1091.88 208.551 L
1097.02 210.558 L
1102.16 212.413 L
1107.3 214.142 L
1112.44 215.758 L
1117.58 217.272 L
1122.72 218.687 L
1127.86 220.003 L
1133 221.215 L
1138.14 222.32 L
1143.28 223.322 L
1148.42 224.233 L
1153.56 225.072 L
1158.7 225.855 L
1163.84 226.602 L
1168.98 227.33 L
1174.12 228.044 L
1179.26 228.748 L
1184.4 229.43 L
1189.54 230.081 L
1194.68 230.69 L
1199.82 231.246 L
1204.96 231.75 L
1210.1 232.212 L
1215.24 232.657 L
1220.38 233.102 L
1225.52 233.555 L
1230.66 234.019 L
1235.8 234.492 L
1240.94 234.956 L
1246.08 235.392 L
1251.22 235.788 L
1256.36 236.158 L
1261.5 236.518 L
1266.64 236.887 L
1271.78 237.279 L
1276.92 237.703 L
1282.06 238.158 L
1287.2 238.628 L
1292.34 239.1 L
1297.48 239.576 L
1302.62 240.087 L
1307.76 240.652 L
1312.9 241.165 L
1318.04 241.461 L
1323.18 241.194 L
1328.32 241.63 L
1333.46 240.695 L
1338.6 241.253 L
1343.74 240.894 L
1348.88 240.928 L
1354.02 241.056 L
1359.16 241.735 L
1364.3 242.552 L
1369.44 242.115 L
1374.58 241.887 L
1379.72 242.361 L
1384.86 241.945 L
1390 242.53 L
S
GR
GS
[0.6 0 0 0.6 0 0] CT
0 1 0 RC
[12 3 6 3] 0 setdash
2 LJ
3.333 LW
N
881.14 243.869 M
886.28 243.869 L
891.42 243.867 L
896.56 243.85 L
901.7 243.78 L
906.84 243.564 L
911.98 243.018 L
917.12 241.823 L
922.26 239.491 L
927.4 235.345 L
932.54 228.546 L
937.68 218.205 L
942.82 203.635 L
947.96 184.74 L
953.1 162.429 L
958.24 138.78 L
963.38 116.67 L
968.52 98.884 L
973.66 87.2 L
978.8 82 L
983.94 82.515 L
989.08 87.383 L
994.22 95.158 L
999.36 104.59 L
1004.5 114.748 L
1009.64 124.986 L
1014.78 134.89 L
1019.92 144.237 L
1025.06 152.911 L
1030.2 160.87 L
1035.34 168.129 L
1040.48 174.728 L
1045.62 180.721 L
1050.76 186.172 L
1055.9 191.151 L
1061.04 195.756 L
1066.18 200.162 L
1071.32 204.798 L
1076.46 211.952 L
1081.6 214.733 L
1086.74 205.719 L
1091.88 209.958 L
1097.02 212.891 L
1102.16 215.327 L
1107.3 217.497 L
1112.44 219.522 L
1117.58 221.386 L
1122.72 223.217 L
1127.86 225.041 L
1133 226.957 L
1138.14 229.168 L
1143.28 232.178 L
1148.42 239.101 L
1153.56 244.147 L
1158.7 225.194 L
1163.84 227.11 L
1168.98 228.969 L
1174.12 230.566 L
1179.26 232.075 L
1184.4 233.542 L
1189.54 235.138 L
1194.68 237.204 L
1199.82 240.238 L
1204.96 245.649 L
1210.1 244.451 L
1215.24 232.359 L
1220.38 232.673 L
1225.52 234.321 L
1230.66 235.964 L
1235.8 237.647 L
1240.94 239.585 L
1246.08 242.087 L
1251.22 245.621 L
1256.36 247.193 L
1261.5 238.151 L
1266.64 235.446 L
1271.78 236.605 L
1276.92 238.355 L
1282.06 240.294 L
1287.2 242.601 L
1292.34 245.364 L
1297.48 247.057 L
1302.62 242.063 L
1307.76 237.823 L
1312.9 238.147 L
1318.04 239.815 L
1323.18 241.88 L
1328.32 244.235 L
1333.46 246.324 L
1338.6 245.234 L
1343.74 240.672 L
1348.88 239.228 L
1354.02 240.315 L
1359.16 242.223 L
1364.3 244.37 L
1369.44 245.956 L
1374.58 244.787 L
1379.72 241.456 L
1384.86 240.437 L
1390 241.506 L
S
GR
GS
[0.6 0 0 0.6 0 0] CT
1 GC
N
200 542 M
714 542 L
714 370 L
200 370 L
cp
f
GR
GS
[0.6 0 0 0.6 0 0] CT
0.149 GC
2 setlinecap
1 LJ
0.833 LW
N
200 542 M
714 542 L
S
GR
GS
[0.6 0 0 0.6 0 0] CT
0.149 GC
2 setlinecap
1 LJ
0.833 LW
N
200 370 M
714 370 L
S
GR
GS
[0.6 0 0 0.6 0 0] CT
0.149 GC
2 setlinecap
1 LJ
0.833 LW
N
200 542 M
200 536.86 L
S
GR
GS
[0.6 0 0 0.6 0 0] CT
0.149 GC
2 setlinecap
1 LJ
0.833 LW
N
281.847 542 M
281.847 536.86 L
S
GR
GS
[0.6 0 0 0.6 0 0] CT
0.149 GC
2 setlinecap
1 LJ
0.833 LW
N
363.694 542 M
363.694 536.86 L
S
GR
GS
[0.6 0 0 0.6 0 0] CT
0.149 GC
2 setlinecap
1 LJ
0.833 LW
N
445.541 542 M
445.541 536.86 L
S
GR
GS
[0.6 0 0 0.6 0 0] CT
0.149 GC
2 setlinecap
1 LJ
0.833 LW
N
527.389 542 M
527.389 536.86 L
S
GR
GS
[0.6 0 0 0.6 0 0] CT
0.149 GC
2 setlinecap
1 LJ
0.833 LW
N
609.236 542 M
609.236 536.86 L
S
GR
GS
[0.6 0 0 0.6 0 0] CT
0.149 GC
2 setlinecap
1 LJ
0.833 LW
N
691.083 542 M
691.083 536.86 L
S
GR
GS
[0.6 0 0 0.6 0 0] CT
0.149 GC
2 setlinecap
1 LJ
0.833 LW
N
200 370 M
200 375.14 L
S
GR
GS
[0.6 0 0 0.6 0 0] CT
0.149 GC
2 setlinecap
1 LJ
0.833 LW
N
281.847 370 M
281.847 375.14 L
S
GR
GS
[0.6 0 0 0.6 0 0] CT
0.149 GC
2 setlinecap
1 LJ
0.833 LW
N
363.694 370 M
363.694 375.14 L
S
GR
GS
[0.6 0 0 0.6 0 0] CT
0.149 GC
2 setlinecap
1 LJ
0.833 LW
N
445.541 370 M
445.541 375.14 L
S
GR
GS
[0.6 0 0 0.6 0 0] CT
0.149 GC
2 setlinecap
1 LJ
0.833 LW
N
527.389 370 M
527.389 375.14 L
S
GR
GS
[0.6 0 0 0.6 0 0] CT
0.149 GC
2 setlinecap
1 LJ
0.833 LW
N
609.236 370 M
609.236 375.14 L
S
GR
GS
[0.6 0 0 0.6 0 0] CT
0.149 GC
2 setlinecap
1 LJ
0.833 LW
N
691.083 370 M
691.083 375.14 L
S
GR
GS
[0.6 0 0 0.6 120 330.19999] CT
0.149 GC
/Helvetica-Bold 25 F
GS
[1 0 0 1 0 0] CT
-7 26 moveto 
1 -1 scale
(0) t 
GR
GR
GS
[0.6 0 0 0.6 169.10829 330.19999] CT
0.149 GC
/Helvetica-Bold 25 F
GS
[1 0 0 1 0 0] CT
-7 26 moveto 
1 -1 scale
(1) t 
GR
GR
GS
[0.6 0 0 0.6 218.21657 330.19999] CT
0.149 GC
/Helvetica-Bold 25 F
GS
[1 0 0 1 0 0] CT
-7 26 moveto 
1 -1 scale
(2) t 
GR
GR
GS
[0.6 0 0 0.6 267.32486 330.19999] CT
0.149 GC
/Helvetica-Bold 25 F
GS
[1 0 0 1 0 0] CT
-7 26 moveto 
1 -1 scale
(3) t 
GR
GR
GS
[0.6 0 0 0.6 316.43314 330.19999] CT
0.149 GC
/Helvetica-Bold 25 F
GS
[1 0 0 1 0 0] CT
-7 26 moveto 
1 -1 scale
(4) t 
GR
GR
GS
[0.6 0 0 0.6 365.54141 330.19999] CT
0.149 GC
/Helvetica-Bold 25 F
GS
[1 0 0 1 0 0] CT
-7 26 moveto 
1 -1 scale
(5) t 
GR
GR
GS
[0.6 0 0 0.6 414.64971 330.19999] CT
0.149 GC
/Helvetica-Bold 25 F
GS
[1 0 0 1 0 0] CT
-7 26 moveto 
1 -1 scale
(6) t 
GR
GR
GS
[0.6 0 0 0.6 240.60001 367.2] CT
0.149 GC
N
f876989070
f
GR
GS
[0.6 0 0 0.6 252.00001 367.2] CT
0.149 GC
/Helvetica-Bold 27.5 F
GS
[1 0 0 1 0 0] CT
0 0 moveto 
1 -1 scale
( [rad/s]) t 
GR
GR
GS
[0.6 0 0 0.6 0 0] CT
0.149 GC
2 setlinecap
1 LJ
0.833 LW
N
200 542 M
200 370 L
S
GR
GS
[0.6 0 0 0.6 0 0] CT
0.149 GC
2 setlinecap
1 LJ
0.833 LW
N
714 542 M
714 370 L
S
GR
GS
[0.6 0 0 0.6 0 0] CT
0.149 GC
2 setlinecap
1 LJ
0.833 LW
N
200 537.992 M
205.14 537.992 L
S
GR
GS
[0.6 0 0 0.6 0 0] CT
0.149 GC
2 setlinecap
1 LJ
0.833 LW
N
200 492.414 M
205.14 492.414 L
S
GR
GS
[0.6 0 0 0.6 0 0] CT
0.149 GC
2 setlinecap
1 LJ
0.833 LW
N
200 446.836 M
205.14 446.836 L
S
GR
GS
[0.6 0 0 0.6 0 0] CT
0.149 GC
2 setlinecap
1 LJ
0.833 LW
N
200 401.258 M
205.14 401.258 L
S
GR
GS
[0.6 0 0 0.6 0 0] CT
0.149 GC
2 setlinecap
1 LJ
0.833 LW
N
714 537.992 M
708.86 537.992 L
S
GR
GS
[0.6 0 0 0.6 0 0] CT
0.149 GC
2 setlinecap
1 LJ
0.833 LW
N
714 492.414 M
708.86 492.414 L
S
GR
GS
[0.6 0 0 0.6 0 0] CT
0.149 GC
2 setlinecap
1 LJ
0.833 LW
N
714 446.836 M
708.86 446.836 L
S
GR
GS
[0.6 0 0 0.6 0 0] CT
0.149 GC
2 setlinecap
1 LJ
0.833 LW
N
714 401.258 M
708.86 401.258 L
S
GR
GS
[0.6 0 0 0.6 115.00001 322.79509] CT
0.149 GC
/Helvetica-Bold 25 F
GS
[1 0 0 1 0 0] CT
-14 10 moveto 
1 -1 scale
(0) t 
GR
GR
GS
[0.6 0 0 0.6 115.00001 295.44836] CT
0.149 GC
/Helvetica-Bold 25 F
GS
[1 0 0 1 0 0] CT
-14 10 moveto 
1 -1 scale
(1) t 
GR
GR
GS
[0.6 0 0 0.6 115.00001 268.10164] CT
0.149 GC
/Helvetica-Bold 25 F
GS
[1 0 0 1 0 0] CT
-14 10 moveto 
1 -1 scale
(2) t 
GR
GR
GS
[0.6 0 0 0.6 115.00001 240.75493] CT
0.149 GC
/Helvetica-Bold 25 F
GS
[1 0 0 1 0 0] CT
-14 10 moveto 
1 -1 scale
(3) t 
GR
GR
GS
[0 -0.6 0.6 0 93 286.2] CT
0.149 GC
/Helvetica-Bold 27.5 F
GS
[1 0 0 1 0 0] CT
0 0 moveto 
1 -1 scale
(b) t 
GR
GR
GS
[0 -0.6 0.6 0 100.8 276] CT
0.149 GC
/Helvetica-Bold 22 F
GS
[1 0 0 1 0 0] CT
0 0 moveto 
1 -1 scale
(33) t 
GR
GR
GS
[0.6 0 0 0.6 120 218.4] CT
0.149 GC
N
f1086612530
f
GR
GS
[0.6 0 0 0.6 132.60001 218.4] CT
0.149 GC
/Helvetica-Bold 25 F
GS
[1 0 0 1 0 0] CT
0 0 moveto 
1 -1 scale
(10) t 
GR
GR
GS
[0.6 0 0 0.6 149.40001 211.2] CT
0.149 GC
/Helvetica-Bold 20 F
GS
[1 0 0 1 0 0] CT
0 0 moveto 
1 -1 scale
(4) t 
GR
GR
GS
[0.6 0 0 0.6 0 0] CT
0 0 1 RC
1 LJ
3.333 LW
N
205.14 537.246 M
210.28 532.288 L
215.42 520.121 L
220.56 499.847 L
225.7 472.917 L
230.84 442.718 L
235.98 413.634 L
241.12 389.948 L
246.26 374.879 L
251.4 370 L
256.54 375.117 L
261.68 388.551 L
266.82 407.696 L
271.96 429.667 L
277.1 451.864 L
282.24 472.33 L
287.38 489.884 L
292.52 504.053 L
297.66 514.902 L
302.8 522.828 L
307.94 528.373 L
313.08 532.099 L
318.22 534.509 L
323.36 536.01 L
328.5 536.91 L
333.64 537.429 L
338.78 537.715 L
343.92 537.866 L
349.06 537.94 L
354.2 537.974 L
359.34 537.986 L
364.48 537.989 L
369.62 537.988 L
374.76 537.985 L
379.9 537.983 L
385.04 537.98 L
390.18 537.976 L
395.32 537.975 L
400.46 537.975 L
405.6 537.975 L
410.74 537.975 L
415.88 537.976 L
421.02 537.977 L
426.16 537.979 L
431.3 537.981 L
436.44 537.983 L
441.58 537.986 L
446.72 537.989 L
451.86 537.994 L
457 538 L
462.14 538.007 L
467.28 538.017 L
472.42 538.032 L
477.56 538.053 L
482.7 538.085 L
487.84 538.136 L
492.98 538.223 L
498.12 538.382 L
503.26 538.7 L
508.4 539.41 L
513.54 540.945 L
518.68 542 L
523.82 540.256 L
528.96 538.555 L
534.1 536.169 L
539.24 536.707 L
544.38 537.753 L
549.52 538 L
554.66 538.076 L
559.8 538.101 L
564.94 538.111 L
570.08 537.978 L
575.22 537.802 L
580.36 537.999 L
585.5 538.017 L
590.64 538.03 L
595.78 537.966 L
600.92 537.683 L
606.06 537.984 L
611.2 538.004 L
616.34 537.989 L
621.48 537.977 L
626.62 537.953 L
631.76 537.974 L
636.9 537.983 L
642.04 537.976 L
647.18 537.967 L
652.32 537.959 L
657.46 537.959 L
662.6 537.96 L
667.74 537.959 L
672.88 537.958 L
678.02 537.96 L
683.16 537.963 L
688.3 537.968 L
693.44 537.974 L
698.58 537.983 L
703.72 537.995 L
708.86 537.975 L
714 537.985 L
S
GR
GS
[0.6 0 0 0.6 0 0] CT
1 0 0 RC
[12 12] 0 setdash
2 LJ
3.333 LW
N
205.14 537.246 M
210.28 532.283 L
215.42 520.109 L
220.56 499.834 L
225.7 472.924 L
230.84 442.774 L
235.98 413.782 L
241.12 390.203 L
246.26 375.22 L
251.4 370.368 L
256.54 375.408 L
261.68 388.653 L
266.82 407.527 L
271.96 429.131 L
277.1 451.097 L
282.24 471.12 L
287.38 488.627 L
292.52 502.465 L
297.66 513.671 L
302.8 521.242 L
307.94 527.562 L
313.08 530.969 L
318.22 533.805 L
323.36 535.574 L
328.5 536.709 L
333.64 537.651 L
338.78 537.776 L
343.92 538.363 L
349.06 538.721 L
354.2 538.312 L
359.34 538.512 L
364.48 538.697 L
369.62 538.59 L
374.76 538.357 L
379.9 538.327 L
385.04 538.279 L
390.18 538.199 L
395.32 538.109 L
400.46 538.039 L
405.6 537.986 L
410.74 537.952 L
415.88 537.933 L
421.02 537.921 L
426.16 537.922 L
431.3 537.936 L
436.44 537.955 L
441.58 537.97 L
446.72 537.982 L
451.86 537.992 L
457 537.997 L
462.14 537.996 L
467.28 537.991 L
472.42 537.983 L
477.56 537.974 L
482.7 537.966 L
487.84 537.962 L
492.98 537.961 L
498.12 537.964 L
503.26 537.969 L
508.4 537.975 L
513.54 537.979 L
518.68 537.982 L
523.82 537.982 L
528.96 537.98 L
534.1 537.977 L
539.24 537.974 L
544.38 537.972 L
549.52 537.973 L
554.66 537.975 L
559.8 537.979 L
564.94 537.982 L
570.08 537.984 L
575.22 537.984 L
580.36 537.982 L
585.5 537.98 L
590.64 537.978 L
595.78 537.978 L
600.92 537.978 L
606.06 537.979 L
611.2 537.98 L
616.34 537.977 L
621.48 537.972 L
626.62 537.963 L
631.76 537.95 L
636.9 537.935 L
642.04 537.904 L
647.18 537.947 L
652.32 537.944 L
657.46 537.943 L
662.6 537.942 L
667.74 537.953 L
672.88 537.952 L
678.02 537.951 L
683.16 537.957 L
688.3 537.949 L
693.44 537.949 L
698.58 537.963 L
703.72 537.961 L
708.86 537.966 L
714 537.966 L
S
GR
GS
[0.6 0 0 0.6 0 0] CT
0 1 0 RC
[12 3 6 3] 0 setdash
2 LJ
3.333 LW
N
205.14 537.246 M
210.28 532.282 L
215.42 520.105 L
220.56 499.816 L
225.7 472.874 L
230.84 442.666 L
235.98 413.592 L
241.12 389.924 L
246.26 374.874 L
251.4 370.009 L
256.54 375.123 L
261.68 388.537 L
266.82 407.651 L
271.96 429.536 L
277.1 451.787 L
282.24 472.03 L
287.38 489.699 L
292.52 503.601 L
297.66 514.803 L
302.8 522.297 L
307.94 528.506 L
313.08 531.778 L
318.22 534.479 L
323.36 536.115 L
328.5 537.141 L
333.64 537.986 L
338.78 538.03 L
343.92 538.557 L
349.06 538.867 L
354.2 538.417 L
359.34 538.585 L
364.48 538.705 L
369.62 538.613 L
374.76 538.356 L
379.9 538.32 L
385.04 538.277 L
390.18 538.191 L
395.32 538.09 L
400.46 538.027 L
405.6 537.986 L
410.74 537.954 L
415.88 537.936 L
421.02 537.927 L
426.16 537.927 L
431.3 537.933 L
436.44 537.935 L
441.58 537.917 L
446.72 538.035 L
451.86 538.031 L
457 538.014 L
462.14 538.007 L
467.28 537.993 L
472.42 537.985 L
477.56 537.98 L
482.7 537.974 L
487.84 537.966 L
492.98 537.95 L
498.12 537.938 L
503.26 537.919 L
508.4 537.988 L
513.54 538.031 L
518.68 538.012 L
523.82 538.001 L
528.96 537.99 L
534.1 537.982 L
539.24 537.975 L
544.38 537.966 L
549.52 537.951 L
554.66 537.939 L
559.8 537.985 L
564.94 538.024 L
570.08 538.013 L
575.22 538.001 L
580.36 537.989 L
585.5 537.979 L
590.64 537.969 L
595.78 537.957 L
600.92 537.956 L
606.06 537.999 L
611.2 538.019 L
616.34 538.01 L
621.48 537.996 L
626.62 537.983 L
631.76 537.972 L
636.9 537.962 L
642.04 537.968 L
647.18 538 L
652.32 538.013 L
657.46 538.005 L
662.6 537.993 L
667.74 537.98 L
672.88 537.969 L
678.02 537.97 L
683.16 537.993 L
688.3 538.009 L
693.44 538.005 L
698.58 537.993 L
703.72 537.981 L
708.86 537.974 L
714 537.979 L
S
GR
GS
[0.6 0 0 0.6 0 0] CT
1 GC
N
876 542 M
1390 542 L
1390 370 L
876 370 L
cp
f
GR
GS
[0.6 0 0 0.6 0 0] CT
0.149 GC
2 setlinecap
1 LJ
0.833 LW
N
876 542 M
1390 542 L
S
GR
GS
[0.6 0 0 0.6 0 0] CT
0.149 GC
2 setlinecap
1 LJ
0.833 LW
N
876 370 M
1390 370 L
S
GR
GS
[0.6 0 0 0.6 0 0] CT
0.149 GC
2 setlinecap
1 LJ
0.833 LW
N
876 542 M
876 536.86 L
S
GR
GS
[0.6 0 0 0.6 0 0] CT
0.149 GC
2 setlinecap
1 LJ
0.833 LW
N
957.847 542 M
957.847 536.86 L
S
GR
GS
[0.6 0 0 0.6 0 0] CT
0.149 GC
2 setlinecap
1 LJ
0.833 LW
N
1039.694 542 M
1039.694 536.86 L
S
GR
GS
[0.6 0 0 0.6 0 0] CT
0.149 GC
2 setlinecap
1 LJ
0.833 LW
N
1121.541 542 M
1121.541 536.86 L
S
GR
GS
[0.6 0 0 0.6 0 0] CT
0.149 GC
2 setlinecap
1 LJ
0.833 LW
N
1203.389 542 M
1203.389 536.86 L
S
GR
GS
[0.6 0 0 0.6 0 0] CT
0.149 GC
2 setlinecap
1 LJ
0.833 LW
N
1285.236 542 M
1285.236 536.86 L
S
GR
GS
[0.6 0 0 0.6 0 0] CT
0.149 GC
2 setlinecap
1 LJ
0.833 LW
N
1367.083 542 M
1367.083 536.86 L
S
GR
GS
[0.6 0 0 0.6 0 0] CT
0.149 GC
2 setlinecap
1 LJ
0.833 LW
N
876 370 M
876 375.14 L
S
GR
GS
[0.6 0 0 0.6 0 0] CT
0.149 GC
2 setlinecap
1 LJ
0.833 LW
N
957.847 370 M
957.847 375.14 L
S
GR
GS
[0.6 0 0 0.6 0 0] CT
0.149 GC
2 setlinecap
1 LJ
0.833 LW
N
1039.694 370 M
1039.694 375.14 L
S
GR
GS
[0.6 0 0 0.6 0 0] CT
0.149 GC
2 setlinecap
1 LJ
0.833 LW
N
1121.541 370 M
1121.541 375.14 L
S
GR
GS
[0.6 0 0 0.6 0 0] CT
0.149 GC
2 setlinecap
1 LJ
0.833 LW
N
1203.389 370 M
1203.389 375.14 L
S
GR
GS
[0.6 0 0 0.6 0 0] CT
0.149 GC
2 setlinecap
1 LJ
0.833 LW
N
1285.236 370 M
1285.236 375.14 L
S
GR
GS
[0.6 0 0 0.6 0 0] CT
0.149 GC
2 setlinecap
1 LJ
0.833 LW
N
1367.083 370 M
1367.083 375.14 L
S
GR
GS
[0.6 0 0 0.6 525.60002 330.19999] CT
0.149 GC
/Helvetica-Bold 25 F
GS
[1 0 0 1 0 0] CT
-7 26 moveto 
1 -1 scale
(0) t 
GR
GR
GS
[0.6 0 0 0.6 574.70829 330.19999] CT
0.149 GC
/Helvetica-Bold 25 F
GS
[1 0 0 1 0 0] CT
-7 26 moveto 
1 -1 scale
(1) t 
GR
GR
GS
[0.6 0 0 0.6 623.81655 330.19999] CT
0.149 GC
/Helvetica-Bold 25 F
GS
[1 0 0 1 0 0] CT
-7 26 moveto 
1 -1 scale
(2) t 
GR
GR
GS
[0.6 0 0 0.6 672.92486 330.19999] CT
0.149 GC
/Helvetica-Bold 25 F
GS
[1 0 0 1 0 0] CT
-7 26 moveto 
1 -1 scale
(3) t 
GR
GR
GS
[0.6 0 0 0.6 722.03316 330.19999] CT
0.149 GC
/Helvetica-Bold 25 F
GS
[1 0 0 1 0 0] CT
-7 26 moveto 
1 -1 scale
(4) t 
GR
GR
GS
[0.6 0 0 0.6 771.14146 330.19999] CT
0.149 GC
/Helvetica-Bold 25 F
GS
[1 0 0 1 0 0] CT
-7 26 moveto 
1 -1 scale
(5) t 
GR
GR
GS
[0.6 0 0 0.6 820.24969 330.19999] CT
0.149 GC
/Helvetica-Bold 25 F
GS
[1 0 0 1 0 0] CT
-7 26 moveto 
1 -1 scale
(6) t 
GR
GR
GS
[0.6 0 0 0.6 646.20003 367.2] CT
0.149 GC
N
f876989070
f
GR
GS
[0.6 0 0 0.6 657.60003 367.2] CT
0.149 GC
/Helvetica-Bold 27.5 F
GS
[1 0 0 1 0 0] CT
0 0 moveto 
1 -1 scale
( [rad/s]) t 
GR
GR
GS
[0.6 0 0 0.6 0 0] CT
0.149 GC
2 setlinecap
1 LJ
0.833 LW
N
876 542 M
876 370 L
S
GR
GS
[0.6 0 0 0.6 0 0] CT
0.149 GC
2 setlinecap
1 LJ
0.833 LW
N
1390 542 M
1390 370 L
S
GR
GS
[0.6 0 0 0.6 0 0] CT
0.149 GC
2 setlinecap
1 LJ
0.833 LW
N
876 536.285 M
881.14 536.285 L
S
GR
GS
[0.6 0 0 0.6 0 0] CT
0.149 GC
2 setlinecap
1 LJ
0.833 LW
N
876 461.397 M
881.14 461.397 L
S
GR
GS
[0.6 0 0 0.6 0 0] CT
0.149 GC
2 setlinecap
1 LJ
0.833 LW
N
876 386.509 M
881.14 386.509 L
S
GR
GS
[0.6 0 0 0.6 0 0] CT
0.149 GC
2 setlinecap
1 LJ
0.833 LW
N
1390 536.285 M
1384.86 536.285 L
S
GR
GS
[0.6 0 0 0.6 0 0] CT
0.149 GC
2 setlinecap
1 LJ
0.833 LW
N
1390 461.397 M
1384.86 461.397 L
S
GR
GS
[0.6 0 0 0.6 0 0] CT
0.149 GC
2 setlinecap
1 LJ
0.833 LW
N
1390 386.509 M
1384.86 386.509 L
S
GR
GS
[0.6 0 0 0.6 520.60003 321.77095] CT
0.149 GC
/Helvetica-Bold 25 F
GS
[1 0 0 1 0 0] CT
-14 10 moveto 
1 -1 scale
(0) t 
GR
GR
GS
[0.6 0 0 0.6 520.60003 276.83809] CT
0.149 GC
/Helvetica-Bold 25 F
GS
[1 0 0 1 0 0] CT
-14 10 moveto 
1 -1 scale
(1) t 
GR
GR
GS
[0.6 0 0 0.6 520.60003 231.90522] CT
0.149 GC
/Helvetica-Bold 25 F
GS
[1 0 0 1 0 0] CT
-14 10 moveto 
1 -1 scale
(2) t 
GR
GR
GS
[0 -0.6 0.6 0 498.60002 286.2] CT
0.149 GC
/Helvetica-Bold 27.5 F
GS
[1 0 0 1 0 0] CT
0 0 moveto 
1 -1 scale
(b) t 
GR
GR
GS
[0 -0.6 0.6 0 506.40002 276] CT
0.149 GC
/Helvetica-Bold 22 F
GS
[1 0 0 1 0 0] CT
0 0 moveto 
1 -1 scale
(44) t 
GR
GR
GS
[0.6 0 0 0.6 525.60002 218.4] CT
0.149 GC
N
f1086612530
f
GR
GS
[0.6 0 0 0.6 538.20002 218.4] CT
0.149 GC
/Helvetica-Bold 25 F
GS
[1 0 0 1 0 0] CT
0 0 moveto 
1 -1 scale
(10) t 
GR
GR
GS
[0.6 0 0 0.6 555.00002 211.2] CT
0.149 GC
/Helvetica-Bold 20 F
GS
[1 0 0 1 0 0] CT
0 0 moveto 
1 -1 scale
(7) t 
GR
GR
GS
[0.6 0 0 0.6 0 0] CT
0 0 1 RC
1 LJ
3.333 LW
N
881.14 536.285 M
886.28 536.285 L
891.42 536.28 L
896.56 536.247 L
901.7 536.113 L
906.84 535.705 L
911.98 534.696 L
917.12 532.554 L
922.26 528.518 L
927.4 521.628 L
932.54 510.849 L
937.68 495.332 L
942.82 474.842 L
947.96 450.269 L
953.1 423.97 L
958.24 399.567 L
963.38 380.966 L
968.52 370.967 L
973.66 370.317 L
978.8 377.761 L
983.94 390.902 L
989.08 407.154 L
994.22 424.361 L
999.36 441.044 L
1004.5 456.325 L
1009.64 469.796 L
1014.78 481.358 L
1019.92 491.097 L
1025.06 499.189 L
1030.2 505.85 L
1035.34 511.299 L
1040.48 515.736 L
1045.62 519.344 L
1050.76 522.274 L
1055.9 524.656 L
1061.04 526.595 L
1066.18 528.178 L
1071.32 529.474 L
1076.46 530.54 L
1081.6 531.42 L
1086.74 532.151 L
1091.88 532.76 L
1097.02 533.271 L
1102.16 533.704 L
1107.3 534.072 L
1112.44 534.387 L
1117.58 534.662 L
1122.72 534.902 L
1127.86 535.117 L
1133 535.312 L
1138.14 535.493 L
1143.28 535.668 L
1148.42 535.841 L
1153.56 536.021 L
1158.7 536.22 L
1163.84 536.451 L
1168.98 536.74 L
1174.12 537.128 L
1179.26 537.686 L
1184.4 538.53 L
1189.54 539.795 L
1194.68 541.329 L
1199.82 542 L
1204.96 541.032 L
1210.1 539.789 L
1215.24 539.07 L
1220.38 538.768 L
1225.52 538.613 L
1230.66 525.534 L
1235.8 534.704 L
1240.94 535.902 L
1246.08 536.275 L
1251.22 536.5 L
1256.36 536.661 L
1261.5 535.484 L
1266.64 535.26 L
1271.78 536.019 L
1276.92 536.268 L
1282.06 536.265 L
1287.2 536.085 L
1292.34 535.565 L
1297.48 536.082 L
1302.62 536.233 L
1307.76 536.317 L
1312.9 536.316 L
1318.04 536.167 L
1323.18 536.149 L
1328.32 536.214 L
1333.46 536.226 L
1338.6 536.192 L
1343.74 536.143 L
1348.88 536.114 L
1354.02 536.108 L
1359.16 536.117 L
1364.3 536.135 L
1369.44 536.158 L
1374.58 536.125 L
1379.72 536.148 L
1384.86 536.184 L
1390 536.272 L
S
GR
GS
[0.6 0 0 0.6 0 0] CT
1 0 0 RC
[12 12] 0 setdash
2 LJ
3.333 LW
N
881.14 536.285 M
886.28 536.285 L
891.42 536.28 L
896.56 536.247 L
901.7 536.112 L
906.84 535.704 L
911.98 534.696 L
917.12 532.557 L
922.26 528.532 L
927.4 521.67 L
932.54 510.961 L
937.68 495.594 L
942.82 475.387 L
947.96 451.274 L
953.1 425.61 L
958.24 401.904 L
963.38 383.857 L
968.52 374.045 L
973.66 373.083 L
978.8 379.769 L
983.94 391.862 L
989.08 406.924 L
994.22 423.044 L
999.36 438.718 L
1004.5 453.225 L
1009.64 466.158 L
1014.78 477.288 L
1019.92 486.83 L
1025.06 494.914 L
1030.2 501.634 L
1035.34 507.246 L
1040.48 511.949 L
1045.62 515.844 L
1050.76 519.052 L
1055.9 521.696 L
1061.04 523.839 L
1066.18 525.567 L
1071.32 526.967 L
1076.46 528.089 L
1081.6 528.984 L
1086.74 529.715 L
1091.88 530.35 L
1097.02 530.922 L
1102.16 531.449 L
1107.3 531.944 L
1112.44 532.409 L
1117.58 532.842 L
1122.72 533.234 L
1127.86 533.575 L
1133 533.855 L
1138.14 534.072 L
1143.28 534.236 L
1148.42 534.36 L
1153.56 534.461 L
1158.7 534.553 L
1163.84 534.648 L
1168.98 534.753 L
1174.12 534.868 L
1179.26 534.988 L
1184.4 535.105 L
1189.54 535.211 L
1194.68 535.299 L
1199.82 535.366 L
1204.96 535.415 L
1210.1 535.454 L
1215.24 535.493 L
1220.38 535.537 L
1225.52 535.589 L
1230.66 535.647 L
1235.8 535.708 L
1240.94 535.764 L
1246.08 535.81 L
1251.22 535.845 L
1256.36 535.873 L
1261.5 535.898 L
1266.64 535.926 L
1271.78 535.958 L
1276.92 535.995 L
1282.06 536.034 L
1287.2 536.069 L
1292.34 536.095 L
1297.48 536.11 L
1302.62 536.116 L
1307.76 536.106 L
1312.9 536.064 L
1318.04 535.93 L
1323.18 536.01 L
1328.32 535.976 L
1333.46 535.941 L
1338.6 536.017 L
1343.74 536.006 L
1348.88 536.033 L
1354.02 536.063 L
1359.16 536.128 L
1364.3 536.111 L
1369.44 536.074 L
1374.58 536.115 L
1379.72 536.138 L
1384.86 536.123 L
1390 536.148 L
S
GR
GS
[0.6 0 0 0.6 0 0] CT
0 1 0 RC
[12 3 6 3] 0 setdash
2 LJ
3.333 LW
N
881.14 536.285 M
886.28 536.285 L
891.42 536.28 L
896.56 536.247 L
901.7 536.112 L
906.84 535.704 L
911.98 534.694 L
917.12 532.55 L
922.26 528.51 L
927.4 521.614 L
932.54 510.824 L
937.68 495.294 L
942.82 474.788 L
947.96 450.194 L
953.1 423.871 L
958.24 399.437 L
963.38 380.79 L
968.52 370.733 L
973.66 370 L
978.8 377.368 L
983.94 390.428 L
989.08 406.583 L
994.22 423.751 L
999.36 440.337 L
1004.5 455.588 L
1009.64 469.074 L
1014.78 480.589 L
1019.92 490.382 L
1025.06 498.604 L
1030.2 505.378 L
1035.34 510.985 L
1040.48 515.649 L
1045.62 519.496 L
1050.76 522.656 L
1055.9 525.262 L
1061.04 527.42 L
1066.18 529.272 L
1071.32 531.068 L
1076.46 533.742 L
1081.6 526.907 L
1086.74 529.754 L
1091.88 531.326 L
1097.02 532.195 L
1102.16 532.842 L
1107.3 533.393 L
1112.44 533.896 L
1117.58 534.34 L
1122.72 534.76 L
1127.86 535.142 L
1133 535.494 L
1138.14 535.844 L
1143.28 536.258 L
1148.42 537.141 L
1153.56 536.353 L
1158.7 534.396 L
1163.84 534.913 L
1168.98 535.23 L
1174.12 535.474 L
1179.26 535.694 L
1184.4 535.89 L
1189.54 536.083 L
1194.68 536.31 L
1199.82 536.597 L
1204.96 537.001 L
1210.1 536.368 L
1215.24 535.325 L
1220.38 535.527 L
1225.52 535.75 L
1230.66 535.939 L
1235.8 536.114 L
1240.94 536.297 L
1246.08 536.5 L
1251.22 536.737 L
1256.36 536.66 L
1261.5 535.819 L
1266.64 535.716 L
1271.78 535.883 L
1276.92 536.059 L
1282.06 536.229 L
1287.2 536.411 L
1292.34 536.592 L
1297.48 536.623 L
1302.62 536.143 L
1307.76 535.87 L
1312.9 535.956 L
1318.04 536.115 L
1323.18 536.282 L
1328.32 536.449 L
1333.46 536.56 L
1338.6 536.405 L
1343.74 536.055 L
1348.88 535.992 L
1354.02 536.107 L
1359.16 536.261 L
1364.3 536.41 L
1369.44 536.492 L
1374.58 536.362 L
1379.72 536.117 L
1384.86 536.073 L
1390 536.172 L
S
GR
GS
[0.6 0 0 0.6 0 0] CT
1 GC
N
200 829 M
714 829 L
714 658 L
200 658 L
cp
f
GR
GS
[0.6 0 0 0.6 0 0] CT
0.149 GC
2 setlinecap
1 LJ
0.833 LW
N
200 829 M
714 829 L
S
GR
GS
[0.6 0 0 0.6 0 0] CT
0.149 GC
2 setlinecap
1 LJ
0.833 LW
N
200 658 M
714 658 L
S
GR
GS
[0.6 0 0 0.6 0 0] CT
0.149 GC
2 setlinecap
1 LJ
0.833 LW
N
200 829 M
200 823.86 L
S
GR
GS
[0.6 0 0 0.6 0 0] CT
0.149 GC
2 setlinecap
1 LJ
0.833 LW
N
281.847 829 M
281.847 823.86 L
S
GR
GS
[0.6 0 0 0.6 0 0] CT
0.149 GC
2 setlinecap
1 LJ
0.833 LW
N
363.694 829 M
363.694 823.86 L
S
GR
GS
[0.6 0 0 0.6 0 0] CT
0.149 GC
2 setlinecap
1 LJ
0.833 LW
N
445.541 829 M
445.541 823.86 L
S
GR
GS
[0.6 0 0 0.6 0 0] CT
0.149 GC
2 setlinecap
1 LJ
0.833 LW
N
527.389 829 M
527.389 823.86 L
S
GR
GS
[0.6 0 0 0.6 0 0] CT
0.149 GC
2 setlinecap
1 LJ
0.833 LW
N
609.236 829 M
609.236 823.86 L
S
GR
GS
[0.6 0 0 0.6 0 0] CT
0.149 GC
2 setlinecap
1 LJ
0.833 LW
N
691.083 829 M
691.083 823.86 L
S
GR
GS
[0.6 0 0 0.6 0 0] CT
0.149 GC
2 setlinecap
1 LJ
0.833 LW
N
200 658 M
200 663.14 L
S
GR
GS
[0.6 0 0 0.6 0 0] CT
0.149 GC
2 setlinecap
1 LJ
0.833 LW
N
281.847 658 M
281.847 663.14 L
S
GR
GS
[0.6 0 0 0.6 0 0] CT
0.149 GC
2 setlinecap
1 LJ
0.833 LW
N
363.694 658 M
363.694 663.14 L
S
GR
GS
[0.6 0 0 0.6 0 0] CT
0.149 GC
2 setlinecap
1 LJ
0.833 LW
N
445.541 658 M
445.541 663.14 L
S
GR
GS
[0.6 0 0 0.6 0 0] CT
0.149 GC
2 setlinecap
1 LJ
0.833 LW
N
527.389 658 M
527.389 663.14 L
S
GR
GS
[0.6 0 0 0.6 0 0] CT
0.149 GC
2 setlinecap
1 LJ
0.833 LW
N
609.236 658 M
609.236 663.14 L
S
GR
GS
[0.6 0 0 0.6 0 0] CT
0.149 GC
2 setlinecap
1 LJ
0.833 LW
N
691.083 658 M
691.083 663.14 L
S
GR
GS
[0.6 0 0 0.6 120 502.39999] CT
0.149 GC
/Helvetica-Bold 25 F
GS
[1 0 0 1 0 0] CT
-7 26 moveto 
1 -1 scale
(0) t 
GR
GR
GS
[0.6 0 0 0.6 169.10829 502.39999] CT
0.149 GC
/Helvetica-Bold 25 F
GS
[1 0 0 1 0 0] CT
-7 26 moveto 
1 -1 scale
(1) t 
GR
GR
GS
[0.6 0 0 0.6 218.21657 502.39999] CT
0.149 GC
/Helvetica-Bold 25 F
GS
[1 0 0 1 0 0] CT
-7 26 moveto 
1 -1 scale
(2) t 
GR
GR
GS
[0.6 0 0 0.6 267.32486 502.39999] CT
0.149 GC
/Helvetica-Bold 25 F
GS
[1 0 0 1 0 0] CT
-7 26 moveto 
1 -1 scale
(3) t 
GR
GR
GS
[0.6 0 0 0.6 316.43314 502.39999] CT
0.149 GC
/Helvetica-Bold 25 F
GS
[1 0 0 1 0 0] CT
-7 26 moveto 
1 -1 scale
(4) t 
GR
GR
GS
[0.6 0 0 0.6 365.54141 502.39999] CT
0.149 GC
/Helvetica-Bold 25 F
GS
[1 0 0 1 0 0] CT
-7 26 moveto 
1 -1 scale
(5) t 
GR
GR
GS
[0.6 0 0 0.6 414.64971 502.39999] CT
0.149 GC
/Helvetica-Bold 25 F
GS
[1 0 0 1 0 0] CT
-7 26 moveto 
1 -1 scale
(6) t 
GR
GR
GS
[0.6 0 0 0.6 240.60001 539.4] CT
0.149 GC
N
f876989070
f
GR
GS
[0.6 0 0 0.6 252.00001 539.4] CT
0.149 GC
/Helvetica-Bold 27.5 F
GS
[1 0 0 1 0 0] CT
0 0 moveto 
1 -1 scale
( [rad/s]) t 
GR
GR
GS
[0.6 0 0 0.6 0 0] CT
0.149 GC
2 setlinecap
1 LJ
0.833 LW
N
200 829 M
200 658 L
S
GR
GS
[0.6 0 0 0.6 0 0] CT
0.149 GC
2 setlinecap
1 LJ
0.833 LW
N
714 829 M
714 658 L
S
GR
GS
[0.6 0 0 0.6 0 0] CT
0.149 GC
2 setlinecap
1 LJ
0.833 LW
N
200 823.311 M
205.14 823.311 L
S
GR
GS
[0.6 0 0 0.6 0 0] CT
0.149 GC
2 setlinecap
1 LJ
0.833 LW
N
200 748.876 M
205.14 748.876 L
S
GR
GS
[0.6 0 0 0.6 0 0] CT
0.149 GC
2 setlinecap
1 LJ
0.833 LW
N
200 674.441 M
205.14 674.441 L
S
GR
GS
[0.6 0 0 0.6 0 0] CT
0.149 GC
2 setlinecap
1 LJ
0.833 LW
N
714 823.311 M
708.86 823.311 L
S
GR
GS
[0.6 0 0 0.6 0 0] CT
0.149 GC
2 setlinecap
1 LJ
0.833 LW
N
714 748.876 M
708.86 748.876 L
S
GR
GS
[0.6 0 0 0.6 0 0] CT
0.149 GC
2 setlinecap
1 LJ
0.833 LW
N
714 674.441 M
708.86 674.441 L
S
GR
GS
[0.6 0 0 0.6 115.00001 493.98633] CT
0.149 GC
/Helvetica-Bold 25 F
GS
[1 0 0 1 0 0] CT
-14 10 moveto 
1 -1 scale
(0) t 
GR
GR
GS
[0.6 0 0 0.6 115.00001 449.32559] CT
0.149 GC
/Helvetica-Bold 25 F
GS
[1 0 0 1 0 0] CT
-14 10 moveto 
1 -1 scale
(1) t 
GR
GR
GS
[0.6 0 0 0.6 115.00001 404.66484] CT
0.149 GC
/Helvetica-Bold 25 F
GS
[1 0 0 1 0 0] CT
-14 10 moveto 
1 -1 scale
(2) t 
GR
GR
GS
[0 -0.6 0.6 0 93 458.4] CT
0.149 GC
/Helvetica-Bold 27.5 F
GS
[1 0 0 1 0 0] CT
0 0 moveto 
1 -1 scale
(b) t 
GR
GR
GS
[0 -0.6 0.6 0 100.8 448.2] CT
0.149 GC
/Helvetica-Bold 22 F
GS
[1 0 0 1 0 0] CT
0 0 moveto 
1 -1 scale
(55) t 
GR
GR
GS
[0.6 0 0 0.6 120 391.2] CT
0.149 GC
N
f1086612530
f
GR
GS
[0.6 0 0 0.6 132.60001 391.2] CT
0.149 GC
/Helvetica-Bold 25 F
GS
[1 0 0 1 0 0] CT
0 0 moveto 
1 -1 scale
(10) t 
GR
GR
GS
[0.6 0 0 0.6 149.40001 384] CT
0.149 GC
/Helvetica-Bold 20 F
GS
[1 0 0 1 0 0] CT
0 0 moveto 
1 -1 scale
(7) t 
GR
GR
GS
[0.6 0 0 0.6 0 0] CT
0 0 1 RC
1 LJ
3.333 LW
N
205.14 823.311 M
210.28 823.31 L
215.42 823.305 L
220.56 823.273 L
225.7 823.14 L
230.84 822.735 L
235.98 821.733 L
241.12 819.607 L
246.26 815.6 L
251.4 808.759 L
256.54 798.053 L
261.68 782.64 L
266.82 762.284 L
271.96 737.867 L
277.1 711.73 L
282.24 687.472 L
287.38 668.974 L
292.52 659.021 L
297.66 658.338 L
302.8 665.742 L
307.94 678.791 L
313.08 694.929 L
318.22 712.033 L
323.36 728.612 L
328.5 743.801 L
333.64 757.192 L
338.78 768.688 L
343.92 778.372 L
349.06 786.419 L
354.2 793.043 L
359.34 798.462 L
364.48 802.875 L
369.62 806.463 L
374.76 809.377 L
379.9 811.746 L
385.04 813.675 L
390.18 815.249 L
395.32 816.538 L
400.46 817.598 L
405.6 818.473 L
410.74 819.199 L
415.88 819.805 L
421.02 820.313 L
426.16 820.743 L
431.3 821.109 L
436.44 821.423 L
441.58 821.696 L
446.72 821.936 L
451.86 822.15 L
457 822.344 L
462.14 822.525 L
467.28 822.699 L
472.42 822.873 L
477.56 823.054 L
482.7 823.253 L
487.84 823.487 L
492.98 823.778 L
498.12 824.17 L
503.26 824.732 L
508.4 825.576 L
513.54 826.837 L
518.68 828.372 L
523.82 829 L
528.96 828.073 L
534.1 826.882 L
539.24 826.106 L
544.38 825.807 L
549.52 825.655 L
554.66 812.6 L
559.8 821.723 L
564.94 822.923 L
570.08 823.302 L
575.22 823.529 L
580.36 823.704 L
585.5 822.482 L
590.64 822.279 L
595.78 823.047 L
600.92 823.296 L
606.06 823.293 L
611.2 823.113 L
616.34 822.588 L
621.48 823.108 L
626.62 823.26 L
631.76 823.344 L
636.9 823.341 L
642.04 823.193 L
647.18 823.174 L
652.32 823.239 L
657.46 823.251 L
662.6 823.216 L
667.74 823.168 L
672.88 823.139 L
678.02 823.134 L
683.16 823.143 L
688.3 823.161 L
693.44 823.184 L
698.58 823.152 L
703.72 823.175 L
708.86 823.21 L
714 823.298 L
S
GR
GS
[0.6 0 0 0.6 0 0] CT
1 0 0 RC
[12 12] 0 setdash
2 LJ
3.333 LW
N
205.14 823.311 M
210.28 823.31 L
215.42 823.305 L
220.56 823.273 L
225.7 823.139 L
230.84 822.734 L
235.98 821.734 L
241.12 819.61 L
246.26 815.613 L
251.4 808.8 L
256.54 798.164 L
261.68 782.901 L
266.82 762.83 L
271.96 738.876 L
277.1 713.379 L
282.24 689.824 L
287.38 671.884 L
292.52 662.117 L
297.66 661.135 L
302.8 667.747 L
307.94 679.731 L
313.08 694.666 L
318.22 710.662 L
323.36 726.218 L
328.5 740.624 L
333.64 753.473 L
338.78 764.531 L
343.92 774.015 L
349.06 782.055 L
354.2 788.737 L
359.34 794.321 L
364.48 799 L
369.62 802.876 L
374.76 806.069 L
379.9 808.702 L
385.04 810.836 L
390.18 812.555 L
395.32 813.95 L
400.46 815.068 L
405.6 815.957 L
410.74 816.685 L
415.88 817.317 L
421.02 817.886 L
426.16 818.411 L
431.3 818.902 L
436.44 819.364 L
441.58 819.795 L
446.72 820.186 L
451.86 820.525 L
457 820.802 L
462.14 821.018 L
467.28 821.181 L
472.42 821.305 L
477.56 821.406 L
482.7 821.497 L
487.84 821.591 L
492.98 821.694 L
498.12 821.809 L
503.26 821.928 L
508.4 822.044 L
513.54 822.148 L
518.68 822.235 L
523.82 822.302 L
528.96 822.351 L
534.1 822.39 L
539.24 822.429 L
544.38 822.473 L
549.52 822.525 L
554.66 822.583 L
559.8 822.643 L
564.94 822.699 L
570.08 822.744 L
575.22 822.779 L
580.36 822.807 L
585.5 822.833 L
590.64 822.862 L
595.78 822.895 L
600.92 822.933 L
606.06 822.973 L
611.2 823.01 L
616.34 823.039 L
621.48 823.061 L
626.62 823.077 L
631.76 823.087 L
636.9 823.081 L
642.04 823.068 L
647.18 823.085 L
652.32 823.128 L
657.46 823.099 L
662.6 823.133 L
667.74 823.124 L
672.88 823.022 L
678.02 823.052 L
683.16 823.109 L
688.3 823.133 L
693.44 823.113 L
698.58 823.185 L
703.72 823.185 L
708.86 823.193 L
714 823.169 L
S
GR
GS
[0.6 0 0 0.6 0 0] CT
0 1 0 RC
[12 3 6 3] 0 setdash
2 LJ
3.333 LW
N
205.14 823.311 M
210.28 823.31 L
215.42 823.305 L
220.56 823.273 L
225.7 823.139 L
230.84 822.734 L
235.98 821.731 L
241.12 819.603 L
246.26 815.591 L
251.4 808.742 L
256.54 798.024 L
261.68 782.594 L
266.82 762.218 L
271.96 737.774 L
277.1 711.607 L
282.24 687.311 L
287.38 668.761 L
292.52 658.747 L
297.66 658 L
302.8 665.308 L
307.94 678.278 L
313.08 694.329 L
318.22 711.394 L
323.36 727.879 L
328.5 743.046 L
333.64 756.46 L
338.78 767.91 L
343.92 777.653 L
349.06 785.834 L
354.2 792.573 L
359.34 798.151 L
364.48 802.791 L
369.62 806.62 L
374.76 809.764 L
379.9 812.359 L
385.04 814.509 L
390.18 816.354 L
395.32 818.147 L
400.46 820.837 L
405.6 814.011 L
410.74 816.789 L
415.88 818.365 L
421.02 819.232 L
426.16 819.879 L
431.3 820.427 L
436.44 820.927 L
441.58 821.375 L
446.72 821.793 L
451.86 822.173 L
457 822.525 L
462.14 822.876 L
467.28 823.298 L
472.42 824.178 L
477.56 823.376 L
482.7 821.419 L
487.84 821.943 L
492.98 822.253 L
498.12 822.497 L
503.26 822.719 L
508.4 822.918 L
513.54 823.109 L
518.68 823.338 L
523.82 823.628 L
528.96 824.032 L
534.1 823.392 L
539.24 822.349 L
544.38 822.553 L
549.52 822.776 L
554.66 822.962 L
559.8 823.139 L
564.94 823.323 L
570.08 823.528 L
575.22 823.766 L
580.36 823.684 L
585.5 822.847 L
590.64 822.741 L
595.78 822.908 L
600.92 823.083 L
606.06 823.255 L
611.2 823.439 L
616.34 823.621 L
621.48 823.648 L
626.62 823.169 L
631.76 822.895 L
636.9 822.982 L
642.04 823.14 L
647.18 823.307 L
652.32 823.476 L
657.46 823.586 L
662.6 823.43 L
667.74 823.081 L
672.88 823.018 L
678.02 823.133 L
683.16 823.286 L
688.3 823.436 L
693.44 823.518 L
698.58 823.386 L
703.72 823.144 L
708.86 823.099 L
714 823.198 L
S
GR
GS
[0.6 0 0 0.6 0 0] CT
1 GC
N
876 829 M
1390 829 L
1390 658 L
876 658 L
cp
f
GR
GS
[0.6 0 0 0.6 0 0] CT
0.149 GC
2 setlinecap
1 LJ
0.833 LW
N
876 829 M
1390 829 L
S
GR
GS
[0.6 0 0 0.6 0 0] CT
0.149 GC
2 setlinecap
1 LJ
0.833 LW
N
876 658 M
1390 658 L
S
GR
GS
[0.6 0 0 0.6 0 0] CT
0.149 GC
2 setlinecap
1 LJ
0.833 LW
N
876 829 M
876 823.86 L
S
GR
GS
[0.6 0 0 0.6 0 0] CT
0.149 GC
2 setlinecap
1 LJ
0.833 LW
N
957.847 829 M
957.847 823.86 L
S
GR
GS
[0.6 0 0 0.6 0 0] CT
0.149 GC
2 setlinecap
1 LJ
0.833 LW
N
1039.694 829 M
1039.694 823.86 L
S
GR
GS
[0.6 0 0 0.6 0 0] CT
0.149 GC
2 setlinecap
1 LJ
0.833 LW
N
1121.541 829 M
1121.541 823.86 L
S
GR
GS
[0.6 0 0 0.6 0 0] CT
0.149 GC
2 setlinecap
1 LJ
0.833 LW
N
1203.389 829 M
1203.389 823.86 L
S
GR
GS
[0.6 0 0 0.6 0 0] CT
0.149 GC
2 setlinecap
1 LJ
0.833 LW
N
1285.236 829 M
1285.236 823.86 L
S
GR
GS
[0.6 0 0 0.6 0 0] CT
0.149 GC
2 setlinecap
1 LJ
0.833 LW
N
1367.083 829 M
1367.083 823.86 L
S
GR
GS
[0.6 0 0 0.6 0 0] CT
0.149 GC
2 setlinecap
1 LJ
0.833 LW
N
876 658 M
876 663.14 L
S
GR
GS
[0.6 0 0 0.6 0 0] CT
0.149 GC
2 setlinecap
1 LJ
0.833 LW
N
957.847 658 M
957.847 663.14 L
S
GR
GS
[0.6 0 0 0.6 0 0] CT
0.149 GC
2 setlinecap
1 LJ
0.833 LW
N
1039.694 658 M
1039.694 663.14 L
S
GR
GS
[0.6 0 0 0.6 0 0] CT
0.149 GC
2 setlinecap
1 LJ
0.833 LW
N
1121.541 658 M
1121.541 663.14 L
S
GR
GS
[0.6 0 0 0.6 0 0] CT
0.149 GC
2 setlinecap
1 LJ
0.833 LW
N
1203.389 658 M
1203.389 663.14 L
S
GR
GS
[0.6 0 0 0.6 0 0] CT
0.149 GC
2 setlinecap
1 LJ
0.833 LW
N
1285.236 658 M
1285.236 663.14 L
S
GR
GS
[0.6 0 0 0.6 0 0] CT
0.149 GC
2 setlinecap
1 LJ
0.833 LW
N
1367.083 658 M
1367.083 663.14 L
S
GR
GS
[0.6 0 0 0.6 525.60002 502.39999] CT
0.149 GC
/Helvetica-Bold 25 F
GS
[1 0 0 1 0 0] CT
-7 26 moveto 
1 -1 scale
(0) t 
GR
GR
GS
[0.6 0 0 0.6 574.70829 502.39999] CT
0.149 GC
/Helvetica-Bold 25 F
GS
[1 0 0 1 0 0] CT
-7 26 moveto 
1 -1 scale
(1) t 
GR
GR
GS
[0.6 0 0 0.6 623.81655 502.39999] CT
0.149 GC
/Helvetica-Bold 25 F
GS
[1 0 0 1 0 0] CT
-7 26 moveto 
1 -1 scale
(2) t 
GR
GR
GS
[0.6 0 0 0.6 672.92486 502.39999] CT
0.149 GC
/Helvetica-Bold 25 F
GS
[1 0 0 1 0 0] CT
-7 26 moveto 
1 -1 scale
(3) t 
GR
GR
GS
[0.6 0 0 0.6 722.03316 502.39999] CT
0.149 GC
/Helvetica-Bold 25 F
GS
[1 0 0 1 0 0] CT
-7 26 moveto 
1 -1 scale
(4) t 
GR
GR
GS
[0.6 0 0 0.6 771.14146 502.39999] CT
0.149 GC
/Helvetica-Bold 25 F
GS
[1 0 0 1 0 0] CT
-7 26 moveto 
1 -1 scale
(5) t 
GR
GR
GS
[0.6 0 0 0.6 820.24969 502.39999] CT
0.149 GC
/Helvetica-Bold 25 F
GS
[1 0 0 1 0 0] CT
-7 26 moveto 
1 -1 scale
(6) t 
GR
GR
GS
[0.6 0 0 0.6 646.20003 539.4] CT
0.149 GC
N
f876989070
f
GR
GS
[0.6 0 0 0.6 657.60003 539.4] CT
0.149 GC
/Helvetica-Bold 27.5 F
GS
[1 0 0 1 0 0] CT
0 0 moveto 
1 -1 scale
( [rad/s]) t 
GR
GR
GS
[0.6 0 0 0.6 0 0] CT
0.149 GC
2 setlinecap
1 LJ
0.833 LW
N
876 829 M
876 658 L
S
GR
GS
[0.6 0 0 0.6 0 0] CT
0.149 GC
2 setlinecap
1 LJ
0.833 LW
N
1390 829 M
1390 658 L
S
GR
GS
[0.6 0 0 0.6 0 0] CT
0.149 GC
2 setlinecap
1 LJ
0.833 LW
N
876 829 M
881.14 829 L
S
GR
GS
[0.6 0 0 0.6 0 0] CT
0.149 GC
2 setlinecap
1 LJ
0.833 LW
N
876 743.5 M
881.14 743.5 L
S
GR
GS
[0.6 0 0 0.6 0 0] CT
0.149 GC
2 setlinecap
1 LJ
0.833 LW
N
876 658 M
881.14 658 L
S
GR
GS
[0.6 0 0 0.6 0 0] CT
0.149 GC
2 setlinecap
1 LJ
0.833 LW
N
1390 829 M
1384.86 829 L
S
GR
GS
[0.6 0 0 0.6 0 0] CT
0.149 GC
2 setlinecap
1 LJ
0.833 LW
N
1390 743.5 M
1384.86 743.5 L
S
GR
GS
[0.6 0 0 0.6 0 0] CT
0.149 GC
2 setlinecap
1 LJ
0.833 LW
N
1390 658 M
1384.86 658 L
S
GR
GS
[0.6 0 0 0.6 520.60003 497.4] CT
0.149 GC
/Helvetica-Bold 25 F
GS
[1 0 0 1 0 0] CT
-14 10 moveto 
1 -1 scale
(0) t 
GR
GR
GS
[0.6 0 0 0.6 520.60003 446.1] CT
0.149 GC
/Helvetica-Bold 25 F
GS
[1 0 0 1 0 0] CT
-28 10 moveto 
1 -1 scale
(20) t 
GR
GR
GS
[0.6 0 0 0.6 520.60003 394.8] CT
0.149 GC
/Helvetica-Bold 25 F
GS
[1 0 0 1 0 0] CT
-28 10 moveto 
1 -1 scale
(40) t 
GR
GR
GS
[0 -0.6 0.6 0 490.20002 458.4] CT
0.149 GC
/Helvetica-Bold 27.5 F
GS
[1 0 0 1 0 0] CT
0 0 moveto 
1 -1 scale
(b) t 
GR
GR
GS
[0 -0.6 0.6 0 498.00002 448.2] CT
0.149 GC
/Helvetica-Bold 22 F
GS
[1 0 0 1 0 0] CT
0 0 moveto 
1 -1 scale
(66) t 
GR
GR
GS
[0.6 0 0 0.6 0 0] CT
0 0 1 RC
1 LJ
3.333 LW
N
881.14 829 M
886.28 829 L
891.42 829 L
896.56 828.998 L
901.7 828.99 L
906.84 828.963 L
911.98 828.895 L
917.12 828.74 L
922.26 828.429 L
927.4 827.86 L
932.54 826.893 L
937.68 825.357 L
942.82 823.07 L
947.96 819.881 L
953.1 815.73 L
958.24 810.707 L
963.38 805.065 L
968.52 799.153 L
973.66 793.319 L
978.8 787.761 L
983.94 782.599 L
989.08 777.791 L
994.22 773.244 L
999.36 768.809 L
1004.5 764.348 L
1009.64 759.587 L
1014.78 754.197 L
1019.92 747.751 L
1025.06 739.861 L
1030.2 730.423 L
1035.34 719.879 L
1040.48 709.23 L
1045.62 699.62 L
1050.76 691.684 L
1055.9 685.277 L
1061.04 679.842 L
1066.18 675.072 L
1071.32 671.256 L
1076.46 669.016 L
1081.6 668.711 L
1086.74 670.269 L
1091.88 673.3 L
1097.02 677.427 L
1102.16 682.373 L
1107.3 687.897 L
1112.44 693.75 L
1117.58 699.699 L
1122.72 705.566 L
1127.86 711.233 L
1133 716.651 L
1138.14 721.883 L
1143.28 727.065 L
1148.42 732.34 L
1153.56 737.82 L
1158.7 743.568 L
1163.84 749.656 L
1168.98 756.199 L
1174.12 763.419 L
1179.26 771.722 L
1184.4 781.688 L
1189.54 792.242 L
1194.68 792.821 L
1199.82 787.57 L
1204.96 791.211 L
1210.1 807.057 L
1215.24 809.88 L
1220.38 806.907 L
1225.52 807.767 L
1230.66 825.812 L
1235.8 805.631 L
1240.94 794.666 L
1246.08 791.626 L
1251.22 788.426 L
1256.36 808.688 L
1261.5 798.59 L
1266.64 800.336 L
1271.78 796.455 L
1276.92 800.547 L
1282.06 804.005 L
1287.2 798.799 L
1292.34 805.896 L
1297.48 803.614 L
1302.62 805.367 L
1307.76 807.159 L
1312.9 810.197 L
1318.04 813.488 L
1323.18 816.071 L
1328.32 817.716 L
1333.46 818.899 L
1338.6 820.345 L
1343.74 822.01 L
1348.88 823.592 L
1354.02 824.791 L
1359.16 825.275 L
1364.3 824.887 L
1369.44 823.242 L
1374.58 823.966 L
1379.72 823.076 L
1384.86 824.794 L
1390 823.263 L
S
GR
GS
[0.6 0 0 0.6 0 0] CT
1 0 0 RC
[12 12] 0 setdash
2 LJ
3.333 LW
N
881.14 829 M
886.28 829 L
891.42 829 L
896.56 829 L
901.7 828.996 L
906.84 828.98 L
911.98 828.93 L
917.12 828.809 L
922.26 828.552 L
927.4 828.062 L
932.54 827.21 L
937.68 825.837 L
942.82 823.773 L
947.96 820.885 L
953.1 817.113 L
958.24 812.559 L
963.38 807.435 L
968.52 802.067 L
973.66 796.71 L
978.8 791.627 L
983.94 786.788 L
989.08 782.282 L
994.22 777.942 L
999.36 773.634 L
1004.5 769.321 L
1009.64 764.706 L
1014.78 759.526 L
1019.92 753.477 L
1025.06 746.368 L
1030.2 738.118 L
1035.34 729.004 L
1040.48 719.894 L
1045.62 711.707 L
1050.76 704.649 L
1055.9 698.581 L
1061.04 693.595 L
1066.18 689.644 L
1071.32 686.312 L
1076.46 683.482 L
1081.6 681.924 L
1086.74 682.306 L
1091.88 684.181 L
1097.02 686.487 L
1102.16 689.101 L
1107.3 692.326 L
1112.44 696.432 L
1117.58 700.969 L
1122.72 705.252 L
1127.86 709.21 L
1133 712.908 L
1138.14 716.707 L
1143.28 720.402 L
1148.42 723.946 L
1153.56 727.423 L
1158.7 730.962 L
1163.84 734.471 L
1168.98 738.023 L
1174.12 741.559 L
1179.26 745.004 L
1184.4 748.299 L
1189.54 751.423 L
1194.68 754.236 L
1199.82 756.752 L
1204.96 759.062 L
1210.1 761.151 L
1215.24 763.03 L
1220.38 764.694 L
1225.52 766.185 L
1230.66 767.526 L
1235.8 768.778 L
1240.94 770.025 L
1246.08 771.342 L
1251.22 772.772 L
1256.36 774.346 L
1261.5 776.014 L
1266.64 777.746 L
1271.78 779.493 L
1276.92 781.27 L
1282.06 783.133 L
1287.2 785.072 L
1292.34 787.1 L
1297.48 789.263 L
1302.62 791.64 L
1307.76 794.274 L
1312.9 797.166 L
1318.04 801.371 L
1323.18 802.611 L
1328.32 806.675 L
1333.46 805.98 L
1338.6 808.794 L
1343.74 805.591 L
1348.88 804.576 L
1354.02 806.307 L
1359.16 807.891 L
1364.3 812.535 L
1369.44 812.42 L
1374.58 812.453 L
1379.72 813.623 L
1384.86 815.316 L
1390 817.065 L
S
GR
GS
[0.6 0 0 0.6 0 0] CT
0 1 0 RC
[12 3 6 3] 0 setdash
2 LJ
3.333 LW
N
881.14 829 M
886.28 829 L
891.42 829 L
896.56 829 L
901.7 828.996 L
906.84 828.979 L
911.98 828.928 L
917.12 828.804 L
922.26 828.539 L
927.4 828.034 L
932.54 827.153 L
937.68 825.728 L
942.82 823.578 L
947.96 820.556 L
953.1 816.586 L
958.24 811.764 L
963.38 806.309 L
968.52 800.571 L
973.66 794.833 L
978.8 789.387 L
983.94 784.21 L
989.08 779.398 L
994.22 774.768 L
999.36 770.175 L
1004.5 765.574 L
1009.64 760.62 L
1014.78 754.994 L
1019.92 748.285 L
1025.06 740.123 L
1030.2 730.247 L
1035.34 718.552 L
1040.48 711.062 L
1045.62 699.512 L
1050.76 690.95 L
1055.9 683.864 L
1061.04 677.924 L
1066.18 672.963 L
1071.32 668.776 L
1076.46 666.042 L
1081.6 677.485 L
1086.74 666.497 L
1091.88 669.706 L
1097.02 673.858 L
1102.16 678.67 L
1107.3 684.431 L
1112.44 692.187 L
1117.58 700.686 L
1122.72 714.757 L
1127.86 708.003 L
1133 716.585 L
1138.14 735.508 L
1143.28 726.165 L
1148.42 729.839 L
1153.56 743.193 L
1158.7 745.483 L
1163.84 774.274 L
1168.98 746.78 L
1174.12 747.926 L
1179.26 757.505 L
1184.4 768.064 L
1189.54 762.482 L
1194.68 768.298 L
1199.82 780.286 L
1204.96 782.074 L
1210.1 780.251 L
1215.24 778.924 L
1220.38 790.705 L
1225.52 788.304 L
1230.66 778.183 L
1235.8 781.214 L
1240.94 781.055 L
1246.08 786.009 L
1251.22 793.667 L
1256.36 792.525 L
1261.5 787.828 L
1266.64 794.021 L
1271.78 800.831 L
1276.92 796.238 L
1282.06 796.475 L
1287.2 800.393 L
1292.34 807.925 L
1297.48 810.733 L
1302.62 805.613 L
1307.76 806.681 L
1312.9 811.364 L
1318.04 808.972 L
1323.18 807.151 L
1328.32 810.621 L
1333.46 816.676 L
1338.6 815.841 L
1343.74 812.348 L
1348.88 815.012 L
1354.02 816.026 L
1359.16 814.372 L
1364.3 816.08 L
1369.44 819.734 L
1374.58 818.732 L
1379.72 816.53 L
1384.86 818.731 L
1390 820.1 L
S
GR
%%Trailer
%%Pages: 1
%%EOF
