%!PS-Adobe-3.0 EPSF-3.0
%%Creator: (MATLAB, The Mathworks, Inc. Version 9.10.0.1739362 \(R2021a\) Update 5. Operating System: Windows 10)
%%Title: (C:/Users/rkurnia/Documents/2. publication/202211 NEMOH MANUAL/figures/Cylinder/excForce.eps)
%%CreationDate: 2022-11-24T09:52:44
%%Pages: (atend)
%%BoundingBox:     0     0   922   576
%%LanguageLevel: 3
%%EndComments
%%BeginProlog
%%BeginResource: procset (Apache XML Graphics Std ProcSet) 1.2 0
%%Version: 1.2 0
%%Copyright: (Copyright 2001-2003,2010 The Apache Software Foundation. License terms: http://www.apache.org/licenses/LICENSE-2.0)
/bd{bind def}bind def
/ld{load def}bd
/GR/grestore ld
/GS/gsave ld
/RM/rmoveto ld
/C/curveto ld
/t/show ld
/L/lineto ld
/ML/setmiterlimit ld
/CT/concat ld
/f/fill ld
/N/newpath ld
/S/stroke ld
/CC/setcmykcolor ld
/A/ashow ld
/cp/closepath ld
/RC/setrgbcolor ld
/LJ/setlinejoin ld
/GC/setgray ld
/LW/setlinewidth ld
/M/moveto ld
/re {4 2 roll M
1 index 0 rlineto
0 exch rlineto
neg 0 rlineto
cp } bd
/_ctm matrix def
/_tm matrix def
/BT { _ctm currentmatrix pop matrix _tm copy pop 0 0 moveto } bd
/ET { _ctm setmatrix } bd
/iTm { _ctm setmatrix _tm concat } bd
/Tm { _tm astore pop iTm 0 0 moveto } bd
/ux 0.0 def
/uy 0.0 def
/F {
  /Tp exch def
  /Tf exch def
  Tf findfont Tp scalefont setfont
  /cf Tf def  /cs Tp def
} bd
/ULS {currentpoint /uy exch def /ux exch def} bd
/ULE {
  /Tcx currentpoint pop def
  gsave
  newpath
  cf findfont cs scalefont dup
  /FontMatrix get 0 get /Ts exch def /FontInfo get dup
  /UnderlinePosition get Ts mul /To exch def
  /UnderlineThickness get Ts mul /Tt exch def
  ux uy To add moveto  Tcx uy To add lineto
  Tt setlinewidth stroke
  grestore
} bd
/OLE {
  /Tcx currentpoint pop def
  gsave
  newpath
  cf findfont cs scalefont dup
  /FontMatrix get 0 get /Ts exch def /FontInfo get dup
  /UnderlinePosition get Ts mul /To exch def
  /UnderlineThickness get Ts mul /Tt exch def
  ux uy To add cs add moveto Tcx uy To add cs add lineto
  Tt setlinewidth stroke
  grestore
} bd
/SOE {
  /Tcx currentpoint pop def
  gsave
  newpath
  cf findfont cs scalefont dup
  /FontMatrix get 0 get /Ts exch def /FontInfo get dup
  /UnderlinePosition get Ts mul /To exch def
  /UnderlineThickness get Ts mul /Tt exch def
  ux uy To add cs 10 mul 26 idiv add moveto Tcx uy To add cs 10 mul 26 idiv add lineto
  Tt setlinewidth stroke
  grestore
} bd
/QT {
/Y22 exch store
/X22 exch store
/Y21 exch store
/X21 exch store
currentpoint
/Y21 load 2 mul add 3 div exch
/X21 load 2 mul add 3 div exch
/X21 load 2 mul /X22 load add 3 div
/Y21 load 2 mul /Y22 load add 3 div
/X22 load /Y22 load curveto
} bd
/SSPD {
dup length /d exch dict def
{
/v exch def
/k exch def
currentpagedevice k known {
/cpdv currentpagedevice k get def
v cpdv ne {
/upd false def
/nullv v type /nulltype eq def
/nullcpdv cpdv type /nulltype eq def
nullv nullcpdv or
{
/upd true def
} {
/sametype v type cpdv type eq def
sametype {
v type /arraytype eq {
/vlen v length def
/cpdvlen cpdv length def
vlen cpdvlen eq {
0 1 vlen 1 sub {
/i exch def
/obj v i get def
/cpdobj cpdv i get def
obj cpdobj ne {
/upd true def
exit
} if
} for
} {
/upd true def
} ifelse
} {
v type /dicttype eq {
v {
/dv exch def
/dk exch def
/cpddv cpdv dk get def
dv cpddv ne {
/upd true def
exit
} if
} forall
} {
/upd true def
} ifelse
} ifelse
} if
} ifelse
upd true eq {
d k v put
} if
} if
} if
} forall
d length 0 gt {
d setpagedevice
} if
} bd
/RE { % /NewFontName [NewEncodingArray] /FontName RE -
  findfont dup length dict begin
  {
    1 index /FID ne
    {def} {pop pop} ifelse
  } forall
  /Encoding exch def
  /FontName 1 index def
  currentdict definefont pop
  end
} bind def
%%EndResource
%%BeginResource: procset (Apache XML Graphics EPS ProcSet) 1.0 0
%%Version: 1.0 0
%%Copyright: (Copyright 2002-2003 The Apache Software Foundation. License terms: http://www.apache.org/licenses/LICENSE-2.0)
/BeginEPSF { %def
/b4_Inc_state save def         % Save state for cleanup
/dict_count countdictstack def % Count objects on dict stack
/op_count count 1 sub def      % Count objects on operand stack
userdict begin                 % Push userdict on dict stack
/showpage { } def              % Redefine showpage, { } = null proc
0 setgray 0 setlinecap         % Prepare graphics state
1 setlinewidth 0 setlinejoin
10 setmiterlimit [ ] 0 setdash newpath
/languagelevel where           % If level not equal to 1 then
{pop languagelevel             % set strokeadjust and
1 ne                           % overprint to their defaults.
{false setstrokeadjust false setoverprint
} if
} if
} bd
/EndEPSF { %def
count op_count sub {pop} repeat            % Clean up stacks
countdictstack dict_count sub {end} repeat
b4_Inc_state restore
} bd
%%EndResource
%FOPBeginFontDict
%%IncludeResource: font Courier-Oblique
%%IncludeResource: font Courier-BoldOblique
%%IncludeResource: font Courier-Bold
%%IncludeResource: font ZapfDingbats
%%IncludeResource: font Symbol
%%IncludeResource: font Helvetica
%%IncludeResource: font Helvetica-Oblique
%%IncludeResource: font Helvetica-Bold
%%IncludeResource: font Helvetica-BoldOblique
%%IncludeResource: font Times-Roman
%%IncludeResource: font Times-Italic
%%IncludeResource: font Times-Bold
%%IncludeResource: font Times-BoldItalic
%%IncludeResource: font Courier
%FOPEndFontDict
%%BeginResource: encoding WinAnsiEncoding
/WinAnsiEncoding [
/.notdef /.notdef /.notdef /.notdef /.notdef
/.notdef /.notdef /.notdef /.notdef /.notdef
/.notdef /.notdef /.notdef /.notdef /.notdef
/.notdef /.notdef /.notdef /.notdef /.notdef
/.notdef /.notdef /.notdef /.notdef /.notdef
/.notdef /.notdef /.notdef /.notdef /.notdef
/.notdef /.notdef /space /exclam /quotedbl
/numbersign /dollar /percent /ampersand /quotesingle
/parenleft /parenright /asterisk /plus /comma
/hyphen /period /slash /zero /one
/two /three /four /five /six
/seven /eight /nine /colon /semicolon
/less /equal /greater /question /at
/A /B /C /D /E
/F /G /H /I /J
/K /L /M /N /O
/P /Q /R /S /T
/U /V /W /X /Y
/Z /bracketleft /backslash /bracketright /asciicircum
/underscore /quoteleft /a /b /c
/d /e /f /g /h
/i /j /k /l /m
/n /o /p /q /r
/s /t /u /v /w
/x /y /z /braceleft /bar
/braceright /asciitilde /bullet /Euro /bullet
/quotesinglbase /florin /quotedblbase /ellipsis /dagger
/daggerdbl /circumflex /perthousand /Scaron /guilsinglleft
/OE /bullet /Zcaron /bullet /bullet
/quoteleft /quoteright /quotedblleft /quotedblright /bullet
/endash /emdash /asciitilde /trademark /scaron
/guilsinglright /oe /bullet /zcaron /Ydieresis
/space /exclamdown /cent /sterling /currency
/yen /brokenbar /section /dieresis /copyright
/ordfeminine /guillemotleft /logicalnot /sfthyphen /registered
/macron /degree /plusminus /twosuperior /threesuperior
/acute /mu /paragraph /middot /cedilla
/onesuperior /ordmasculine /guillemotright /onequarter /onehalf
/threequarters /questiondown /Agrave /Aacute /Acircumflex
/Atilde /Adieresis /Aring /AE /Ccedilla
/Egrave /Eacute /Ecircumflex /Edieresis /Igrave
/Iacute /Icircumflex /Idieresis /Eth /Ntilde
/Ograve /Oacute /Ocircumflex /Otilde /Odieresis
/multiply /Oslash /Ugrave /Uacute /Ucircumflex
/Udieresis /Yacute /Thorn /germandbls /agrave
/aacute /acircumflex /atilde /adieresis /aring
/ae /ccedilla /egrave /eacute /ecircumflex
/edieresis /igrave /iacute /icircumflex /idieresis
/eth /ntilde /ograve /oacute /ocircumflex
/otilde /odieresis /divide /oslash /ugrave
/uacute /ucircumflex /udieresis /yacute /thorn
/ydieresis
] def
%%EndResource
%FOPBeginFontReencode
/Courier-Oblique findfont
dup length dict begin
  {1 index /FID ne {def} {pop pop} ifelse} forall
  /Encoding WinAnsiEncoding def
  currentdict
end
/Courier-Oblique exch definefont pop
/Courier-BoldOblique findfont
dup length dict begin
  {1 index /FID ne {def} {pop pop} ifelse} forall
  /Encoding WinAnsiEncoding def
  currentdict
end
/Courier-BoldOblique exch definefont pop
/Courier-Bold findfont
dup length dict begin
  {1 index /FID ne {def} {pop pop} ifelse} forall
  /Encoding WinAnsiEncoding def
  currentdict
end
/Courier-Bold exch definefont pop
/Helvetica findfont
dup length dict begin
  {1 index /FID ne {def} {pop pop} ifelse} forall
  /Encoding WinAnsiEncoding def
  currentdict
end
/Helvetica exch definefont pop
/Helvetica-Oblique findfont
dup length dict begin
  {1 index /FID ne {def} {pop pop} ifelse} forall
  /Encoding WinAnsiEncoding def
  currentdict
end
/Helvetica-Oblique exch definefont pop
/Helvetica-Bold findfont
dup length dict begin
  {1 index /FID ne {def} {pop pop} ifelse} forall
  /Encoding WinAnsiEncoding def
  currentdict
end
/Helvetica-Bold exch definefont pop
/Helvetica-BoldOblique findfont
dup length dict begin
  {1 index /FID ne {def} {pop pop} ifelse} forall
  /Encoding WinAnsiEncoding def
  currentdict
end
/Helvetica-BoldOblique exch definefont pop
/Times-Roman findfont
dup length dict begin
  {1 index /FID ne {def} {pop pop} ifelse} forall
  /Encoding WinAnsiEncoding def
  currentdict
end
/Times-Roman exch definefont pop
/Times-Italic findfont
dup length dict begin
  {1 index /FID ne {def} {pop pop} ifelse} forall
  /Encoding WinAnsiEncoding def
  currentdict
end
/Times-Italic exch definefont pop
/Times-Bold findfont
dup length dict begin
  {1 index /FID ne {def} {pop pop} ifelse} forall
  /Encoding WinAnsiEncoding def
  currentdict
end
/Times-Bold exch definefont pop
/Times-BoldItalic findfont
dup length dict begin
  {1 index /FID ne {def} {pop pop} ifelse} forall
  /Encoding WinAnsiEncoding def
  currentdict
end
/Times-BoldItalic exch definefont pop
/Courier findfont
dup length dict begin
  {1 index /FID ne {def} {pop pop} ifelse} forall
  /Encoding WinAnsiEncoding def
  currentdict
end
/Courier exch definefont pop
%FOPEndFontReencode
%%EndProlog
%%Page: 1 1
%%PageBoundingBox: 0 0 922 576
%%BeginPageSetup
[1 0 0 -1 0 576] CT
%%EndPageSetup
GS
[0.6 0 0 0.6 0 0] CT
1 GC
N
0 0 1536 960 re
f
GR
GS
[0.6 0 0 0.6 0 0] CT
1 GC
N
0 0 1536 960 re
f
GR
GS
[0.6 0 0 0.6 0 0] CT
1 GC
N
200 254 M
714 254 L
714 82 L
200 82 L
cp
f
GR
GS
[0.6 0 0 0.6 0 0] CT
0.149 GC
2 setlinecap
1 LJ
0.833 LW
N
200 254 M
714 254 L
S
GR
GS
[0.6 0 0 0.6 0 0] CT
0.149 GC
2 setlinecap
1 LJ
0.833 LW
N
200 82 M
714 82 L
S
GR
GS
[0.6 0 0 0.6 0 0] CT
0.149 GC
2 setlinecap
1 LJ
0.833 LW
N
200 254 M
200 248.86 L
S
GR
GS
[0.6 0 0 0.6 0 0] CT
0.149 GC
2 setlinecap
1 LJ
0.833 LW
N
281.847 254 M
281.847 248.86 L
S
GR
GS
[0.6 0 0 0.6 0 0] CT
0.149 GC
2 setlinecap
1 LJ
0.833 LW
N
363.694 254 M
363.694 248.86 L
S
GR
GS
[0.6 0 0 0.6 0 0] CT
0.149 GC
2 setlinecap
1 LJ
0.833 LW
N
445.541 254 M
445.541 248.86 L
S
GR
GS
[0.6 0 0 0.6 0 0] CT
0.149 GC
2 setlinecap
1 LJ
0.833 LW
N
527.389 254 M
527.389 248.86 L
S
GR
GS
[0.6 0 0 0.6 0 0] CT
0.149 GC
2 setlinecap
1 LJ
0.833 LW
N
609.236 254 M
609.236 248.86 L
S
GR
GS
[0.6 0 0 0.6 0 0] CT
0.149 GC
2 setlinecap
1 LJ
0.833 LW
N
691.083 254 M
691.083 248.86 L
S
GR
GS
[0.6 0 0 0.6 0 0] CT
0.149 GC
2 setlinecap
1 LJ
0.833 LW
N
200 82 M
200 87.14 L
S
GR
GS
[0.6 0 0 0.6 0 0] CT
0.149 GC
2 setlinecap
1 LJ
0.833 LW
N
281.847 82 M
281.847 87.14 L
S
GR
GS
[0.6 0 0 0.6 0 0] CT
0.149 GC
2 setlinecap
1 LJ
0.833 LW
N
363.694 82 M
363.694 87.14 L
S
GR
GS
[0.6 0 0 0.6 0 0] CT
0.149 GC
2 setlinecap
1 LJ
0.833 LW
N
445.541 82 M
445.541 87.14 L
S
GR
GS
[0.6 0 0 0.6 0 0] CT
0.149 GC
2 setlinecap
1 LJ
0.833 LW
N
527.389 82 M
527.389 87.14 L
S
GR
GS
[0.6 0 0 0.6 0 0] CT
0.149 GC
2 setlinecap
1 LJ
0.833 LW
N
609.236 82 M
609.236 87.14 L
S
GR
GS
[0.6 0 0 0.6 0 0] CT
0.149 GC
2 setlinecap
1 LJ
0.833 LW
N
691.083 82 M
691.083 87.14 L
S
GR
GS
[0.6 0 0 0.6 120 157.40001] CT
0.149 GC
/Helvetica-Bold 25 F
GS
[1 0 0 1 0 0] CT
-7 26 moveto 
1 -1 scale
(0) t 
GR
GR
GS
[0.6 0 0 0.6 169.10829 157.40001] CT
0.149 GC
/Helvetica-Bold 25 F
GS
[1 0 0 1 0 0] CT
-7 26 moveto 
1 -1 scale
(1) t 
GR
GR
GS
[0.6 0 0 0.6 218.21657 157.40001] CT
0.149 GC
/Helvetica-Bold 25 F
GS
[1 0 0 1 0 0] CT
-7 26 moveto 
1 -1 scale
(2) t 
GR
GR
GS
[0.6 0 0 0.6 267.32486 157.40001] CT
0.149 GC
/Helvetica-Bold 25 F
GS
[1 0 0 1 0 0] CT
-7 26 moveto 
1 -1 scale
(3) t 
GR
GR
GS
[0.6 0 0 0.6 316.43314 157.40001] CT
0.149 GC
/Helvetica-Bold 25 F
GS
[1 0 0 1 0 0] CT
-7 26 moveto 
1 -1 scale
(4) t 
GR
GR
GS
[0.6 0 0 0.6 365.54141 157.40001] CT
0.149 GC
/Helvetica-Bold 25 F
GS
[1 0 0 1 0 0] CT
-7 26 moveto 
1 -1 scale
(5) t 
GR
GR
GS
[0.6 0 0 0.6 414.64971 157.40001] CT
0.149 GC
/Helvetica-Bold 25 F
GS
[1 0 0 1 0 0] CT
-7 26 moveto 
1 -1 scale
(6) t 
GR
GR
GS
[0.6 0 0 0.6 240.60001 194.4] CT
0.149 GC
N
4.391 0.313 M
2.813 0.313 2.102 -0.852 QT
1.391 -2.016 1.391 -3.688 QT
1.391 -4.797 1.594 -5.859 QT
1.797 -6.922 2.195 -8.008 QT
2.594 -9.094 3.117 -10.047 QT
3.641 -11 4.281 -11.891 QT
4.406 -12.078 4.609 -12.078 QT
5.781 -12.078 5.891 -11.969 QT
6 -11.859 6 -11.703 QT
6 -11.547 5.922 -11.438 QT
3.375 -7.922 3.375 -4.953 QT
3.375 -3.672 3.969 -2.742 QT
4.563 -1.813 4.781 -1.813 QT
5.828 -1.813 6.727 -2.43 QT
7.625 -3.047 8.281 -4 QT
8.281 -4.5 8.445 -5.539 QT
8.609 -6.578 8.977 -7.391 QT
9.344 -8.203 9.844 -8.203 QT
11.484 -8.203 11.484 -7.453 QT
11.484 -7.016 11.305 -6.352 QT
11.125 -5.688 10.898 -5.117 QT
10.672 -4.547 10.344 -3.813 QT
10.672 -1.813 11.344 -1.813 QT
12.313 -1.813 13.289 -2.375 QT
14.266 -2.938 15.016 -3.852 QT
15.766 -4.766 16.195 -5.813 QT
16.625 -6.859 16.625 -7.813 QT
16.625 -8.656 16.359 -9.125 QT
16.094 -9.594 15.656 -10.117 QT
15.219 -10.641 15.219 -10.953 QT
15.219 -11.5 15.688 -11.953 QT
16.156 -12.406 16.688 -12.406 QT
18.359 -12.406 18.648 -11.781 QT
18.938 -11.156 18.938 -10.359 QT
18.938 -9.078 18.43 -7.125 QT
17.922 -5.172 17.266 -3.875 QT
16.359 -2.109 15 -0.898 QT
13.641 0.313 10.938 0.313 QT
9.859 0.313 9.195 -0.336 QT
8.531 -0.984 8.531 -0.984 QT
8.531 -0.984 7.547 -0.336 QT
6.563 0.313 4.391 0.313 QT
cp
f
GR
GS
[0.6 0 0 0.6 252.00001 194.4] CT
0.149 GC
/Helvetica-Bold 27.5 F
GS
[1 0 0 1 0 0] CT
0 0 moveto 
1 -1 scale
( [rad/s]) t 
GR
GR
GS
[0.6 0 0 0.6 0 0] CT
0.149 GC
2 setlinecap
1 LJ
0.833 LW
N
200 254 M
200 82 L
S
GR
GS
[0.6 0 0 0.6 0 0] CT
0.149 GC
2 setlinecap
1 LJ
0.833 LW
N
714 254 M
714 82 L
S
GR
GS
[0.6 0 0 0.6 0 0] CT
0.149 GC
2 setlinecap
1 LJ
0.833 LW
N
200 254 M
205.14 254 L
S
GR
GS
[0.6 0 0 0.6 0 0] CT
0.149 GC
2 setlinecap
1 LJ
0.833 LW
N
200 168 M
205.14 168 L
S
GR
GS
[0.6 0 0 0.6 0 0] CT
0.149 GC
2 setlinecap
1 LJ
0.833 LW
N
200 82 M
205.14 82 L
S
GR
GS
[0.6 0 0 0.6 0 0] CT
0.149 GC
2 setlinecap
1 LJ
0.833 LW
N
714 254 M
708.86 254 L
S
GR
GS
[0.6 0 0 0.6 0 0] CT
0.149 GC
2 setlinecap
1 LJ
0.833 LW
N
714 168 M
708.86 168 L
S
GR
GS
[0.6 0 0 0.6 0 0] CT
0.149 GC
2 setlinecap
1 LJ
0.833 LW
N
714 82 M
708.86 82 L
S
GR
GS
[0.6 0 0 0.6 115.00001 152.4] CT
0.149 GC
/Helvetica-Bold 25 F
GS
[1 0 0 1 0 0] CT
-14 10 moveto 
1 -1 scale
(0) t 
GR
GR
GS
[0.6 0 0 0.6 115.00001 100.8] CT
0.149 GC
/Helvetica-Bold 25 F
GS
[1 0 0 1 0 0] CT
-14 10 moveto 
1 -1 scale
(1) t 
GR
GR
GS
[0.6 0 0 0.6 115.00001 49.2] CT
0.149 GC
/Helvetica-Bold 25 F
GS
[1 0 0 1 0 0] CT
-14 10 moveto 
1 -1 scale
(2) t 
GR
GR
GS
[0 -0.6 0.6 0 93 122.4] CT
0.149 GC
/Helvetica-Bold 27.5 F
GS
[1 0 0 1 0 0] CT
0 0 moveto 
1 -1 scale
(|F) t 
GR
GR
GS
[0 -0.6 0.6 0 100.8 107.4] CT
0.149 GC
/Helvetica-Bold 22 F
GS
[1 0 0 1 0 0] CT
0 0 moveto 
1 -1 scale
(ex) t 
GR
GR
GS
[0 -0.6 0.6 0 93 92.4] CT
0.149 GC
/Helvetica-Bold 27.5 F
GS
[1 0 0 1 0 0] CT
0 0 moveto 
1 -1 scale
(|) t 
GR
GR
GS
[0 -0.6 0.6 0 100.8 87.6] CT
0.149 GC
/Helvetica-Bold 22 F
GS
[1 0 0 1 0 0] CT
0 0 moveto 
1 -1 scale
(1) t 
GR
GR
GS
[0.6 0 0 0.6 120 45.6] CT
0.149 GC
N
3.672 -0.719 M
3.672 -0.922 3.797 -1.078 QT
9 -6.25 L
3.797 -11.453 L
3.672 -11.578 3.672 -11.781 QT
3.672 -11.969 3.82 -12.125 QT
3.969 -12.281 4.172 -12.281 QT
5.344 -12.281 5.547 -12.125 QT
10.219 -7.453 L
14.875 -12.125 L
15.094 -12.281 15.25 -12.281 QT
16.453 -12.281 16.602 -12.133 QT
16.75 -11.984 16.75 -11.781 QT
16.75 -11.578 16.625 -11.453 QT
11.422 -6.25 L
16.625 -1.078 L
16.75 -0.922 16.75 -0.719 QT
16.75 -0.516 16.602 -0.367 QT
16.453 -0.219 15.25 -0.219 QT
15.063 -0.219 14.875 -0.406 QT
10.219 -5.047 L
5.547 -0.406 L
5.375 -0.219 4.172 -0.219 QT
3.969 -0.219 3.82 -0.375 QT
3.672 -0.531 3.672 -0.719 QT
cp
f
GR
GS
[0.6 0 0 0.6 132.60001 45.6] CT
0.149 GC
/Helvetica-Bold 25 F
GS
[1 0 0 1 0 0] CT
0 0 moveto 
1 -1 scale
(10) t 
GR
GR
GS
[0.6 0 0 0.6 149.40001 38.4] CT
0.149 GC
/Helvetica-Bold 20 F
GS
[1 0 0 1 0 0] CT
0 0 moveto 
1 -1 scale
(6) t 
GR
GR
GS
[0.6 0 0 0.6 0 0] CT
0 0 1 RC
1 LJ
3.333 LW
N
205.14 253.02 M
210.28 250.107 L
215.42 245.338 L
220.56 238.835 L
225.7 230.755 L
230.84 221.277 L
235.98 210.597 L
241.12 198.925 L
246.26 186.494 L
251.4 173.581 L
256.54 160.543 L
261.68 147.855 L
266.82 136.143 L
271.96 126.168 L
277.1 118.744 L
282.24 114.559 L
287.38 113.96 L
292.52 116.818 L
297.66 122.553 L
302.8 130.343 L
307.94 139.309 L
313.08 148.72 L
318.22 158.043 L
323.36 166.921 L
328.5 175.198 L
333.64 182.764 L
338.78 189.618 L
343.92 195.792 L
349.06 201.336 L
354.2 206.311 L
359.34 210.773 L
364.48 214.775 L
369.62 218.366 L
374.76 221.584 L
379.9 224.466 L
385.04 227.041 L
390.18 229.334 L
395.32 231.366 L
400.46 233.155 L
405.6 234.72 L
410.74 236.084 L
415.88 237.276 L
421.02 238.33 L
426.16 239.287 L
431.3 240.194 L
436.44 241.098 L
441.58 242.042 L
446.72 243.058 L
451.86 244.16 L
457 245.337 L
462.14 246.544 L
467.28 247.689 L
472.42 248.624 L
477.56 249.17 L
482.7 249.229 L
487.84 248.917 L
492.98 248.496 L
498.12 248.231 L
503.26 248.349 L
508.4 249.072 L
513.54 250.647 L
518.68 252.996 L
523.82 252.303 L
528.96 249.93 L
534.1 248.367 L
539.24 247.73 L
544.38 247.89 L
549.52 249.226 L
554.66 251.132 L
559.8 251.519 L
564.94 253.167 L
570.08 252.881 L
575.22 251.934 L
580.36 251.708 L
585.5 251.02 L
590.64 249.557 L
595.78 250.345 L
600.92 251.236 L
606.06 252.998 L
611.2 253.501 L
616.34 252.878 L
621.48 251.708 L
626.62 251.064 L
631.76 251.085 L
636.9 251.468 L
642.04 251.87 L
647.18 252.843 L
652.32 253.582 L
657.46 252.699 L
662.6 252.088 L
667.74 251.804 L
672.88 251.962 L
678.02 252.584 L
683.16 253.47 L
688.3 253.496 L
693.44 252.811 L
698.58 252.356 L
703.72 252.234 L
708.86 252.506 L
714 253.161 L
S
GR
GS
[0.6 0 0 0.6 0 0] CT
1 0 0 RC
[12 12] 0 setdash
2 LJ
3.333 LW
N
205.14 253.019 M
210.28 250.105 L
215.42 245.333 L
220.56 238.828 L
225.7 230.746 L
230.84 221.269 L
235.98 210.594 L
241.12 198.935 L
246.26 186.527 L
251.4 173.656 L
256.54 160.683 L
261.68 148.092 L
266.82 136.507 L
271.96 126.681 L
277.1 119.398 L
282.24 115.301 L
287.38 114.69 L
292.52 117.404 L
297.66 122.879 L
302.8 130.323 L
307.94 138.936 L
313.08 148.043 L
318.22 157.159 L
323.36 165.974 L
328.5 174.311 L
333.64 182.089 L
338.78 189.281 L
343.92 195.888 L
349.06 201.922 L
354.2 207.391 L
359.34 212.295 L
364.48 216.623 L
369.62 220.361 L
374.76 223.5 L
379.9 226.043 L
385.04 228.03 L
390.18 229.541 L
395.32 230.689 L
400.46 231.61 L
405.6 232.445 L
410.74 233.319 L
415.88 234.328 L
421.02 235.535 L
426.16 236.961 L
431.3 238.584 L
436.44 240.342 L
441.58 242.135 L
446.72 243.815 L
451.86 245.18 L
457 246.025 L
462.14 246.254 L
467.28 245.987 L
472.42 245.496 L
477.56 245.065 L
482.7 244.89 L
487.84 245.087 L
492.98 245.687 L
498.12 246.659 L
503.26 247.913 L
508.4 249.277 L
513.54 250.437 L
518.68 250.886 L
523.82 250.422 L
528.96 249.575 L
534.1 248.847 L
539.24 248.483 L
544.38 248.583 L
549.52 249.151 L
554.66 250.117 L
559.8 251.331 L
564.94 252.474 L
570.08 252.618 L
575.22 251.721 L
580.36 250.846 L
585.5 250.335 L
590.64 250.287 L
595.78 250.708 L
600.92 251.521 L
606.06 252.582 L
611.2 253.512 L
616.34 252.886 L
621.48 252.02 L
626.62 251.478 L
631.76 251.361 L
636.9 251.662 L
642.04 252.296 L
647.18 253.09 L
652.32 253.9 L
657.46 253.107 L
662.6 252.434 L
667.74 252.081 L
672.88 252.121 L
678.02 252.539 L
683.16 253.457 L
688.3 253.784 L
693.44 253.165 L
698.58 252.785 L
703.72 252.708 L
708.86 252.878 L
714 253.323 L
S
GR
GS
[0.6 0 0 0.6 0 0] CT
0 1 0 RC
[12 3 6 3] 0 setdash
2 LJ
3.333 LW
N
205.14 253.019 M
210.28 250.104 L
215.42 245.332 L
220.56 238.824 L
225.7 230.738 L
230.84 221.254 L
235.98 210.567 L
241.12 198.887 L
246.26 186.448 L
251.4 173.527 L
256.54 160.482 L
261.68 147.79 L
266.82 136.074 L
271.96 126.097 L
277.1 118.673 L
282.24 114.486 L
287.38 113.884 L
292.52 116.737 L
297.66 122.472 L
302.8 130.254 L
307.94 139.223 L
313.08 148.643 L
318.22 157.981 L
323.36 166.891 L
328.5 175.181 L
333.64 182.768 L
338.78 189.634 L
343.92 195.804 L
349.06 201.322 L
354.2 206.232 L
359.34 210.506 L
364.48 215.091 L
369.62 218.317 L
374.76 221.449 L
379.9 224.316 L
385.04 226.973 L
390.18 229.528 L
395.32 232.233 L
400.46 236.357 L
405.6 221.417 L
410.74 232.296 L
415.88 235.115 L
421.02 236.932 L
426.16 238.378 L
431.3 239.561 L
436.44 240.076 L
441.58 241.826 L
446.72 242.733 L
451.86 244.252 L
457 245.348 L
462.14 247.219 L
467.28 248.178 L
472.42 251.283 L
477.56 243.15 L
482.7 242.957 L
487.84 245.004 L
492.98 246.251 L
498.12 246.981 L
503.26 247.507 L
508.4 249.191 L
513.54 250.502 L
518.68 251.235 L
523.82 252.754 L
528.96 252.716 L
534.1 247.218 L
539.24 246.676 L
544.38 248.131 L
549.52 249.42 L
554.66 250.282 L
559.8 251.328 L
564.94 252.544 L
570.08 253.478 L
575.22 253.018 L
580.36 250.267 L
585.5 248.635 L
590.64 249.55 L
595.78 250.558 L
600.92 251.554 L
606.06 252.675 L
611.2 253.733 L
616.34 253.245 L
621.48 251.81 L
626.62 250.366 L
631.76 250.48 L
636.9 251.335 L
642.04 252.275 L
647.18 253.254 L
652.32 253.824 L
657.46 252.911 L
662.6 251.921 L
667.74 251.466 L
672.88 251.831 L
678.02 252.541 L
683.16 253.362 L
688.3 253.811 L
693.44 253.123 L
698.58 252.506 L
703.72 252.266 L
708.86 252.562 L
714 253.148 L
S
GR
GS
[0.6 0 0 0.6 0 0] CT
1 GC
N
701 184 M
701 94 L
398 94 L
398 184 L
cp
f
GR
GS
[0.6 0 0 0.6 274.07912 66.27258] CT
/Helvetica-Bold 22.5 F
GS
[1 0 0 1 0 0] CT
0 9 moveto 
1 -1 scale
(HYDROSTAR with IRR) t 
GR
GR
GS
[0.6 0 0 0.6 0 0] CT
0 0 1 RC
1 LJ
3.333 LW
N
403.004 110.454 M
453.045 110.454 L
S
GR
GS
[0.6 0 0 0.6 274.07912 83.4] CT
/Helvetica-Bold 22.5 F
GS
[1 0 0 1 0 0] CT
0 9 moveto 
1 -1 scale
(NEMOH with IRR) t 
GR
GR
GS
[0.6 0 0 0.6 0 0] CT
1 0 0 RC
[12 12] 0 setdash
2 LJ
3.333 LW
N
403.004 139 M
453.045 139 L
S
GR
GS
[0.6 0 0 0.6 274.07912 100.52742] CT
/Helvetica-Bold 22.5 F
GS
[1 0 0 1 0 0] CT
0 9 moveto 
1 -1 scale
(NEMOH without IRR) t 
GR
GR
GS
[0.6 0 0 0.6 0 0] CT
0 1 0 RC
[12 3 6 3] 0 setdash
2 LJ
3.333 LW
N
403.004 167.546 M
453.045 167.546 L
S
GR
GS
[0.6 0 0 0.6 0 0] CT
0.149 GC
10.0 ML
0.833 LW
N
398 184 M
398 94 L
701 94 L
701 184 L
cp
S
GR
GS
[0.6 0 0 0.6 0 0] CT
1 GC
N
876 254 M
1390 254 L
1390 82 L
876 82 L
cp
f
GR
GS
[0.6 0 0 0.6 0 0] CT
0.149 GC
2 setlinecap
1 LJ
0.833 LW
N
876 254 M
1390 254 L
S
GR
GS
[0.6 0 0 0.6 0 0] CT
0.149 GC
2 setlinecap
1 LJ
0.833 LW
N
876 82 M
1390 82 L
S
GR
GS
[0.6 0 0 0.6 0 0] CT
0.149 GC
2 setlinecap
1 LJ
0.833 LW
N
876 254 M
876 248.86 L
S
GR
GS
[0.6 0 0 0.6 0 0] CT
0.149 GC
2 setlinecap
1 LJ
0.833 LW
N
957.847 254 M
957.847 248.86 L
S
GR
GS
[0.6 0 0 0.6 0 0] CT
0.149 GC
2 setlinecap
1 LJ
0.833 LW
N
1039.694 254 M
1039.694 248.86 L
S
GR
GS
[0.6 0 0 0.6 0 0] CT
0.149 GC
2 setlinecap
1 LJ
0.833 LW
N
1121.541 254 M
1121.541 248.86 L
S
GR
GS
[0.6 0 0 0.6 0 0] CT
0.149 GC
2 setlinecap
1 LJ
0.833 LW
N
1203.389 254 M
1203.389 248.86 L
S
GR
GS
[0.6 0 0 0.6 0 0] CT
0.149 GC
2 setlinecap
1 LJ
0.833 LW
N
1285.236 254 M
1285.236 248.86 L
S
GR
GS
[0.6 0 0 0.6 0 0] CT
0.149 GC
2 setlinecap
1 LJ
0.833 LW
N
1367.083 254 M
1367.083 248.86 L
S
GR
GS
[0.6 0 0 0.6 0 0] CT
0.149 GC
2 setlinecap
1 LJ
0.833 LW
N
876 82 M
876 87.14 L
S
GR
GS
[0.6 0 0 0.6 0 0] CT
0.149 GC
2 setlinecap
1 LJ
0.833 LW
N
957.847 82 M
957.847 87.14 L
S
GR
GS
[0.6 0 0 0.6 0 0] CT
0.149 GC
2 setlinecap
1 LJ
0.833 LW
N
1039.694 82 M
1039.694 87.14 L
S
GR
GS
[0.6 0 0 0.6 0 0] CT
0.149 GC
2 setlinecap
1 LJ
0.833 LW
N
1121.541 82 M
1121.541 87.14 L
S
GR
GS
[0.6 0 0 0.6 0 0] CT
0.149 GC
2 setlinecap
1 LJ
0.833 LW
N
1203.389 82 M
1203.389 87.14 L
S
GR
GS
[0.6 0 0 0.6 0 0] CT
0.149 GC
2 setlinecap
1 LJ
0.833 LW
N
1285.236 82 M
1285.236 87.14 L
S
GR
GS
[0.6 0 0 0.6 0 0] CT
0.149 GC
2 setlinecap
1 LJ
0.833 LW
N
1367.083 82 M
1367.083 87.14 L
S
GR
GS
[0.6 0 0 0.6 525.60002 157.40001] CT
0.149 GC
/Helvetica-Bold 25 F
GS
[1 0 0 1 0 0] CT
-7 26 moveto 
1 -1 scale
(0) t 
GR
GR
GS
[0.6 0 0 0.6 574.70829 157.40001] CT
0.149 GC
/Helvetica-Bold 25 F
GS
[1 0 0 1 0 0] CT
-7 26 moveto 
1 -1 scale
(1) t 
GR
GR
GS
[0.6 0 0 0.6 623.81655 157.40001] CT
0.149 GC
/Helvetica-Bold 25 F
GS
[1 0 0 1 0 0] CT
-7 26 moveto 
1 -1 scale
(2) t 
GR
GR
GS
[0.6 0 0 0.6 672.92486 157.40001] CT
0.149 GC
/Helvetica-Bold 25 F
GS
[1 0 0 1 0 0] CT
-7 26 moveto 
1 -1 scale
(3) t 
GR
GR
GS
[0.6 0 0 0.6 722.03316 157.40001] CT
0.149 GC
/Helvetica-Bold 25 F
GS
[1 0 0 1 0 0] CT
-7 26 moveto 
1 -1 scale
(4) t 
GR
GR
GS
[0.6 0 0 0.6 771.14146 157.40001] CT
0.149 GC
/Helvetica-Bold 25 F
GS
[1 0 0 1 0 0] CT
-7 26 moveto 
1 -1 scale
(5) t 
GR
GR
GS
[0.6 0 0 0.6 820.24969 157.40001] CT
0.149 GC
/Helvetica-Bold 25 F
GS
[1 0 0 1 0 0] CT
-7 26 moveto 
1 -1 scale
(6) t 
GR
GR
GS
[0.6 0 0 0.6 646.20003 194.4] CT
0.149 GC
N
/f876989070{4.391 0.313 M
2.813 0.313 2.102 -0.852 QT
1.391 -2.016 1.391 -3.688 QT
1.391 -4.797 1.594 -5.859 QT
1.797 -6.922 2.195 -8.008 QT
2.594 -9.094 3.117 -10.047 QT
3.641 -11 4.281 -11.891 QT
4.406 -12.078 4.609 -12.078 QT
5.781 -12.078 5.891 -11.969 QT
6 -11.859 6 -11.703 QT
6 -11.547 5.922 -11.438 QT
3.375 -7.922 3.375 -4.953 QT
3.375 -3.672 3.969 -2.742 QT
4.563 -1.813 4.781 -1.813 QT
5.828 -1.813 6.727 -2.43 QT
7.625 -3.047 8.281 -4 QT
8.281 -4.5 8.445 -5.539 QT
8.609 -6.578 8.977 -7.391 QT
9.344 -8.203 9.844 -8.203 QT
11.484 -8.203 11.484 -7.453 QT
11.484 -7.016 11.305 -6.352 QT
11.125 -5.688 10.898 -5.117 QT
10.672 -4.547 10.344 -3.813 QT
10.672 -1.813 11.344 -1.813 QT
12.313 -1.813 13.289 -2.375 QT
14.266 -2.938 15.016 -3.852 QT
15.766 -4.766 16.195 -5.813 QT
16.625 -6.859 16.625 -7.813 QT
16.625 -8.656 16.359 -9.125 QT
16.094 -9.594 15.656 -10.117 QT
15.219 -10.641 15.219 -10.953 QT
15.219 -11.5 15.688 -11.953 QT
16.156 -12.406 16.688 -12.406 QT
18.359 -12.406 18.648 -11.781 QT
18.938 -11.156 18.938 -10.359 QT
18.938 -9.078 18.43 -7.125 QT
17.922 -5.172 17.266 -3.875 QT
16.359 -2.109 15 -0.898 QT
13.641 0.313 10.938 0.313 QT
9.859 0.313 9.195 -0.336 QT
8.531 -0.984 8.531 -0.984 QT
8.531 -0.984 7.547 -0.336 QT
6.563 0.313 4.391 0.313 QT
cp}def
f876989070
f
GR
GS
[0.6 0 0 0.6 657.60003 194.4] CT
0.149 GC
/Helvetica-Bold 27.5 F
GS
[1 0 0 1 0 0] CT
0 0 moveto 
1 -1 scale
( [rad/s]) t 
GR
GR
GS
[0.6 0 0 0.6 0 0] CT
0.149 GC
2 setlinecap
1 LJ
0.833 LW
N
876 254 M
876 82 L
S
GR
GS
[0.6 0 0 0.6 0 0] CT
0.149 GC
2 setlinecap
1 LJ
0.833 LW
N
1390 254 M
1390 82 L
S
GR
GS
[0.6 0 0 0.6 0 0] CT
0.149 GC
2 setlinecap
1 LJ
0.833 LW
N
876 253.949 M
881.14 253.949 L
S
GR
GS
[0.6 0 0 0.6 0 0] CT
0.149 GC
2 setlinecap
1 LJ
0.833 LW
N
876 167.974 M
881.14 167.974 L
S
GR
GS
[0.6 0 0 0.6 0 0] CT
0.149 GC
2 setlinecap
1 LJ
0.833 LW
N
876 82 M
881.14 82 L
S
GR
GS
[0.6 0 0 0.6 0 0] CT
0.149 GC
2 setlinecap
1 LJ
0.833 LW
N
1390 253.949 M
1384.86 253.949 L
S
GR
GS
[0.6 0 0 0.6 0 0] CT
0.149 GC
2 setlinecap
1 LJ
0.833 LW
N
1390 167.974 M
1384.86 167.974 L
S
GR
GS
[0.6 0 0 0.6 0 0] CT
0.149 GC
2 setlinecap
1 LJ
0.833 LW
N
1390 82 M
1384.86 82 L
S
GR
GS
[0.6 0 0 0.6 520.60003 152.36937] CT
0.149 GC
/Helvetica-Bold 25 F
GS
[1 0 0 1 0 0] CT
-14 10 moveto 
1 -1 scale
(0) t 
GR
GR
GS
[0.6 0 0 0.6 520.60003 100.78468] CT
0.149 GC
/Helvetica-Bold 25 F
GS
[1 0 0 1 0 0] CT
-56 10 moveto 
1 -1 scale
(5000) t 
GR
GR
GS
[0.6 0 0 0.6 520.60003 49.2] CT
0.149 GC
/Helvetica-Bold 25 F
GS
[1 0 0 1 0 0] CT
-70 10 moveto 
1 -1 scale
(10000) t 
GR
GR
GS
[0 -0.6 0.6 0 465.00002 122.4] CT
0.149 GC
/Helvetica-Bold 27.5 F
GS
[1 0 0 1 0 0] CT
0 0 moveto 
1 -1 scale
(|F) t 
GR
GR
GS
[0 -0.6 0.6 0 472.80002 107.4] CT
0.149 GC
/Helvetica-Bold 22 F
GS
[1 0 0 1 0 0] CT
0 0 moveto 
1 -1 scale
(ex) t 
GR
GR
GS
[0 -0.6 0.6 0 465.00002 92.4] CT
0.149 GC
/Helvetica-Bold 27.5 F
GS
[1 0 0 1 0 0] CT
0 0 moveto 
1 -1 scale
(|) t 
GR
GR
GS
[0 -0.6 0.6 0 472.80002 87.6] CT
0.149 GC
/Helvetica-Bold 22 F
GS
[1 0 0 1 0 0] CT
0 0 moveto 
1 -1 scale
(2) t 
GR
GR
GS
[0.6 0 0 0.6 0 0] CT
0 0 1 RC
1 LJ
3.333 LW
N
881.14 253.882 M
886.28 253.686 L
891.42 253.369 L
896.56 252.946 L
901.7 252.433 L
906.84 251.846 L
911.98 251.2 L
917.12 250.507 L
922.26 249.775 L
927.4 249.01 L
932.54 248.215 L
937.68 247.399 L
942.82 246.576 L
947.96 245.781 L
953.1 245.078 L
958.24 244.56 L
963.38 244.336 L
968.52 244.492 L
973.66 245.094 L
978.8 245.89 L
983.94 246.77 L
989.08 247.218 L
994.22 246.909 L
999.36 244.166 L
1004.5 244.157 L
1009.64 242.754 L
1014.78 241.616 L
1019.92 240.576 L
1025.06 239.245 L
1030.2 237.307 L
1035.34 234.834 L
1040.48 232.293 L
1045.62 230.275 L
1050.76 229.225 L
1055.9 229.326 L
1061.04 230.485 L
1066.18 232.298 L
1071.32 233.943 L
1076.46 234.436 L
1081.6 232.766 L
1086.74 229.761 L
1091.88 226.13 L
1097.02 222.261 L
1102.16 218.042 L
1107.3 213.304 L
1112.44 208.226 L
1117.58 203.359 L
1122.72 199.376 L
1127.86 196.83 L
1133 196.009 L
1138.14 196.919 L
1143.28 199.382 L
1148.42 203.147 L
1153.56 207.853 L
1158.7 212.749 L
1163.84 216.328 L
1168.98 216.534 L
1174.12 212.513 L
1179.26 206.164 L
1184.4 201.564 L
1189.54 204.113 L
1194.68 219.375 L
1199.82 251.172 L
1204.96 200.059 L
1210.1 153.298 L
1215.24 135.804 L
1220.38 123.908 L
1225.52 103.933 L
1230.66 107.419 L
1235.8 205.365 L
1240.94 223.259 L
1246.08 221.627 L
1251.22 226.763 L
1256.36 132.749 L
1261.5 168.544 L
1266.64 219.263 L
1271.78 212.07 L
1276.92 184.096 L
1282.06 235.521 L
1287.2 222.932 L
1292.34 225.339 L
1297.48 236.147 L
1302.62 245.918 L
1307.76 242.963 L
1312.9 229.526 L
1318.04 226.778 L
1323.18 224.292 L
1328.32 223.125 L
1333.46 221.426 L
1338.6 223.644 L
1343.74 230.016 L
1348.88 232.51 L
1354.02 232.827 L
1359.16 234.942 L
1364.3 238.231 L
1369.44 241.506 L
1374.58 242.914 L
1379.72 239.945 L
1384.86 234.104 L
1390 232.364 L
S
GR
GS
[0.6 0 0 0.6 0 0] CT
1 0 0 RC
[12 12] 0 setdash
2 LJ
3.333 LW
N
881.14 246.811 M
886.28 246.769 L
891.42 246.704 L
896.56 246.599 L
901.7 246.462 L
906.84 246.291 L
911.98 246.095 L
917.12 245.891 L
922.26 245.68 L
927.4 245.504 L
932.54 245.37 L
937.68 245.318 L
942.82 245.373 L
947.96 245.58 L
953.1 245.959 L
958.24 246.456 L
963.38 246.956 L
968.52 247.028 L
973.66 246.158 L
978.8 244.004 L
983.94 240.756 L
989.08 236.731 L
994.22 232.408 L
999.36 228.217 L
1004.5 224.699 L
1009.64 222.386 L
1014.78 221.389 L
1019.92 221.765 L
1025.06 223.353 L
1030.2 225.28 L
1035.34 227.128 L
1040.48 228.484 L
1045.62 229.08 L
1050.76 229.062 L
1055.9 228.837 L
1061.04 228.531 L
1066.18 227.891 L
1071.32 226.615 L
1076.46 223.91 L
1081.6 219.549 L
1086.74 213.959 L
1091.88 208.202 L
1097.02 202.906 L
1102.16 198.461 L
1107.3 194.797 L
1112.44 192.501 L
1117.58 192.213 L
1122.72 193.02 L
1127.86 195.297 L
1133 199.145 L
1138.14 203.831 L
1143.28 208.635 L
1148.42 212.761 L
1153.56 215.244 L
1158.7 215.554 L
1163.84 214.573 L
1168.98 213.356 L
1174.12 212.586 L
1179.26 213.501 L
1184.4 216.634 L
1189.54 221.571 L
1194.68 227.806 L
1199.82 235.248 L
1204.96 241.772 L
1210.1 242.419 L
1215.24 238.526 L
1220.38 233.977 L
1225.52 230.924 L
1230.66 229.884 L
1235.8 230.846 L
1240.94 232.585 L
1246.08 234.011 L
1251.22 233.128 L
1256.36 229.065 L
1261.5 224.171 L
1266.64 220.49 L
1271.78 219.086 L
1276.92 220.412 L
1282.06 224.86 L
1287.2 232.033 L
1292.34 240.659 L
1297.48 248.779 L
1302.62 248.73 L
1307.76 246.099 L
1312.9 246.133 L
1318.04 231.62 L
1323.18 238.257 L
1328.32 246.919 L
1333.46 234.174 L
1338.6 210.216 L
1343.74 208.735 L
1348.88 225.916 L
1354.02 230.923 L
1359.16 241.714 L
1364.3 246.743 L
1369.44 243.115 L
1374.58 245.907 L
1379.72 237.123 L
1384.86 238.432 L
1390 230.628 L
S
GR
GS
[0.6 0 0 0.6 0 0] CT
0 1 0 RC
[12 3 6 3] 0 setdash
2 LJ
3.333 LW
N
881.14 253.977 M
886.28 253.976 L
891.42 253.976 L
896.56 253.976 L
901.7 253.976 L
906.84 253.976 L
911.98 253.976 L
917.12 253.976 L
922.26 253.976 L
927.4 253.975 L
932.54 253.975 L
937.68 253.975 L
942.82 253.974 L
947.96 253.973 L
953.1 253.973 L
958.24 253.972 L
963.38 253.971 L
968.52 253.97 L
973.66 253.97 L
978.8 253.97 L
983.94 253.97 L
989.08 253.97 L
994.22 253.971 L
999.36 253.971 L
1004.5 253.972 L
1009.64 253.973 L
1014.78 253.975 L
1019.92 253.976 L
1025.06 253.978 L
1030.2 253.98 L
1035.34 253.982 L
1040.48 253.984 L
1045.62 253.986 L
1050.76 253.989 L
1055.9 253.991 L
1061.04 253.994 L
1066.18 253.996 L
1071.32 253.999 L
1076.46 254 L
1081.6 253.913 L
1086.74 253.903 L
1091.88 253.905 L
1097.02 253.908 L
1102.16 253.911 L
1107.3 253.915 L
1112.44 253.918 L
1117.58 253.921 L
1122.72 253.923 L
1127.86 253.927 L
1133 253.931 L
1138.14 253.933 L
1143.28 253.94 L
1148.42 253.939 L
1153.56 253.976 L
1158.7 253.962 L
1163.84 253.962 L
1168.98 253.965 L
1174.12 253.969 L
1179.26 253.971 L
1184.4 253.973 L
1189.54 253.98 L
1194.68 253.984 L
1199.82 253.987 L
1204.96 253.927 L
1210.1 253.922 L
1215.24 253.912 L
1220.38 253.911 L
1225.52 253.913 L
1230.66 253.916 L
1235.8 253.918 L
1240.94 253.922 L
1246.08 253.931 L
1251.22 253.982 L
1256.36 253.98 L
1261.5 253.971 L
1266.64 253.968 L
1271.78 253.969 L
1276.92 253.97 L
1282.06 253.971 L
1287.2 253.974 L
1292.34 253.924 L
1297.48 253.925 L
1302.62 253.921 L
1307.76 253.917 L
1312.9 253.916 L
1318.04 253.917 L
1323.18 253.918 L
1328.32 253.977 L
1333.46 253.977 L
1338.6 253.977 L
1343.74 253.974 L
1348.88 253.973 L
1354.02 253.973 L
1359.16 253.975 L
1364.3 253.911 L
1369.44 253.92 L
1374.58 253.921 L
1379.72 253.92 L
1384.86 253.92 L
1390 253.921 L
S
GR
GS
[0.6 0 0 0.6 0 0] CT
1 GC
N
200 542 M
714 542 L
714 370 L
200 370 L
cp
f
GR
GS
[0.6 0 0 0.6 0 0] CT
0.149 GC
2 setlinecap
1 LJ
0.833 LW
N
200 542 M
714 542 L
S
GR
GS
[0.6 0 0 0.6 0 0] CT
0.149 GC
2 setlinecap
1 LJ
0.833 LW
N
200 370 M
714 370 L
S
GR
GS
[0.6 0 0 0.6 0 0] CT
0.149 GC
2 setlinecap
1 LJ
0.833 LW
N
200 542 M
200 536.86 L
S
GR
GS
[0.6 0 0 0.6 0 0] CT
0.149 GC
2 setlinecap
1 LJ
0.833 LW
N
281.847 542 M
281.847 536.86 L
S
GR
GS
[0.6 0 0 0.6 0 0] CT
0.149 GC
2 setlinecap
1 LJ
0.833 LW
N
363.694 542 M
363.694 536.86 L
S
GR
GS
[0.6 0 0 0.6 0 0] CT
0.149 GC
2 setlinecap
1 LJ
0.833 LW
N
445.541 542 M
445.541 536.86 L
S
GR
GS
[0.6 0 0 0.6 0 0] CT
0.149 GC
2 setlinecap
1 LJ
0.833 LW
N
527.389 542 M
527.389 536.86 L
S
GR
GS
[0.6 0 0 0.6 0 0] CT
0.149 GC
2 setlinecap
1 LJ
0.833 LW
N
609.236 542 M
609.236 536.86 L
S
GR
GS
[0.6 0 0 0.6 0 0] CT
0.149 GC
2 setlinecap
1 LJ
0.833 LW
N
691.083 542 M
691.083 536.86 L
S
GR
GS
[0.6 0 0 0.6 0 0] CT
0.149 GC
2 setlinecap
1 LJ
0.833 LW
N
200 370 M
200 375.14 L
S
GR
GS
[0.6 0 0 0.6 0 0] CT
0.149 GC
2 setlinecap
1 LJ
0.833 LW
N
281.847 370 M
281.847 375.14 L
S
GR
GS
[0.6 0 0 0.6 0 0] CT
0.149 GC
2 setlinecap
1 LJ
0.833 LW
N
363.694 370 M
363.694 375.14 L
S
GR
GS
[0.6 0 0 0.6 0 0] CT
0.149 GC
2 setlinecap
1 LJ
0.833 LW
N
445.541 370 M
445.541 375.14 L
S
GR
GS
[0.6 0 0 0.6 0 0] CT
0.149 GC
2 setlinecap
1 LJ
0.833 LW
N
527.389 370 M
527.389 375.14 L
S
GR
GS
[0.6 0 0 0.6 0 0] CT
0.149 GC
2 setlinecap
1 LJ
0.833 LW
N
609.236 370 M
609.236 375.14 L
S
GR
GS
[0.6 0 0 0.6 0 0] CT
0.149 GC
2 setlinecap
1 LJ
0.833 LW
N
691.083 370 M
691.083 375.14 L
S
GR
GS
[0.6 0 0 0.6 120 330.19999] CT
0.149 GC
/Helvetica-Bold 25 F
GS
[1 0 0 1 0 0] CT
-7 26 moveto 
1 -1 scale
(0) t 
GR
GR
GS
[0.6 0 0 0.6 169.10829 330.19999] CT
0.149 GC
/Helvetica-Bold 25 F
GS
[1 0 0 1 0 0] CT
-7 26 moveto 
1 -1 scale
(1) t 
GR
GR
GS
[0.6 0 0 0.6 218.21657 330.19999] CT
0.149 GC
/Helvetica-Bold 25 F
GS
[1 0 0 1 0 0] CT
-7 26 moveto 
1 -1 scale
(2) t 
GR
GR
GS
[0.6 0 0 0.6 267.32486 330.19999] CT
0.149 GC
/Helvetica-Bold 25 F
GS
[1 0 0 1 0 0] CT
-7 26 moveto 
1 -1 scale
(3) t 
GR
GR
GS
[0.6 0 0 0.6 316.43314 330.19999] CT
0.149 GC
/Helvetica-Bold 25 F
GS
[1 0 0 1 0 0] CT
-7 26 moveto 
1 -1 scale
(4) t 
GR
GR
GS
[0.6 0 0 0.6 365.54141 330.19999] CT
0.149 GC
/Helvetica-Bold 25 F
GS
[1 0 0 1 0 0] CT
-7 26 moveto 
1 -1 scale
(5) t 
GR
GR
GS
[0.6 0 0 0.6 414.64971 330.19999] CT
0.149 GC
/Helvetica-Bold 25 F
GS
[1 0 0 1 0 0] CT
-7 26 moveto 
1 -1 scale
(6) t 
GR
GR
GS
[0.6 0 0 0.6 240.60001 367.2] CT
0.149 GC
N
f876989070
f
GR
GS
[0.6 0 0 0.6 252.00001 367.2] CT
0.149 GC
/Helvetica-Bold 27.5 F
GS
[1 0 0 1 0 0] CT
0 0 moveto 
1 -1 scale
( [rad/s]) t 
GR
GR
GS
[0.6 0 0 0.6 0 0] CT
0.149 GC
2 setlinecap
1 LJ
0.833 LW
N
200 542 M
200 370 L
S
GR
GS
[0.6 0 0 0.6 0 0] CT
0.149 GC
2 setlinecap
1 LJ
0.833 LW
N
714 542 M
714 370 L
S
GR
GS
[0.6 0 0 0.6 0 0] CT
0.149 GC
2 setlinecap
1 LJ
0.833 LW
N
200 542 M
205.14 542 L
S
GR
GS
[0.6 0 0 0.6 0 0] CT
0.149 GC
2 setlinecap
1 LJ
0.833 LW
N
200 465.327 M
205.14 465.327 L
S
GR
GS
[0.6 0 0 0.6 0 0] CT
0.149 GC
2 setlinecap
1 LJ
0.833 LW
N
200 388.653 M
205.14 388.653 L
S
GR
GS
[0.6 0 0 0.6 0 0] CT
0.149 GC
2 setlinecap
1 LJ
0.833 LW
N
714 542 M
708.86 542 L
S
GR
GS
[0.6 0 0 0.6 0 0] CT
0.149 GC
2 setlinecap
1 LJ
0.833 LW
N
714 465.327 M
708.86 465.327 L
S
GR
GS
[0.6 0 0 0.6 0 0] CT
0.149 GC
2 setlinecap
1 LJ
0.833 LW
N
714 388.653 M
708.86 388.653 L
S
GR
GS
[0.6 0 0 0.6 115.00001 325.2] CT
0.149 GC
/Helvetica-Bold 25 F
GS
[1 0 0 1 0 0] CT
-14 10 moveto 
1 -1 scale
(0) t 
GR
GR
GS
[0.6 0 0 0.6 115.00001 279.19598] CT
0.149 GC
/Helvetica-Bold 25 F
GS
[1 0 0 1 0 0] CT
-14 10 moveto 
1 -1 scale
(5) t 
GR
GR
GS
[0.6 0 0 0.6 115.00001 233.19196] CT
0.149 GC
/Helvetica-Bold 25 F
GS
[1 0 0 1 0 0] CT
-28 10 moveto 
1 -1 scale
(10) t 
GR
GR
GS
[0 -0.6 0.6 0 84.6 295.2] CT
0.149 GC
/Helvetica-Bold 27.5 F
GS
[1 0 0 1 0 0] CT
0 0 moveto 
1 -1 scale
(|F) t 
GR
GR
GS
[0 -0.6 0.6 0 92.4 280.2] CT
0.149 GC
/Helvetica-Bold 22 F
GS
[1 0 0 1 0 0] CT
0 0 moveto 
1 -1 scale
(ex) t 
GR
GR
GS
[0 -0.6 0.6 0 84.6 265.2] CT
0.149 GC
/Helvetica-Bold 27.5 F
GS
[1 0 0 1 0 0] CT
0 0 moveto 
1 -1 scale
(|) t 
GR
GR
GS
[0 -0.6 0.6 0 92.4 260.4] CT
0.149 GC
/Helvetica-Bold 22 F
GS
[1 0 0 1 0 0] CT
0 0 moveto 
1 -1 scale
(3) t 
GR
GR
GS
[0.6 0 0 0.6 120 218.4] CT
0.149 GC
N
/f1086612530{3.672 -0.719 M
3.672 -0.922 3.797 -1.078 QT
9 -6.25 L
3.797 -11.453 L
3.672 -11.578 3.672 -11.781 QT
3.672 -11.969 3.82 -12.125 QT
3.969 -12.281 4.172 -12.281 QT
5.344 -12.281 5.547 -12.125 QT
10.219 -7.453 L
14.875 -12.125 L
15.094 -12.281 15.25 -12.281 QT
16.453 -12.281 16.602 -12.133 QT
16.75 -11.984 16.75 -11.781 QT
16.75 -11.578 16.625 -11.453 QT
11.422 -6.25 L
16.625 -1.078 L
16.75 -0.922 16.75 -0.719 QT
16.75 -0.516 16.602 -0.367 QT
16.453 -0.219 15.25 -0.219 QT
15.063 -0.219 14.875 -0.406 QT
10.219 -5.047 L
5.547 -0.406 L
5.375 -0.219 4.172 -0.219 QT
3.969 -0.219 3.82 -0.375 QT
3.672 -0.531 3.672 -0.719 QT
cp}def
f1086612530
f
GR
GS
[0.6 0 0 0.6 132.60001 218.4] CT
0.149 GC
/Helvetica-Bold 25 F
GS
[1 0 0 1 0 0] CT
0 0 moveto 
1 -1 scale
(10) t 
GR
GR
GS
[0.6 0 0 0.6 149.40001 211.2] CT
0.149 GC
/Helvetica-Bold 20 F
GS
[1 0 0 1 0 0] CT
0 0 moveto 
1 -1 scale
(5) t 
GR
GR
GS
[0.6 0 0 0.6 0 0] CT
0 0 1 RC
1 LJ
3.333 LW
N
205.14 370 M
210.28 373.776 L
215.42 379.926 L
220.56 388.207 L
225.7 398.274 L
230.84 409.713 L
235.98 422.073 L
241.12 434.906 L
246.26 447.795 L
251.4 460.369 L
256.54 472.32 L
261.68 483.407 L
266.82 493.459 L
271.96 502.373 L
277.1 510.114 L
282.24 516.704 L
287.38 522.207 L
292.52 526.723 L
297.66 530.366 L
302.8 533.259 L
307.94 535.523 L
313.08 537.268 L
318.22 538.595 L
323.36 539.589 L
328.5 540.323 L
333.64 540.855 L
338.78 541.235 L
343.92 541.5 L
349.06 541.682 L
354.2 541.806 L
359.34 541.889 L
364.48 541.949 L
369.62 541.99 L
374.76 541.969 L
379.9 541.939 L
385.04 541.914 L
390.18 541.895 L
395.32 541.882 L
400.46 541.874 L
405.6 541.87 L
410.74 541.869 L
415.88 541.868 L
421.02 541.868 L
426.16 541.868 L
431.3 541.868 L
436.44 541.869 L
441.58 541.874 L
446.72 541.883 L
451.86 541.897 L
457 541.917 L
462.14 541.942 L
467.28 541.974 L
472.42 541.991 L
477.56 541.951 L
482.7 541.906 L
487.84 541.859 L
492.98 541.81 L
498.12 541.759 L
503.26 541.706 L
508.4 541.648 L
513.54 541.603 L
518.68 541.662 L
523.82 541.822 L
528.96 541.903 L
534.1 541.92 L
539.24 541.915 L
544.38 541.839 L
549.52 541.816 L
554.66 541.825 L
559.8 541.854 L
564.94 541.897 L
570.08 541.955 L
575.22 541.942 L
580.36 541.985 L
585.5 541.956 L
590.64 541.928 L
595.78 541.886 L
600.92 541.882 L
606.06 541.881 L
611.2 541.919 L
616.34 541.936 L
621.48 541.986 L
626.62 541.991 L
631.76 541.947 L
636.9 541.911 L
642.04 541.901 L
647.18 541.911 L
652.32 541.93 L
657.46 541.954 L
662.6 541.978 L
667.74 541.96 L
672.88 541.936 L
678.02 541.922 L
683.16 541.92 L
688.3 541.933 L
693.44 541.957 L
698.58 541.986 L
703.72 541.978 L
708.86 541.957 L
714 541.949 L
S
GR
GS
[0.6 0 0 0.6 0 0] CT
1 0 0 RC
[12 12] 0 setdash
2 LJ
3.333 LW
N
205.14 370 M
210.28 373.776 L
215.42 379.926 L
220.56 388.206 L
225.7 398.272 L
230.84 409.707 L
235.98 422.068 L
241.12 434.901 L
246.26 447.791 L
251.4 460.371 L
256.54 472.333 L
261.68 483.434 L
266.82 493.509 L
271.96 502.451 L
277.1 510.216 L
282.24 516.835 L
287.38 522.357 L
292.52 526.884 L
297.66 530.521 L
302.8 533.397 L
307.94 535.625 L
313.08 537.325 L
318.22 538.594 L
323.36 539.525 L
328.5 540.197 L
333.64 540.671 L
338.78 541.007 L
343.92 541.241 L
349.06 541.409 L
354.2 541.535 L
359.34 541.634 L
364.48 541.715 L
369.62 541.777 L
374.76 541.824 L
379.9 541.861 L
385.04 541.88 L
390.18 541.881 L
395.32 541.873 L
400.46 541.863 L
405.6 541.853 L
410.74 541.846 L
415.88 541.84 L
421.02 541.838 L
426.16 541.84 L
431.3 541.845 L
436.44 541.851 L
441.58 541.856 L
446.72 541.868 L
451.86 541.884 L
457 541.904 L
462.14 541.922 L
467.28 541.937 L
472.42 541.945 L
477.56 541.947 L
482.7 541.939 L
487.84 541.929 L
492.98 541.92 L
498.12 541.914 L
503.26 541.914 L
508.4 541.921 L
513.54 541.936 L
518.68 541.957 L
523.82 541.98 L
528.96 541.982 L
534.1 541.96 L
539.24 541.938 L
544.38 541.92 L
549.52 541.909 L
554.66 541.906 L
559.8 541.913 L
564.94 541.928 L
570.08 541.95 L
575.22 541.973 L
580.36 541.976 L
585.5 541.955 L
590.64 541.933 L
595.78 541.919 L
600.92 541.914 L
606.06 541.922 L
611.2 541.939 L
616.34 541.964 L
621.48 541.983 L
626.62 541.968 L
631.76 541.944 L
636.9 541.927 L
642.04 541.919 L
647.18 541.925 L
652.32 541.94 L
657.46 541.964 L
662.6 541.983 L
667.74 541.97 L
672.88 541.946 L
678.02 541.933 L
683.16 541.938 L
688.3 541.951 L
693.44 541.969 L
698.58 541.993 L
703.72 541.98 L
708.86 541.961 L
714 541.949 L
S
GR
GS
[0.6 0 0 0.6 0 0] CT
0 1 0 RC
[12 3 6 3] 0 setdash
2 LJ
3.333 LW
N
205.14 370 M
210.28 373.776 L
215.42 379.926 L
220.56 388.206 L
225.7 398.273 L
230.84 409.709 L
235.98 422.07 L
241.12 434.902 L
246.26 447.791 L
251.4 460.366 L
256.54 472.32 L
261.68 483.409 L
266.82 493.468 L
271.96 502.39 L
277.1 510.134 L
282.24 516.733 L
287.38 522.237 L
292.52 526.755 L
297.66 530.393 L
302.8 533.282 L
307.94 535.537 L
313.08 537.275 L
318.22 538.594 L
323.36 539.584 L
328.5 540.318 L
333.64 540.858 L
338.78 541.255 L
343.92 541.553 L
349.06 541.791 L
354.2 541.938 L
359.34 541.38 L
364.48 540.686 L
369.62 541.647 L
374.76 541.82 L
379.9 541.893 L
385.04 541.917 L
390.18 541.912 L
395.32 541.905 L
400.46 541.917 L
405.6 541.704 L
410.74 541.843 L
415.88 541.861 L
421.02 541.869 L
426.16 541.869 L
431.3 541.852 L
436.44 541.795 L
441.58 541.663 L
446.72 541.146 L
451.86 541.769 L
457 541.885 L
462.14 541.921 L
467.28 541.924 L
472.42 541.923 L
477.56 541.867 L
482.7 541.862 L
487.84 541.813 L
492.98 541.851 L
498.12 541.816 L
503.26 541.704 L
508.4 541.553 L
513.54 541.801 L
518.68 541.917 L
523.82 541.96 L
528.96 541.979 L
534.1 541.951 L
539.24 541.922 L
544.38 541.887 L
549.52 541.855 L
554.66 541.807 L
559.8 541.734 L
564.94 541.825 L
570.08 541.917 L
575.22 541.966 L
580.36 541.972 L
585.5 541.949 L
590.64 541.917 L
595.78 541.88 L
600.92 541.84 L
606.06 541.824 L
611.2 541.874 L
616.34 541.931 L
621.48 541.97 L
626.62 541.958 L
631.76 541.933 L
636.9 541.907 L
642.04 541.879 L
647.18 541.873 L
652.32 541.905 L
657.46 541.945 L
662.6 541.974 L
667.74 541.963 L
672.88 541.94 L
678.02 541.921 L
683.16 541.912 L
688.3 541.927 L
693.44 541.956 L
698.58 541.987 L
703.72 541.977 L
708.86 541.956 L
714 541.943 L
S
GR
GS
[0.6 0 0 0.6 0 0] CT
1 GC
N
876 542 M
1390 542 L
1390 370 L
876 370 L
cp
f
GR
GS
[0.6 0 0 0.6 0 0] CT
0.149 GC
2 setlinecap
1 LJ
0.833 LW
N
876 542 M
1390 542 L
S
GR
GS
[0.6 0 0 0.6 0 0] CT
0.149 GC
2 setlinecap
1 LJ
0.833 LW
N
876 370 M
1390 370 L
S
GR
GS
[0.6 0 0 0.6 0 0] CT
0.149 GC
2 setlinecap
1 LJ
0.833 LW
N
876 542 M
876 536.86 L
S
GR
GS
[0.6 0 0 0.6 0 0] CT
0.149 GC
2 setlinecap
1 LJ
0.833 LW
N
957.847 542 M
957.847 536.86 L
S
GR
GS
[0.6 0 0 0.6 0 0] CT
0.149 GC
2 setlinecap
1 LJ
0.833 LW
N
1039.694 542 M
1039.694 536.86 L
S
GR
GS
[0.6 0 0 0.6 0 0] CT
0.149 GC
2 setlinecap
1 LJ
0.833 LW
N
1121.541 542 M
1121.541 536.86 L
S
GR
GS
[0.6 0 0 0.6 0 0] CT
0.149 GC
2 setlinecap
1 LJ
0.833 LW
N
1203.389 542 M
1203.389 536.86 L
S
GR
GS
[0.6 0 0 0.6 0 0] CT
0.149 GC
2 setlinecap
1 LJ
0.833 LW
N
1285.236 542 M
1285.236 536.86 L
S
GR
GS
[0.6 0 0 0.6 0 0] CT
0.149 GC
2 setlinecap
1 LJ
0.833 LW
N
1367.083 542 M
1367.083 536.86 L
S
GR
GS
[0.6 0 0 0.6 0 0] CT
0.149 GC
2 setlinecap
1 LJ
0.833 LW
N
876 370 M
876 375.14 L
S
GR
GS
[0.6 0 0 0.6 0 0] CT
0.149 GC
2 setlinecap
1 LJ
0.833 LW
N
957.847 370 M
957.847 375.14 L
S
GR
GS
[0.6 0 0 0.6 0 0] CT
0.149 GC
2 setlinecap
1 LJ
0.833 LW
N
1039.694 370 M
1039.694 375.14 L
S
GR
GS
[0.6 0 0 0.6 0 0] CT
0.149 GC
2 setlinecap
1 LJ
0.833 LW
N
1121.541 370 M
1121.541 375.14 L
S
GR
GS
[0.6 0 0 0.6 0 0] CT
0.149 GC
2 setlinecap
1 LJ
0.833 LW
N
1203.389 370 M
1203.389 375.14 L
S
GR
GS
[0.6 0 0 0.6 0 0] CT
0.149 GC
2 setlinecap
1 LJ
0.833 LW
N
1285.236 370 M
1285.236 375.14 L
S
GR
GS
[0.6 0 0 0.6 0 0] CT
0.149 GC
2 setlinecap
1 LJ
0.833 LW
N
1367.083 370 M
1367.083 375.14 L
S
GR
GS
[0.6 0 0 0.6 525.60002 330.19999] CT
0.149 GC
/Helvetica-Bold 25 F
GS
[1 0 0 1 0 0] CT
-7 26 moveto 
1 -1 scale
(0) t 
GR
GR
GS
[0.6 0 0 0.6 574.70829 330.19999] CT
0.149 GC
/Helvetica-Bold 25 F
GS
[1 0 0 1 0 0] CT
-7 26 moveto 
1 -1 scale
(1) t 
GR
GR
GS
[0.6 0 0 0.6 623.81655 330.19999] CT
0.149 GC
/Helvetica-Bold 25 F
GS
[1 0 0 1 0 0] CT
-7 26 moveto 
1 -1 scale
(2) t 
GR
GR
GS
[0.6 0 0 0.6 672.92486 330.19999] CT
0.149 GC
/Helvetica-Bold 25 F
GS
[1 0 0 1 0 0] CT
-7 26 moveto 
1 -1 scale
(3) t 
GR
GR
GS
[0.6 0 0 0.6 722.03316 330.19999] CT
0.149 GC
/Helvetica-Bold 25 F
GS
[1 0 0 1 0 0] CT
-7 26 moveto 
1 -1 scale
(4) t 
GR
GR
GS
[0.6 0 0 0.6 771.14146 330.19999] CT
0.149 GC
/Helvetica-Bold 25 F
GS
[1 0 0 1 0 0] CT
-7 26 moveto 
1 -1 scale
(5) t 
GR
GR
GS
[0.6 0 0 0.6 820.24969 330.19999] CT
0.149 GC
/Helvetica-Bold 25 F
GS
[1 0 0 1 0 0] CT
-7 26 moveto 
1 -1 scale
(6) t 
GR
GR
GS
[0.6 0 0 0.6 646.20003 367.2] CT
0.149 GC
N
f876989070
f
GR
GS
[0.6 0 0 0.6 657.60003 367.2] CT
0.149 GC
/Helvetica-Bold 27.5 F
GS
[1 0 0 1 0 0] CT
0 0 moveto 
1 -1 scale
( [rad/s]) t 
GR
GR
GS
[0.6 0 0 0.6 0 0] CT
0.149 GC
2 setlinecap
1 LJ
0.833 LW
N
876 542 M
876 370 L
S
GR
GS
[0.6 0 0 0.6 0 0] CT
0.149 GC
2 setlinecap
1 LJ
0.833 LW
N
1390 542 M
1390 370 L
S
GR
GS
[0.6 0 0 0.6 0 0] CT
0.149 GC
2 setlinecap
1 LJ
0.833 LW
N
876 542 M
881.14 542 L
S
GR
GS
[0.6 0 0 0.6 0 0] CT
0.149 GC
2 setlinecap
1 LJ
0.833 LW
N
876 390.502 M
881.14 390.502 L
S
GR
GS
[0.6 0 0 0.6 0 0] CT
0.149 GC
2 setlinecap
1 LJ
0.833 LW
N
1390 542 M
1384.86 542 L
S
GR
GS
[0.6 0 0 0.6 0 0] CT
0.149 GC
2 setlinecap
1 LJ
0.833 LW
N
1390 390.502 M
1384.86 390.502 L
S
GR
GS
[0.6 0 0 0.6 520.60003 325.2] CT
0.149 GC
/Helvetica-Bold 25 F
GS
[1 0 0 1 0 0] CT
-14 10 moveto 
1 -1 scale
(0) t 
GR
GR
GS
[0.6 0 0 0.6 520.60003 234.30093] CT
0.149 GC
/Helvetica-Bold 25 F
GS
[1 0 0 1 0 0] CT
-14 10 moveto 
1 -1 scale
(5) t 
GR
GR
GS
[0 -0.6 0.6 0 498.60002 295.2] CT
0.149 GC
/Helvetica-Bold 27.5 F
GS
[1 0 0 1 0 0] CT
0 0 moveto 
1 -1 scale
(|F) t 
GR
GR
GS
[0 -0.6 0.6 0 506.40002 280.2] CT
0.149 GC
/Helvetica-Bold 22 F
GS
[1 0 0 1 0 0] CT
0 0 moveto 
1 -1 scale
(ex) t 
GR
GR
GS
[0 -0.6 0.6 0 498.60002 265.2] CT
0.149 GC
/Helvetica-Bold 27.5 F
GS
[1 0 0 1 0 0] CT
0 0 moveto 
1 -1 scale
(|) t 
GR
GR
GS
[0 -0.6 0.6 0 506.40002 260.4] CT
0.149 GC
/Helvetica-Bold 22 F
GS
[1 0 0 1 0 0] CT
0 0 moveto 
1 -1 scale
(4) t 
GR
GR
GS
[0.6 0 0 0.6 525.60002 218.4] CT
0.149 GC
N
f1086612530
f
GR
GS
[0.6 0 0 0.6 538.20002 218.4] CT
0.149 GC
/Helvetica-Bold 25 F
GS
[1 0 0 1 0 0] CT
0 0 moveto 
1 -1 scale
(10) t 
GR
GR
GS
[0.6 0 0 0.6 555.00002 211.2] CT
0.149 GC
/Helvetica-Bold 20 F
GS
[1 0 0 1 0 0] CT
0 0 moveto 
1 -1 scale
(4) t 
GR
GR
GS
[0.6 0 0 0.6 0 0] CT
0 0 1 RC
1 LJ
3.333 LW
N
881.14 536.85 M
886.28 537.068 L
891.42 537.358 L
896.56 537.594 L
901.7 537.601 L
906.84 537.212 L
911.98 536.377 L
917.12 535.153 L
922.26 533.633 L
927.4 531.902 L
932.54 530.033 L
937.68 528.111 L
942.82 526.25 L
947.96 524.596 L
953.1 523.324 L
958.24 522.588 L
963.38 522.456 L
968.52 522.858 L
973.66 523.603 L
978.8 524.303 L
983.94 524.725 L
989.08 524.558 L
994.22 524.066 L
999.36 522.644 L
1004.5 522.096 L
1009.64 521.128 L
1014.78 520.222 L
1019.92 519.215 L
1025.06 517.906 L
1030.2 516.231 L
1035.34 514.365 L
1040.48 512.671 L
1045.62 511.531 L
1050.76 511.186 L
1055.9 511.7 L
1061.04 513.007 L
1066.18 514.963 L
1071.32 517.342 L
1076.46 519.913 L
1081.6 522.143 L
1086.74 524.124 L
1091.88 525.876 L
1097.02 527.557 L
1102.16 529.112 L
1107.3 530.19 L
1112.44 530.433 L
1117.58 529.903 L
1122.72 529.069 L
1127.86 528.433 L
1133 528.328 L
1138.14 528.896 L
1143.28 530.162 L
1148.42 532.118 L
1153.56 534.786 L
1158.7 538.167 L
1163.84 541.515 L
1168.98 537.193 L
1174.12 532.572 L
1179.26 528.481 L
1184.4 526.011 L
1189.54 526.646 L
1194.68 532.228 L
1199.82 535.283 L
1204.96 513.978 L
1210.1 493.826 L
1215.24 486.08 L
1220.38 479.976 L
1225.52 469.969 L
1230.66 496.341 L
1235.8 512.735 L
1240.94 514.795 L
1246.08 530.791 L
1251.22 527.409 L
1256.36 500.023 L
1261.5 510.154 L
1266.64 535.556 L
1271.78 530.115 L
1276.92 520.396 L
1282.06 537.58 L
1287.2 534.51 L
1292.34 532.16 L
1297.48 537.414 L
1302.62 541.84 L
1307.76 541.031 L
1312.9 536.489 L
1318.04 534.432 L
1323.18 534.035 L
1328.32 534.364 L
1333.46 534.549 L
1338.6 534.879 L
1343.74 536.714 L
1348.88 538.039 L
1354.02 538.331 L
1359.16 538.994 L
1364.3 540.015 L
1369.44 540.836 L
1374.58 540.266 L
1379.72 538.635 L
1384.86 538.226 L
1390 538.3 L
S
GR
GS
[0.6 0 0 0.6 0 0] CT
1 0 0 RC
[12 12] 0 setdash
2 LJ
3.333 LW
N
881.14 536.418 M
886.28 536.305 L
891.42 536.059 L
896.56 535.646 L
901.7 535.054 L
906.84 534.265 L
911.98 533.288 L
917.12 532.155 L
922.26 530.906 L
927.4 529.582 L
932.54 528.228 L
937.68 526.909 L
942.82 525.719 L
947.96 524.756 L
953.1 524.115 L
958.24 523.801 L
963.38 523.711 L
968.52 523.56 L
973.66 522.997 L
978.8 521.7 L
983.94 519.624 L
989.08 516.924 L
994.22 514.006 L
999.36 511.264 L
1004.5 509.122 L
1009.64 507.927 L
1014.78 507.564 L
1019.92 507.897 L
1025.06 508.749 L
1030.2 509.33 L
1035.34 509.653 L
1040.48 509.835 L
1045.62 509.964 L
1050.76 510.081 L
1055.9 510.538 L
1061.04 511.598 L
1066.18 512.854 L
1071.32 514.485 L
1076.46 515.913 L
1081.6 516.901 L
1086.74 517.253 L
1091.88 516.569 L
1097.02 515.646 L
1102.16 514.779 L
1107.3 513.801 L
1112.44 512.836 L
1117.58 512.964 L
1122.72 513.496 L
1127.86 514.413 L
1133 515.996 L
1138.14 518.358 L
1143.28 521.469 L
1148.42 524.658 L
1153.56 528.167 L
1158.7 531.61 L
1163.84 534.269 L
1168.98 535.969 L
1174.12 536.442 L
1179.26 535.768 L
1184.4 535.421 L
1189.54 534.946 L
1194.68 534.17 L
1199.82 533.542 L
1204.96 532.676 L
1210.1 531.127 L
1215.24 529.938 L
1220.38 529.167 L
1225.52 528.962 L
1230.66 529.355 L
1235.8 530.532 L
1240.94 532.174 L
1246.08 534.023 L
1251.22 536.483 L
1256.36 538.541 L
1261.5 538.426 L
1266.64 536.987 L
1271.78 535.935 L
1276.92 535.519 L
1282.06 536.012 L
1287.2 537.531 L
1292.34 539.688 L
1297.48 540.625 L
1302.62 538.481 L
1307.76 536.934 L
1312.9 537.371 L
1318.04 534.845 L
1323.18 535.537 L
1328.32 535.738 L
1333.46 536.526 L
1338.6 533.275 L
1343.74 533.232 L
1348.88 536.354 L
1354.02 538.532 L
1359.16 538.821 L
1364.3 537.653 L
1369.44 540.528 L
1374.58 536.357 L
1379.72 532.952 L
1384.86 536.815 L
1390 536.098 L
S
GR
GS
[0.6 0 0 0.6 0 0] CT
0 1 0 RC
[12 3 6 3] 0 setdash
2 LJ
3.333 LW
N
881.14 536.418 M
886.28 536.305 L
891.42 536.06 L
896.56 535.648 L
901.7 535.057 L
906.84 534.269 L
911.98 533.29 L
917.12 532.152 L
922.26 530.887 L
927.4 529.537 L
932.54 528.138 L
937.68 526.749 L
942.82 525.468 L
947.96 524.411 L
953.1 523.719 L
958.24 523.492 L
963.38 523.789 L
968.52 524.522 L
973.66 525.517 L
978.8 526.505 L
983.94 527.241 L
989.08 527.538 L
994.22 527.335 L
999.36 526.754 L
1004.5 525.961 L
1009.64 525.101 L
1014.78 524.151 L
1019.92 523.07 L
1025.06 521.843 L
1030.2 520.876 L
1035.34 522.784 L
1040.48 505.317 L
1045.62 510.908 L
1050.76 511.623 L
1055.9 512.049 L
1061.04 512.83 L
1066.18 513.395 L
1071.32 513.069 L
1076.46 506.954 L
1081.6 439.264 L
1086.74 533.162 L
1091.88 538.76 L
1097.02 536.37 L
1102.16 525.903 L
1107.3 500.344 L
1112.44 370 L
1117.58 458.375 L
1122.72 505.67 L
1127.86 528.084 L
1133 507.523 L
1138.14 434.951 L
1143.28 426.894 L
1148.42 484.252 L
1153.56 539.299 L
1158.7 521.361 L
1163.84 505.645 L
1168.98 512.413 L
1174.12 496.595 L
1179.26 449.56 L
1184.4 468.383 L
1189.54 503.893 L
1194.68 513.914 L
1199.82 495.128 L
1204.96 489.874 L
1210.1 540.357 L
1215.24 522.887 L
1220.38 523.43 L
1225.52 522.199 L
1230.66 506.679 L
1235.8 506.565 L
1240.94 517.154 L
1246.08 523.116 L
1251.22 520.744 L
1256.36 534.261 L
1261.5 530.563 L
1266.64 531.53 L
1271.78 539.872 L
1276.92 522.79 L
1282.06 517.897 L
1287.2 525.213 L
1292.34 538.633 L
1297.48 535.01 L
1302.62 540.197 L
1307.76 538.108 L
1312.9 539.069 L
1318.04 537.651 L
1323.18 534.767 L
1328.32 536.656 L
1333.46 540.666 L
1338.6 540.522 L
1343.74 539.074 L
1348.88 539.175 L
1354.02 541.555 L
1359.16 539.377 L
1364.3 539.468 L
1369.44 540.365 L
1374.58 540.312 L
1379.72 540.512 L
1384.86 540.001 L
1390 539.232 L
S
GR
GS
[0.6 0 0 0.6 0 0] CT
1 GC
N
200 829 M
714 829 L
714 658 L
200 658 L
cp
f
GR
GS
[0.6 0 0 0.6 0 0] CT
0.149 GC
2 setlinecap
1 LJ
0.833 LW
N
200 829 M
714 829 L
S
GR
GS
[0.6 0 0 0.6 0 0] CT
0.149 GC
2 setlinecap
1 LJ
0.833 LW
N
200 658 M
714 658 L
S
GR
GS
[0.6 0 0 0.6 0 0] CT
0.149 GC
2 setlinecap
1 LJ
0.833 LW
N
200 829 M
200 823.86 L
S
GR
GS
[0.6 0 0 0.6 0 0] CT
0.149 GC
2 setlinecap
1 LJ
0.833 LW
N
281.847 829 M
281.847 823.86 L
S
GR
GS
[0.6 0 0 0.6 0 0] CT
0.149 GC
2 setlinecap
1 LJ
0.833 LW
N
363.694 829 M
363.694 823.86 L
S
GR
GS
[0.6 0 0 0.6 0 0] CT
0.149 GC
2 setlinecap
1 LJ
0.833 LW
N
445.541 829 M
445.541 823.86 L
S
GR
GS
[0.6 0 0 0.6 0 0] CT
0.149 GC
2 setlinecap
1 LJ
0.833 LW
N
527.389 829 M
527.389 823.86 L
S
GR
GS
[0.6 0 0 0.6 0 0] CT
0.149 GC
2 setlinecap
1 LJ
0.833 LW
N
609.236 829 M
609.236 823.86 L
S
GR
GS
[0.6 0 0 0.6 0 0] CT
0.149 GC
2 setlinecap
1 LJ
0.833 LW
N
691.083 829 M
691.083 823.86 L
S
GR
GS
[0.6 0 0 0.6 0 0] CT
0.149 GC
2 setlinecap
1 LJ
0.833 LW
N
200 658 M
200 663.14 L
S
GR
GS
[0.6 0 0 0.6 0 0] CT
0.149 GC
2 setlinecap
1 LJ
0.833 LW
N
281.847 658 M
281.847 663.14 L
S
GR
GS
[0.6 0 0 0.6 0 0] CT
0.149 GC
2 setlinecap
1 LJ
0.833 LW
N
363.694 658 M
363.694 663.14 L
S
GR
GS
[0.6 0 0 0.6 0 0] CT
0.149 GC
2 setlinecap
1 LJ
0.833 LW
N
445.541 658 M
445.541 663.14 L
S
GR
GS
[0.6 0 0 0.6 0 0] CT
0.149 GC
2 setlinecap
1 LJ
0.833 LW
N
527.389 658 M
527.389 663.14 L
S
GR
GS
[0.6 0 0 0.6 0 0] CT
0.149 GC
2 setlinecap
1 LJ
0.833 LW
N
609.236 658 M
609.236 663.14 L
S
GR
GS
[0.6 0 0 0.6 0 0] CT
0.149 GC
2 setlinecap
1 LJ
0.833 LW
N
691.083 658 M
691.083 663.14 L
S
GR
GS
[0.6 0 0 0.6 120 502.39999] CT
0.149 GC
/Helvetica-Bold 25 F
GS
[1 0 0 1 0 0] CT
-7 26 moveto 
1 -1 scale
(0) t 
GR
GR
GS
[0.6 0 0 0.6 169.10829 502.39999] CT
0.149 GC
/Helvetica-Bold 25 F
GS
[1 0 0 1 0 0] CT
-7 26 moveto 
1 -1 scale
(1) t 
GR
GR
GS
[0.6 0 0 0.6 218.21657 502.39999] CT
0.149 GC
/Helvetica-Bold 25 F
GS
[1 0 0 1 0 0] CT
-7 26 moveto 
1 -1 scale
(2) t 
GR
GR
GS
[0.6 0 0 0.6 267.32486 502.39999] CT
0.149 GC
/Helvetica-Bold 25 F
GS
[1 0 0 1 0 0] CT
-7 26 moveto 
1 -1 scale
(3) t 
GR
GR
GS
[0.6 0 0 0.6 316.43314 502.39999] CT
0.149 GC
/Helvetica-Bold 25 F
GS
[1 0 0 1 0 0] CT
-7 26 moveto 
1 -1 scale
(4) t 
GR
GR
GS
[0.6 0 0 0.6 365.54141 502.39999] CT
0.149 GC
/Helvetica-Bold 25 F
GS
[1 0 0 1 0 0] CT
-7 26 moveto 
1 -1 scale
(5) t 
GR
GR
GS
[0.6 0 0 0.6 414.64971 502.39999] CT
0.149 GC
/Helvetica-Bold 25 F
GS
[1 0 0 1 0 0] CT
-7 26 moveto 
1 -1 scale
(6) t 
GR
GR
GS
[0.6 0 0 0.6 240.60001 539.4] CT
0.149 GC
N
f876989070
f
GR
GS
[0.6 0 0 0.6 252.00001 539.4] CT
0.149 GC
/Helvetica-Bold 27.5 F
GS
[1 0 0 1 0 0] CT
0 0 moveto 
1 -1 scale
( [rad/s]) t 
GR
GR
GS
[0.6 0 0 0.6 0 0] CT
0.149 GC
2 setlinecap
1 LJ
0.833 LW
N
200 829 M
200 658 L
S
GR
GS
[0.6 0 0 0.6 0 0] CT
0.149 GC
2 setlinecap
1 LJ
0.833 LW
N
714 829 M
714 658 L
S
GR
GS
[0.6 0 0 0.6 0 0] CT
0.149 GC
2 setlinecap
1 LJ
0.833 LW
N
200 829 M
205.14 829 L
S
GR
GS
[0.6 0 0 0.6 0 0] CT
0.149 GC
2 setlinecap
1 LJ
0.833 LW
N
200 743.5 M
205.14 743.5 L
S
GR
GS
[0.6 0 0 0.6 0 0] CT
0.149 GC
2 setlinecap
1 LJ
0.833 LW
N
200 658 M
205.14 658 L
S
GR
GS
[0.6 0 0 0.6 0 0] CT
0.149 GC
2 setlinecap
1 LJ
0.833 LW
N
714 829 M
708.86 829 L
S
GR
GS
[0.6 0 0 0.6 0 0] CT
0.149 GC
2 setlinecap
1 LJ
0.833 LW
N
714 743.5 M
708.86 743.5 L
S
GR
GS
[0.6 0 0 0.6 0 0] CT
0.149 GC
2 setlinecap
1 LJ
0.833 LW
N
714 658 M
708.86 658 L
S
GR
GS
[0.6 0 0 0.6 115.00001 497.4] CT
0.149 GC
/Helvetica-Bold 25 F
GS
[1 0 0 1 0 0] CT
-14 10 moveto 
1 -1 scale
(0) t 
GR
GR
GS
[0.6 0 0 0.6 115.00001 446.1] CT
0.149 GC
/Helvetica-Bold 25 F
GS
[1 0 0 1 0 0] CT
-14 10 moveto 
1 -1 scale
(5) t 
GR
GR
GS
[0.6 0 0 0.6 115.00001 394.8] CT
0.149 GC
/Helvetica-Bold 25 F
GS
[1 0 0 1 0 0] CT
-28 10 moveto 
1 -1 scale
(10) t 
GR
GR
GS
[0 -0.6 0.6 0 84.6 467.4] CT
0.149 GC
/Helvetica-Bold 27.5 F
GS
[1 0 0 1 0 0] CT
0 0 moveto 
1 -1 scale
(|F) t 
GR
GR
GS
[0 -0.6 0.6 0 92.4 452.4] CT
0.149 GC
/Helvetica-Bold 22 F
GS
[1 0 0 1 0 0] CT
0 0 moveto 
1 -1 scale
(ex) t 
GR
GR
GS
[0 -0.6 0.6 0 84.6 437.4] CT
0.149 GC
/Helvetica-Bold 27.5 F
GS
[1 0 0 1 0 0] CT
0 0 moveto 
1 -1 scale
(|) t 
GR
GR
GS
[0 -0.6 0.6 0 92.4 432.6] CT
0.149 GC
/Helvetica-Bold 22 F
GS
[1 0 0 1 0 0] CT
0 0 moveto 
1 -1 scale
(5) t 
GR
GR
GS
[0.6 0 0 0.6 120 391.2] CT
0.149 GC
N
f1086612530
f
GR
GS
[0.6 0 0 0.6 132.60001 391.2] CT
0.149 GC
/Helvetica-Bold 25 F
GS
[1 0 0 1 0 0] CT
0 0 moveto 
1 -1 scale
(10) t 
GR
GR
GS
[0.6 0 0 0.6 149.40001 384] CT
0.149 GC
/Helvetica-Bold 20 F
GS
[1 0 0 1 0 0] CT
0 0 moveto 
1 -1 scale
(6) t 
GR
GR
GS
[0.6 0 0 0.6 0 0] CT
0 0 1 RC
1 LJ
3.333 LW
N
205.14 827.767 M
210.28 824.113 L
215.42 818.166 L
220.56 810.129 L
225.7 800.268 L
230.84 788.889 L
235.98 776.328 L
241.12 762.946 L
246.26 749.133 L
251.4 735.325 L
256.54 722.037 L
261.68 709.891 L
266.82 699.62 L
271.96 692.035 L
277.1 687.892 L
282.24 687.697 L
287.38 691.5 L
292.52 698.817 L
297.66 708.731 L
302.8 720.188 L
307.94 732.164 L
313.08 743.901 L
318.22 754.902 L
323.36 764.894 L
328.5 773.783 L
333.64 781.572 L
338.78 788.331 L
343.92 794.159 L
349.06 799.163 L
354.2 803.448 L
359.34 807.107 L
364.48 810.224 L
369.62 812.87 L
374.76 815.111 L
379.9 817.002 L
385.04 818.59 L
390.18 819.916 L
395.32 821.017 L
400.46 821.927 L
405.6 822.68 L
410.74 823.308 L
415.88 823.843 L
421.02 824.314 L
426.16 824.749 L
431.3 825.172 L
436.44 825.605 L
441.58 826.06 L
446.72 826.543 L
451.86 827.052 L
457 827.569 L
462.14 828.048 L
467.28 828.354 L
472.42 828.269 L
477.56 827.952 L
482.7 827.636 L
487.84 827.415 L
492.98 827.336 L
498.12 827.434 L
503.26 827.739 L
508.4 828.258 L
513.54 828.544 L
518.68 827.765 L
523.82 826.91 L
528.96 826.332 L
534.1 826.178 L
539.24 826.369 L
544.38 826.841 L
549.52 827.706 L
554.66 828.021 L
559.8 828.794 L
564.94 828.412 L
570.08 828.074 L
575.22 827.733 L
580.36 827.706 L
585.5 827.498 L
590.64 827.295 L
595.78 827.831 L
600.92 828.323 L
606.06 828.878 L
611.2 828.56 L
616.34 828.148 L
621.48 827.766 L
626.62 827.699 L
631.76 827.863 L
636.9 828.143 L
642.04 828.41 L
647.18 828.734 L
652.32 828.448 L
657.46 828.137 L
662.6 827.988 L
667.74 827.989 L
672.88 828.18 L
678.02 828.542 L
683.16 828.974 L
688.3 828.621 L
693.44 828.368 L
698.58 828.193 L
703.72 828.223 L
708.86 828.419 L
714 828.757 L
S
GR
GS
[0.6 0 0 0.6 0 0] CT
1 0 0 RC
[12 12] 0 setdash
2 LJ
3.333 LW
N
205.14 827.766 M
210.28 824.109 L
215.42 818.158 L
220.56 810.116 L
225.7 800.25 L
230.84 788.866 L
235.98 776.304 L
241.12 762.925 L
246.26 749.123 L
251.4 735.341 L
256.54 722.099 L
261.68 710.021 L
266.82 699.84 L
271.96 692.351 L
277.1 688.286 L
282.24 688.103 L
287.38 691.82 L
292.52 698.937 L
297.66 708.578 L
302.8 719.713 L
307.94 731.415 L
313.08 742.963 L
318.22 753.891 L
323.36 763.939 L
328.5 772.993 L
333.64 781.039 L
338.78 788.111 L
343.92 794.269 L
349.06 799.576 L
354.2 804.099 L
359.34 807.889 L
364.48 811.001 L
369.62 813.492 L
374.76 815.425 L
379.9 816.877 L
385.04 817.951 L
390.18 818.757 L
395.32 819.406 L
400.46 819.988 L
405.6 820.573 L
410.74 821.209 L
415.88 821.92 L
421.02 822.711 L
426.16 823.57 L
431.3 824.461 L
436.44 825.338 L
441.58 826.134 L
446.72 826.755 L
451.86 827.067 L
457 827.022 L
462.14 826.755 L
467.28 826.441 L
472.42 826.195 L
477.56 826.084 L
482.7 826.133 L
487.84 826.355 L
492.98 826.728 L
498.12 827.217 L
503.26 827.777 L
508.4 828.318 L
513.54 828.512 L
518.68 828.142 L
523.82 827.707 L
528.96 827.377 L
534.1 827.206 L
539.24 827.213 L
544.38 827.4 L
549.52 827.743 L
554.66 828.201 L
559.8 828.717 L
564.94 828.743 L
570.08 828.276 L
575.22 827.91 L
580.36 827.692 L
585.5 827.65 L
590.64 827.786 L
595.78 828.079 L
600.92 828.481 L
606.06 828.913 L
611.2 828.613 L
616.34 828.249 L
621.48 828.01 L
626.62 827.932 L
631.76 828.026 L
636.9 828.266 L
642.04 828.602 L
647.18 828.897 L
652.32 828.631 L
657.46 828.347 L
662.6 828.163 L
667.74 828.159 L
672.88 828.278 L
678.02 828.566 L
683.16 828.927 L
688.3 828.71 L
693.44 828.464 L
698.58 828.368 L
703.72 828.412 L
708.86 828.551 L
714 828.802 L
S
GR
GS
[0.6 0 0 0.6 0 0] CT
0 1 0 RC
[12 3 6 3] 0 setdash
2 LJ
3.333 LW
N
205.14 827.766 M
210.28 824.109 L
215.42 818.157 L
220.56 810.114 L
225.7 800.244 L
230.84 788.855 L
235.98 776.284 L
241.12 762.891 L
246.26 749.066 L
251.4 735.247 L
256.54 721.95 L
261.68 709.796 L
266.82 699.521 L
271.96 691.931 L
277.1 687.788 L
282.24 687.592 L
287.38 691.394 L
292.52 698.71 L
297.66 708.633 L
302.8 720.085 L
307.94 732.071 L
313.08 743.823 L
318.22 754.841 L
323.36 764.854 L
328.5 773.758 L
333.64 781.555 L
338.78 788.312 L
343.92 794.123 L
349.06 799.089 L
354.2 803.303 L
359.34 806.749 L
364.48 810.638 L
369.62 812.913 L
374.76 815.135 L
379.9 817.101 L
385.04 818.877 L
390.18 820.578 L
395.32 822.459 L
400.46 825.736 L
405.6 803.934 L
410.74 819.959 L
415.88 822.21 L
421.02 823.391 L
426.16 824.211 L
431.3 824.804 L
436.44 825.016 L
441.58 825.995 L
446.72 826.534 L
451.86 827.137 L
457 827.646 L
462.14 828.618 L
467.28 828.513 L
472.42 827.346 L
477.56 821.726 L
482.7 824.607 L
487.84 826.093 L
492.98 826.864 L
498.12 827.247 L
503.26 827.525 L
508.4 828.284 L
513.54 828.949 L
518.68 828.757 L
523.82 828.061 L
528.96 827.005 L
534.1 825.096 L
539.24 826.006 L
544.38 827.056 L
549.52 827.799 L
554.66 828.234 L
559.8 828.667 L
564.94 828.695 L
570.08 828.341 L
575.22 827.727 L
580.36 826.715 L
585.5 826.582 L
590.64 827.36 L
595.78 827.952 L
600.92 828.449 L
606.06 828.808 L
611.2 828.518 L
616.34 828.12 L
621.48 827.586 L
626.62 827.214 L
631.76 827.552 L
636.9 828.088 L
642.04 828.567 L
647.18 828.856 L
652.32 828.537 L
657.46 828.182 L
662.6 827.855 L
667.74 827.828 L
672.88 828.13 L
678.02 828.526 L
683.16 828.915 L
688.3 828.703 L
693.44 828.416 L
698.58 828.21 L
703.72 828.207 L
708.86 828.425 L
714 828.738 L
S
GR
GS
[0.6 0 0 0.6 0 0] CT
1 GC
N
876 829 M
1390 829 L
1390 658 L
876 658 L
cp
f
GR
GS
[0.6 0 0 0.6 0 0] CT
0.149 GC
2 setlinecap
1 LJ
0.833 LW
N
876 829 M
1390 829 L
S
GR
GS
[0.6 0 0 0.6 0 0] CT
0.149 GC
2 setlinecap
1 LJ
0.833 LW
N
876 658 M
1390 658 L
S
GR
GS
[0.6 0 0 0.6 0 0] CT
0.149 GC
2 setlinecap
1 LJ
0.833 LW
N
876 829 M
876 823.86 L
S
GR
GS
[0.6 0 0 0.6 0 0] CT
0.149 GC
2 setlinecap
1 LJ
0.833 LW
N
957.847 829 M
957.847 823.86 L
S
GR
GS
[0.6 0 0 0.6 0 0] CT
0.149 GC
2 setlinecap
1 LJ
0.833 LW
N
1039.694 829 M
1039.694 823.86 L
S
GR
GS
[0.6 0 0 0.6 0 0] CT
0.149 GC
2 setlinecap
1 LJ
0.833 LW
N
1121.541 829 M
1121.541 823.86 L
S
GR
GS
[0.6 0 0 0.6 0 0] CT
0.149 GC
2 setlinecap
1 LJ
0.833 LW
N
1203.389 829 M
1203.389 823.86 L
S
GR
GS
[0.6 0 0 0.6 0 0] CT
0.149 GC
2 setlinecap
1 LJ
0.833 LW
N
1285.236 829 M
1285.236 823.86 L
S
GR
GS
[0.6 0 0 0.6 0 0] CT
0.149 GC
2 setlinecap
1 LJ
0.833 LW
N
1367.083 829 M
1367.083 823.86 L
S
GR
GS
[0.6 0 0 0.6 0 0] CT
0.149 GC
2 setlinecap
1 LJ
0.833 LW
N
876 658 M
876 663.14 L
S
GR
GS
[0.6 0 0 0.6 0 0] CT
0.149 GC
2 setlinecap
1 LJ
0.833 LW
N
957.847 658 M
957.847 663.14 L
S
GR
GS
[0.6 0 0 0.6 0 0] CT
0.149 GC
2 setlinecap
1 LJ
0.833 LW
N
1039.694 658 M
1039.694 663.14 L
S
GR
GS
[0.6 0 0 0.6 0 0] CT
0.149 GC
2 setlinecap
1 LJ
0.833 LW
N
1121.541 658 M
1121.541 663.14 L
S
GR
GS
[0.6 0 0 0.6 0 0] CT
0.149 GC
2 setlinecap
1 LJ
0.833 LW
N
1203.389 658 M
1203.389 663.14 L
S
GR
GS
[0.6 0 0 0.6 0 0] CT
0.149 GC
2 setlinecap
1 LJ
0.833 LW
N
1285.236 658 M
1285.236 663.14 L
S
GR
GS
[0.6 0 0 0.6 0 0] CT
0.149 GC
2 setlinecap
1 LJ
0.833 LW
N
1367.083 658 M
1367.083 663.14 L
S
GR
GS
[0.6 0 0 0.6 525.60002 502.39999] CT
0.149 GC
/Helvetica-Bold 25 F
GS
[1 0 0 1 0 0] CT
-7 26 moveto 
1 -1 scale
(0) t 
GR
GR
GS
[0.6 0 0 0.6 574.70829 502.39999] CT
0.149 GC
/Helvetica-Bold 25 F
GS
[1 0 0 1 0 0] CT
-7 26 moveto 
1 -1 scale
(1) t 
GR
GR
GS
[0.6 0 0 0.6 623.81655 502.39999] CT
0.149 GC
/Helvetica-Bold 25 F
GS
[1 0 0 1 0 0] CT
-7 26 moveto 
1 -1 scale
(2) t 
GR
GR
GS
[0.6 0 0 0.6 672.92486 502.39999] CT
0.149 GC
/Helvetica-Bold 25 F
GS
[1 0 0 1 0 0] CT
-7 26 moveto 
1 -1 scale
(3) t 
GR
GR
GS
[0.6 0 0 0.6 722.03316 502.39999] CT
0.149 GC
/Helvetica-Bold 25 F
GS
[1 0 0 1 0 0] CT
-7 26 moveto 
1 -1 scale
(4) t 
GR
GR
GS
[0.6 0 0 0.6 771.14146 502.39999] CT
0.149 GC
/Helvetica-Bold 25 F
GS
[1 0 0 1 0 0] CT
-7 26 moveto 
1 -1 scale
(5) t 
GR
GR
GS
[0.6 0 0 0.6 820.24969 502.39999] CT
0.149 GC
/Helvetica-Bold 25 F
GS
[1 0 0 1 0 0] CT
-7 26 moveto 
1 -1 scale
(6) t 
GR
GR
GS
[0.6 0 0 0.6 646.20003 539.4] CT
0.149 GC
N
f876989070
f
GR
GS
[0.6 0 0 0.6 657.60003 539.4] CT
0.149 GC
/Helvetica-Bold 27.5 F
GS
[1 0 0 1 0 0] CT
0 0 moveto 
1 -1 scale
( [rad/s]) t 
GR
GR
GS
[0.6 0 0 0.6 0 0] CT
0.149 GC
2 setlinecap
1 LJ
0.833 LW
N
876 829 M
876 658 L
S
GR
GS
[0.6 0 0 0.6 0 0] CT
0.149 GC
2 setlinecap
1 LJ
0.833 LW
N
1390 829 M
1390 658 L
S
GR
GS
[0.6 0 0 0.6 0 0] CT
0.149 GC
2 setlinecap
1 LJ
0.833 LW
N
876 829 M
881.14 829 L
S
GR
GS
[0.6 0 0 0.6 0 0] CT
0.149 GC
2 setlinecap
1 LJ
0.833 LW
N
876 743.5 M
881.14 743.5 L
S
GR
GS
[0.6 0 0 0.6 0 0] CT
0.149 GC
2 setlinecap
1 LJ
0.833 LW
N
876 658 M
881.14 658 L
S
GR
GS
[0.6 0 0 0.6 0 0] CT
0.149 GC
2 setlinecap
1 LJ
0.833 LW
N
1390 829 M
1384.86 829 L
S
GR
GS
[0.6 0 0 0.6 0 0] CT
0.149 GC
2 setlinecap
1 LJ
0.833 LW
N
1390 743.5 M
1384.86 743.5 L
S
GR
GS
[0.6 0 0 0.6 0 0] CT
0.149 GC
2 setlinecap
1 LJ
0.833 LW
N
1390 658 M
1384.86 658 L
S
GR
GS
[0.6 0 0 0.6 520.60003 497.4] CT
0.149 GC
/Helvetica-Bold 25 F
GS
[1 0 0 1 0 0] CT
-14 10 moveto 
1 -1 scale
(0) t 
GR
GR
GS
[0.6 0 0 0.6 520.60003 446.1] CT
0.149 GC
/Helvetica-Bold 25 F
GS
[1 0 0 1 0 0] CT
-56 10 moveto 
1 -1 scale
(2000) t 
GR
GR
GS
[0.6 0 0 0.6 520.60003 394.8] CT
0.149 GC
/Helvetica-Bold 25 F
GS
[1 0 0 1 0 0] CT
-56 10 moveto 
1 -1 scale
(4000) t 
GR
GR
GS
[0 -0.6 0.6 0 473.40002 467.4] CT
0.149 GC
/Helvetica-Bold 27.5 F
GS
[1 0 0 1 0 0] CT
0 0 moveto 
1 -1 scale
(|F) t 
GR
GR
GS
[0 -0.6 0.6 0 481.20002 452.4] CT
0.149 GC
/Helvetica-Bold 22 F
GS
[1 0 0 1 0 0] CT
0 0 moveto 
1 -1 scale
(ex) t 
GR
GR
GS
[0 -0.6 0.6 0 473.40002 437.4] CT
0.149 GC
/Helvetica-Bold 27.5 F
GS
[1 0 0 1 0 0] CT
0 0 moveto 
1 -1 scale
(|) t 
GR
GR
GS
[0 -0.6 0.6 0 481.20002 432.6] CT
0.149 GC
/Helvetica-Bold 22 F
GS
[1 0 0 1 0 0] CT
0 0 moveto 
1 -1 scale
(6) t 
GR
GR
GS
[0.6 0 0 0.6 0 0] CT
0 0 1 RC
1 LJ
3.333 LW
N
881.14 828.47 M
886.28 826.527 L
891.42 823.322 L
896.56 818.912 L
901.7 813.367 L
906.84 806.766 L
911.98 799.191 L
917.12 790.713 L
922.26 781.393 L
927.4 771.279 L
932.54 760.406 L
937.68 748.824 L
942.82 736.63 L
947.96 724.03 L
953.1 711.386 L
958.24 699.222 L
963.38 688.159 L
968.52 678.784 L
973.66 671.402 L
978.8 666.74 L
983.94 664.535 L
989.08 665.06 L
994.22 668.396 L
999.36 674.517 L
1004.5 683.19 L
1009.64 693.74 L
1014.78 705.314 L
1019.92 716.928 L
1025.06 727.633 L
1030.2 736.591 L
1035.34 743.213 L
1040.48 747.417 L
1045.62 749.755 L
1050.76 751.107 L
1055.9 752.186 L
1061.04 753.298 L
1066.18 754.477 L
1071.32 755.733 L
1076.46 757.207 L
1081.6 759.115 L
1086.74 761.717 L
1091.88 765.177 L
1097.02 769.593 L
1102.16 775.042 L
1107.3 781.62 L
1112.44 789.409 L
1117.58 798.353 L
1122.72 808.155 L
1127.86 818.236 L
1133 826.187 L
1138.14 819.629 L
1143.28 811.805 L
1148.42 805.338 L
1153.56 800.312 L
1158.7 796.61 L
1163.84 794.153 L
1168.98 792.98 L
1174.12 793.178 L
1179.26 794.712 L
1184.4 796.947 L
1189.54 796.945 L
1194.68 793.45 L
1199.82 798.304 L
1204.96 806.825 L
1210.1 810.733 L
1215.24 809.095 L
1220.38 814.376 L
1225.52 817.905 L
1230.66 822.003 L
1235.8 820.579 L
1240.94 821.337 L
1246.08 824.015 L
1251.22 821.38 L
1256.36 820.629 L
1261.5 817.5 L
1266.64 813.154 L
1271.78 813.765 L
1276.92 814.805 L
1282.06 814.151 L
1287.2 813.173 L
1292.34 814.163 L
1297.48 818.393 L
1302.62 817.495 L
1307.76 819.537 L
1312.9 822.804 L
1318.04 823.107 L
1323.18 823.849 L
1328.32 824.561 L
1333.46 824.097 L
1338.6 823.791 L
1343.74 823.485 L
1348.88 823.321 L
1354.02 822.923 L
1359.16 822.157 L
1364.3 821.63 L
1369.44 821.502 L
1374.58 822.376 L
1379.72 823.844 L
1384.86 824.534 L
1390 825.054 L
S
GR
GS
[0.6 0 0 0.6 0 0] CT
1 0 0 RC
[12 12] 0 setdash
2 LJ
3.333 LW
N
881.14 824.805 M
886.28 826.321 L
891.42 826.338 L
896.56 822.539 L
901.7 817.064 L
906.84 810.417 L
911.98 802.749 L
917.12 794.151 L
922.26 784.711 L
927.4 774.491 L
932.54 763.544 L
937.68 751.926 L
942.82 739.759 L
947.96 727.29 L
953.1 714.853 L
958.24 702.965 L
963.38 692.241 L
968.52 683.177 L
973.66 676.241 L
978.8 671.663 L
983.94 669.643 L
989.08 670.279 L
994.22 673.644 L
999.36 679.672 L
1004.5 688.075 L
1009.64 698.301 L
1014.78 709.512 L
1019.92 720.825 L
1025.06 731.32 L
1030.2 740.17 L
1035.34 746.829 L
1040.48 751.116 L
1045.62 753.469 L
1050.76 754.601 L
1055.9 755.192 L
1061.04 755.677 L
1066.18 756.202 L
1071.32 756.912 L
1076.46 758.007 L
1081.6 759.68 L
1086.74 762.168 L
1091.88 765.68 L
1097.02 770.317 L
1102.16 776.155 L
1107.3 783.248 L
1112.44 791.558 L
1117.58 800.818 L
1122.72 810.608 L
1127.86 819.688 L
1133 821.577 L
1138.14 814.322 L
1143.28 806.466 L
1148.42 799.694 L
1153.56 794.292 L
1158.7 790.281 L
1163.84 787.677 L
1168.98 786.473 L
1174.12 786.645 L
1179.26 788.059 L
1184.4 790.43 L
1189.54 793.428 L
1194.68 796.682 L
1199.82 799.876 L
1204.96 802.783 L
1210.1 805.339 L
1215.24 807.605 L
1220.38 809.784 L
1225.52 811.989 L
1230.66 814.271 L
1235.8 816.539 L
1240.94 818.488 L
1246.08 819.62 L
1251.22 819.6 L
1256.36 818.596 L
1261.5 817.134 L
1266.64 815.75 L
1271.78 814.744 L
1276.92 814.22 L
1282.06 814.225 L
1287.2 814.69 L
1292.34 815.475 L
1297.48 816.487 L
1302.62 817.721 L
1307.76 819.16 L
1312.9 820.844 L
1318.04 822.976 L
1323.18 824.023 L
1328.32 823.927 L
1333.46 823.336 L
1338.6 823.338 L
1343.74 822.957 L
1348.88 823.372 L
1354.02 823.041 L
1359.16 822.065 L
1364.3 822.292 L
1369.44 822.447 L
1374.58 823.714 L
1379.72 824.199 L
1384.86 825.381 L
1390 826.349 L
S
GR
GS
[0.6 0 0 0.6 0 0] CT
0 1 0 RC
[12 3 6 3] 0 setdash
2 LJ
3.333 LW
N
881.14 824.805 M
886.28 826.32 L
891.42 826.337 L
896.56 822.537 L
901.7 817.061 L
906.84 810.413 L
911.98 802.742 L
917.12 794.137 L
922.26 784.684 L
927.4 774.437 L
932.54 763.441 L
937.68 751.737 L
942.82 739.428 L
947.96 726.746 L
953.1 714.012 L
958.24 701.752 L
963.38 690.602 L
968.52 681.096 L
973.66 673.733 L
978.8 668.771 L
983.94 666.412 L
989.08 666.795 L
994.22 669.994 L
999.36 676 L
1004.5 684.534 L
1009.64 694.977 L
1014.78 706.421 L
1019.92 717.864 L
1025.06 728.275 L
1030.2 736.624 L
1035.34 741.409 L
1040.48 751.911 L
1045.62 750.796 L
1050.76 751.266 L
1055.9 751.741 L
1061.04 752.361 L
1066.18 753.06 L
1071.32 753.795 L
1076.46 754.497 L
1081.6 782.551 L
1086.74 762.09 L
1091.88 764.56 L
1097.02 768.568 L
1102.16 773.543 L
1107.3 778.738 L
1112.44 776.055 L
1117.58 796.908 L
1122.72 825.919 L
1127.86 818.543 L
1133 824.911 L
1138.14 817.134 L
1143.28 805.499 L
1148.42 807.368 L
1153.56 795.034 L
1158.7 789.139 L
1163.84 787.157 L
1168.98 786.345 L
1174.12 787.096 L
1179.26 792.877 L
1184.4 793.449 L
1189.54 790.565 L
1194.68 794.064 L
1199.82 798.931 L
1204.96 805.279 L
1210.1 815.605 L
1215.24 811.195 L
1220.38 813.155 L
1225.52 813.627 L
1230.66 817.277 L
1235.8 823.528 L
1240.94 818.91 L
1246.08 819.602 L
1251.22 820.56 L
1256.36 821.285 L
1261.5 818.331 L
1266.64 816.756 L
1271.78 815.971 L
1276.92 815.939 L
1282.06 814.515 L
1287.2 815.517 L
1292.34 817.599 L
1297.48 818.327 L
1302.62 818.924 L
1307.76 819.862 L
1312.9 822.148 L
1318.04 825.071 L
1323.18 824.079 L
1328.32 823.818 L
1333.46 824.391 L
1338.6 822.987 L
1343.74 822.076 L
1348.88 822.62 L
1354.02 823.398 L
1359.16 822.822 L
1364.3 822.229 L
1369.44 822.914 L
1374.58 823.215 L
1379.72 823.587 L
1384.86 824.634 L
1390 825.836 L
S
GR
%%Trailer
%%Pages: 1
%%EOF
